<?xml version="1.0" encoding="UTF-8" standalone="no"?>
<!-- Created using Karbon, part of Calligra: http://www.calligra.org/karbon -->

<svg
   xmlns:dc="http://purl.org/dc/elements/1.1/"
   xmlns:cc="http://creativecommons.org/ns#"
   xmlns:rdf="http://www.w3.org/1999/02/22-rdf-syntax-ns#"
   xmlns:svg="http://www.w3.org/2000/svg"
   xmlns="http://www.w3.org/2000/svg"
   xmlns:sodipodi="http://sodipodi.sourceforge.net/DTD/sodipodi-0.dtd"
   xmlns:inkscape="http://www.inkscape.org/namespaces/inkscape"
   width="38.4pt"
   height="38.4pt"
   id="svg2"
   version="1.1"
   inkscape:version="0.48.5 r10040"
   sodipodi:docname="weather-mist.svg">
  <metadata
     id="metadata10">
    <rdf:RDF>
      <cc:Work
         rdf:about="">
        <dc:format>image/svg+xml</dc:format>
        <dc:type
           rdf:resource="http://purl.org/dc/dcmitype/StillImage" />
        <dc:title></dc:title>
      </cc:Work>
    </rdf:RDF>
  </metadata>
  <sodipodi:namedview
     pagecolor="#ffffff"
     bordercolor="#666666"
     borderopacity="1"
     objecttolerance="10"
     gridtolerance="10"
     guidetolerance="10"
     inkscape:pageopacity="0"
     inkscape:pageshadow="2"
     inkscape:window-width="971"
     inkscape:window-height="706"
     id="namedview8"
     showgrid="false"
     inkscape:zoom="6.1469579"
     inkscape:cx="13.748101"
     inkscape:cy="19.671886"
     inkscape:window-x="382"
     inkscape:window-y="160"
     inkscape:window-maximized="0"
     inkscape:current-layer="svg2" />
  <defs
     id="defs4">
    <filter
       inkscape:collect="always"
       id="filter3800">
      <feGaussianBlur
         inkscape:collect="always"
         stdDeviation="0.66067519"
         id="feGaussianBlur3802" />
    </filter>
  </defs>
  <path
     style="color:#000000;fill:#b1ada3;fill-opacity:1;fill-rule:nonzero;stroke:#b1ada3;stroke-width:0.5;stroke-linecap:butt;stroke-linejoin:miter;stroke-miterlimit:4;stroke-opacity:1;stroke-dasharray:none;stroke-dashoffset:0;marker:none;visibility:visible;display:inline;overflow:visible;enable-background:accumulate"
     d="M 2.53125 8.71875 L 2.53125 39.28125 L 45.46875 39.28125 L 45.46875 8.71875 L 2.53125 8.71875 z M 4.09375 9.84375 L 43.90625 9.84375 L 43.90625 38.15625 L 4.09375 38.15625 L 4.09375 9.84375 z "
     id="rect3823" />
  <path
     style="color:#000000;fill:#b1ada3;fill-opacity:1;fill-rule:nonzero;stroke:#b1ada3;stroke-width:0.5;stroke-linecap:butt;stroke-linejoin:miter;stroke-miterlimit:4;stroke-opacity:1;stroke-dasharray:none;stroke-dashoffset:0;marker:none;visibility:visible;display:inline;overflow:visible;enable-background:accumulate"
     d="M 24 14.15625 C 18.564266 14.15625 14.15625 18.564266 14.15625 24 C 14.15625 29.435734 18.564266 33.84375 24 33.84375 C 29.435734 33.84375 33.84375 29.435734 33.84375 24 C 33.84375 18.564266 29.435734 14.15625 24 14.15625 z M 24 16.21875 C 28.296658 16.21875 31.78125 19.703342 31.78125 24 C 31.78125 28.296658 28.296658 31.78125 24 31.78125 C 19.703342 31.78125 16.21875 28.296658 16.21875 24 C 16.21875 19.703342 19.703342 16.21875 24 16.21875 z "
     id="path3830" />
  <rect
     style="color:#000000;fill:#b1ada3;fill-opacity:1;fill-rule:nonzero;stroke:#b1ada3;stroke-width:0.5;stroke-linecap:butt;stroke-linejoin:miter;stroke-miterlimit:4;stroke-opacity:1;stroke-dasharray:none;stroke-dashoffset:0;marker:none;visibility:visible;display:inline;overflow:visible;enable-background:accumulate"
     id="rect3835"
     width="1.7895031"
     height="26.517181"
     x="32.904964"
     y="-11.917603"
     transform="matrix(0.73214625,0.68114747,-0.68114747,0.73214625,0,0)" />
</svg>
