<?xml version="1.0" encoding="UTF-8" standalone="no"?>
<!-- Created using Karbon, part of Calligra: http://www.calligra.org/karbon -->

<svg
   xmlns:dc="http://purl.org/dc/elements/1.1/"
   xmlns:cc="http://creativecommons.org/ns#"
   xmlns:rdf="http://www.w3.org/1999/02/22-rdf-syntax-ns#"
   xmlns:svg="http://www.w3.org/2000/svg"
   xmlns="http://www.w3.org/2000/svg"
   xmlns:sodipodi="http://sodipodi.sourceforge.net/DTD/sodipodi-0.dtd"
   xmlns:inkscape="http://www.inkscape.org/namespaces/inkscape"
   width="38.4pt"
   height="38.4pt"
   id="svg2"
   version="1.1"
   inkscape:version="0.48.4 r9939"
   sodipodi:docname="application-x-subrip.svg">
  <metadata
     id="metadata15">
    <rdf:RDF>
      <cc:Work
         rdf:about="">
        <dc:format>image/svg+xml</dc:format>
        <dc:type
           rdf:resource="http://purl.org/dc/dcmitype/StillImage" />
      </cc:Work>
    </rdf:RDF>
  </metadata>
  <sodipodi:namedview
     pagecolor="#ffffff"
     bordercolor="#666666"
     borderopacity="1"
     objecttolerance="10"
     gridtolerance="10"
     guidetolerance="10"
     inkscape:pageopacity="0"
     inkscape:pageshadow="2"
     inkscape:window-width="1366"
     inkscape:window-height="709"
     id="namedview13"
     showgrid="false"
     inkscape:zoom="6.9532165"
     inkscape:cx="25.140376"
     inkscape:cy="26.013935"
     inkscape:current-layer="svg2"
     inkscape:window-x="0"
     inkscape:window-y="-3"
     inkscape:window-maximized="1" />
  <defs
     id="defs4" />
  <g
     id="layer1"
     transform="matrix(1.1446382,0,0,0.91694783,-3.4765175,1.9901786)"
     style="fill:#2c3e50;fill-opacity:1">
    <path
       id="rect4090"
       transform="translate(7,4)"
       d="M 0,0 0,40 34,40 34.071909,-0.07401129 23,0 z"
       inkscape:connector-curvature="0"
       style="fill:#2c3e50;fill-opacity:1"
       sodipodi:nodetypes="cccccc" />
  </g>
  <rect
     style="fill:#2c3e50;fill-opacity:1;fill-rule:evenodd;stroke:none"
     id="rect2996"
     width="33.222034"
     height="23.345213"
     x="7.3889832"
     y="12.435257" />
  <text
     xml:space="preserve"
     style="font-size:10.35713959px;font-style:normal;font-variant:normal;font-weight:500;font-stretch:normal;line-height:125%;letter-spacing:0px;word-spacing:0px;fill:#ecf0f1;fill-opacity:1;stroke:none;font-family:Century Schoolbook L;-inkscape-font-specification:Century Schoolbook L Medium"
     x="15.770084"
     y="35.86808"
     id="text2992"
     sodipodi:linespacing="125%"
     transform="scale(0.89133979,1.1219066)"><tspan
       sodipodi:role="line"
       id="tspan2994"
       x="15.770084"
       y="35.86808">SUB</tspan></text>
</svg>
