<?xml version="1.0" encoding="UTF-8" standalone="no"?>
<!-- Created with Inkscape (http://www.inkscape.org/) -->

<svg
   xmlns:dc="http://purl.org/dc/elements/1.1/"
   xmlns:cc="http://creativecommons.org/ns#"
   xmlns:rdf="http://www.w3.org/1999/02/22-rdf-syntax-ns#"
   xmlns:svg="http://www.w3.org/2000/svg"
   xmlns="http://www.w3.org/2000/svg"
   xmlns:sodipodi="http://sodipodi.sourceforge.net/DTD/sodipodi-0.dtd"
   xmlns:inkscape="http://www.inkscape.org/namespaces/inkscape"
   width="48"
   height="48"
   id="svg2"
   version="1.1"
   inkscape:version="0.48.5 r10040"
   viewBox="0 0 13.546666 13.546668"
   sodipodi:docname="application-x-theme.svg">
  <defs
     id="defs4">
    <linearGradient
       id="linearGradient943-7">
      <stop
         id="stop945-7"
         offset="0"
         style="stop-color:#4e5db7;stop-opacity:1" />
      <stop
         id="stop947-5"
         offset="1"
         style="stop-color:#6475da;stop-opacity:1" />
    </linearGradient>
    <linearGradient
       id="linearGradient4349">
      <stop
         style="stop-color:#6a76c2;stop-opacity:1"
         offset="0"
         id="stop4351" />
      <stop
         style="stop-color:#a6b0ea;stop-opacity:1"
         offset="1"
         id="stop4353" />
    </linearGradient>
    <linearGradient
       id="linearGradient4320">
      <stop
         style="stop-color:#cdd1eb;stop-opacity:1"
         offset="0"
         id="stop4322" />
      <stop
         style="stop-color:#f7f8fd;stop-opacity:1"
         offset="1"
         id="stop4324" />
    </linearGradient>
  </defs>
  <sodipodi:namedview
     id="base"
     pagecolor="#ffffff"
     bordercolor="#666666"
     borderopacity="1.0"
     inkscape:pageopacity="0"
     inkscape:pageshadow="2"
     inkscape:zoom="10.8125"
     inkscape:cx="10.215903"
     inkscape:cy="24.901284"
     inkscape:document-units="px"
     inkscape:current-layer="layer1"
     showgrid="false"
     inkscape:showpageshadow="false"
     borderlayer="true"
     units="px"
     fit-margin-top="0"
     fit-margin-left="0"
     fit-margin-right="0"
     fit-margin-bottom="0"
     showguides="false"
     inkscape:window-width="971"
     inkscape:window-height="706"
     inkscape:window-x="607"
     inkscape:window-y="140"
     inkscape:window-maximized="0">
    <sodipodi:guide
       position="-6.6748425e-06,47.999999"
       orientation="47.999977,0"
       id="guide4120" />
    <sodipodi:guide
       position="-6.6748425e-06,2.2810037e-05"
       orientation="0,48.000004"
       id="guide4122" />
    <sodipodi:guide
       position="47.999997,2.2810037e-05"
       orientation="-47.999977,0"
       id="guide4124" />
    <sodipodi:guide
       position="47.999997,47.999999"
       orientation="0,-48.000004"
       id="guide4126" />
    <sodipodi:guide
       position="3.9999733,4.0001921"
       orientation="0,40.000003"
       id="guide4140" />
    <sodipodi:guide
       position="43.999976,44.000154"
       orientation="0,-40.000003"
       id="guide4144" />
    <sodipodi:guide
       position="6.9999922,47.999999"
       orientation="39.999962,0"
       id="guide4148" />
    <sodipodi:guide
       position="40.999998,8.0000369"
       orientation="-39.999962,0"
       id="guide4152" />
    <sodipodi:guide
       position="40.999998,47.999999"
       orientation="0,-34.000006"
       id="guide4154" />
    <sodipodi:guide
       position="14.999993,32.999986"
       orientation="17.999951,0"
       id="guide4158" />
    <sodipodi:guide
       position="14.999993,15.000036"
       orientation="0,17.999998"
       id="guide4160" />
    <sodipodi:guide
       position="32.999991,15.000036"
       orientation="-17.999951,0"
       id="guide4162" />
    <sodipodi:guide
       position="32.999991,32.999986"
       orientation="0,-17.999998"
       id="guide4164" />
    <sodipodi:guide
       position="1.9999969,4.0000839"
       orientation="0,44.000003"
       id="guide3281" />
    <sodipodi:guide
       position="46,44.000046"
       orientation="0,-44.000003"
       id="guide3285" />
    <sodipodi:guide
       position="29.999938,44.000046"
       orientation="11.00006,0"
       id="guide4096" />
    <sodipodi:guide
       position="29.999938,32.999986"
       orientation="0,11.00006"
       id="guide4098" />
    <sodipodi:guide
       position="40.999998,32.999986"
       orientation="-11.00006,0"
       id="guide4100" />
    <sodipodi:guide
       position="40.999998,44.000046"
       orientation="0,-11.00006"
       id="guide4102" />
    <sodipodi:guide
       position="40.999999,32.999978"
       orientation="0,-11.000061"
       id="guide4141" />
    <sodipodi:guide
       position="29.999938,32.999978"
       orientation="-11.000054,0"
       id="guide4143" />
    <sodipodi:guide
       position="29.999938,44.000032"
       orientation="-0.0001062992,3.000054"
       id="guide4145" />
    <inkscape:grid
       type="xygrid"
       id="grid3022" />
  </sodipodi:namedview>
  <metadata
     id="metadata7">
    <rdf:RDF>
      <cc:Work
         rdf:about="">
        <dc:format>image/svg+xml</dc:format>
        <dc:type
           rdf:resource="http://purl.org/dc/dcmitype/StillImage" />
        <dc:title />
      </cc:Work>
    </rdf:RDF>
  </metadata>
  <g
     inkscape:label="Capa 1"
     inkscape:groupmode="layer"
     id="layer1"
     transform="translate(38.119153,-397.84494)">
    <path
       style="fill:#f39c12"
       inkscape:connector-curvature="0"
       id="rect4090"
       d="m -36.849155,399.43304 0,10.37047 11.006671,0 0,-10.33377 -3.560982,-0.0367 z"
       sodipodi:nodetypes="cccccc" />
    <g
       transform="matrix(0.24846976,0,0,0.24846976,-64.334485,202.69751)"
       id="layer1-0"
       inkscape:label="Capa 1"
       style="fill:#ecf0f1;fill-opacity:1">
      <desc
         id="desc3024">Path taken from Nitrux icon pack</desc>
      <flowRoot
         transform="translate(-208.57144,397.14281)"
         style="font-size:40px;font-style:normal;font-weight:normal;line-height:125%;letter-spacing:0px;word-spacing:0px;fill:#ecf0f1;fill-opacity:1;stroke:none;font-family:sans-serif"
         id="flowRoot4913"
         xml:space="preserve"><flowRegion
           id="flowRegion4915"><rect
             y="-275.85492"
             x="134.35028"
             height="189.50462"
             width="199.40411"
             id="rect4917"
             style="fill:#ecf0f1;fill-opacity:1" /></flowRegion><flowPara
           id="flowPara4919" /></flowRoot>      <path
         id="rect4299"
         d="m 125.61152,800.73095 0,2.38527 -2.38526,0 -2.38527,0 0,2.38527 0,3.97544 0,2.38527 13.11897,0 0,3.18035 -1.59018,0 0,9.54107 5.56562,0 0,-9.54107 -1.59018,0 0,-5.56562 -13.11896,0 0,-3.97544 2.38526,0 0,2.38526 19.08214,0 0,-7.1558 -19.08214,0 z"
         style="fill:#ecf0f1;fill-opacity:1;stroke:none"
         inkscape:connector-curvature="0" />
    </g>
  </g>
</svg>
