<?xml version="1.0" encoding="UTF-8" standalone="no"?>
<!-- Created using Karbon, part of Calligra: http://www.calligra.org/karbon -->

<svg
   xmlns:dc="http://purl.org/dc/elements/1.1/"
   xmlns:cc="http://creativecommons.org/ns#"
   xmlns:rdf="http://www.w3.org/1999/02/22-rdf-syntax-ns#"
   xmlns:svg="http://www.w3.org/2000/svg"
   xmlns="http://www.w3.org/2000/svg"
   xmlns:sodipodi="http://sodipodi.sourceforge.net/DTD/sodipodi-0.dtd"
   xmlns:inkscape="http://www.inkscape.org/namespaces/inkscape"
   width="38.4pt"
   height="38.4pt"
   id="svg2"
   version="1.1"
   inkscape:version="0.48.4 r9939"
   sodipodi:docname="application-x-gzip.svg">
  <metadata
     id="metadata28">
    <rdf:RDF>
      <cc:Work
         rdf:about="">
        <dc:format>image/svg+xml</dc:format>
        <dc:type
           rdf:resource="http://purl.org/dc/dcmitype/StillImage" />
        <dc:title />
      </cc:Work>
    </rdf:RDF>
  </metadata>
  <sodipodi:namedview
     pagecolor="#ffffff"
     bordercolor="#666666"
     borderopacity="1"
     objecttolerance="10"
     gridtolerance="10"
     guidetolerance="10"
     inkscape:pageopacity="0"
     inkscape:pageshadow="2"
     inkscape:window-width="1680"
     inkscape:window-height="991"
     id="namedview26"
     showgrid="false"
     inkscape:zoom="14.189645"
     inkscape:cx="12.781302"
     inkscape:cy="24.062442"
     inkscape:current-layer="svg2"
     inkscape:window-x="0"
     inkscape:window-y="-3"
     inkscape:window-maximized="1" />
  <defs
     id="defs4" />
  <path
     sodipodi:nodetypes="cccccc"
     style="fill:#bdc3c7"
     inkscape:connector-curvature="0"
     d="m 4.499996,5.6271117 0,36.7457773 39.000009,0 0,-36.6754633 -12.61765,-0.070314 z"
     id="rect4090" />
  <g
     id="g3018"
     transform="matrix(1.1014812,0,0,0.87924401,-2.4353929,0.4284223)">
    <rect
       id="shape0"
       stroke-miterlimit="2.01260185242"
       width="5.4274774"
       height="19.795769"
       x="21.275965"
       y="5.6290684"
       style="fill:#34495e;fill-rule:evenodd;stroke:#003bc3;stroke-width:0;stroke-linecap:square;stroke-linejoin:miter;stroke-miterlimit:2.01260185" />
    <rect
       id="shape1"
       stroke-miterlimit="2.01260185242"
       width="3.2564054"
       height="1.4654016"
       x="21.302347"
       y="5.6349387"
       style="fill:#ecf0f1;fill-rule:evenodd;stroke:#003bc3;stroke-width:0;stroke-linecap:square;stroke-linejoin:miter;stroke-miterlimit:2.01260185" />
    <rect
       id="shape2"
       stroke-miterlimit="2.00000000000"
       width="3.2564054"
       height="1.4654016"
       x="23.465931"
       y="7.1004887"
       style="fill:#ecf0f1;fill-rule:evenodd;stroke:#003bc3;stroke-width:0;stroke-linecap:square;stroke-linejoin:miter;stroke-miterlimit:2" />
    <rect
       id="shape3"
       stroke-miterlimit="2.00000000000"
       width="3.2564054"
       height="1.4654016"
       x="21.302462"
       y="8.5685101"
       style="fill:#ecf0f1;fill-rule:evenodd;stroke:#003bc3;stroke-width:0;stroke-linecap:square;stroke-linejoin:miter;stroke-miterlimit:2" />
    <rect
       id="shape4"
       stroke-miterlimit="2.00000000000"
       width="3.2564054"
       height="1.4654016"
       x="23.46616"
       y="10.03407"
       style="fill:#ecf0f1;fill-rule:evenodd;stroke:#003bc3;stroke-width:0;stroke-linecap:square;stroke-linejoin:miter;stroke-miterlimit:2" />
    <rect
       id="shape5"
       stroke-miterlimit="2.00000000000"
       width="3.2564054"
       height="1.4654016"
       x="21.29925"
       y="11.503496"
       style="fill:#ecf0f1;fill-rule:evenodd;stroke:#003bc3;stroke-width:0;stroke-linecap:square;stroke-linejoin:miter;stroke-miterlimit:2" />
    <rect
       id="shape6"
       stroke-miterlimit="2.00000000000"
       width="3.2564054"
       height="1.4654016"
       x="23.462833"
       y="12.96901"
       style="fill:#ecf0f1;fill-rule:evenodd;stroke:#003bc3;stroke-width:0;stroke-linecap:square;stroke-linejoin:miter;stroke-miterlimit:2" />
    <rect
       id="shape7"
       stroke-miterlimit="2.00000000000"
       width="3.2564054"
       height="1.4654016"
       x="21.29925"
       y="14.437004"
       style="fill:#ecf0f1;fill-rule:evenodd;stroke:#003bc3;stroke-width:0;stroke-linecap:square;stroke-linejoin:miter;stroke-miterlimit:2" />
    <rect
       id="shape8"
       stroke-miterlimit="2.00000000000"
       width="3.2564054"
       height="1.4654016"
       x="23.462833"
       y="15.902609"
       style="fill:#ecf0f1;fill-rule:evenodd;stroke:#003bc3;stroke-width:0;stroke-linecap:square;stroke-linejoin:miter;stroke-miterlimit:2" />
    <rect
       id="shape9"
       stroke-miterlimit="2.00000000000"
       width="3.2564054"
       height="1.4654016"
       x="21.277571"
       y="17.370695"
       style="fill:#ecf0f1;fill-rule:evenodd;stroke:#003bc3;stroke-width:0;stroke-linecap:square;stroke-linejoin:miter;stroke-miterlimit:2" />
    <rect
       id="shape10"
       stroke-miterlimit="2.00000000000"
       width="3.2564054"
       height="1.4654016"
       x="23.441038"
       y="18.836208"
       style="fill:#ecf0f1;fill-rule:evenodd;stroke:#003bc3;stroke-width:0;stroke-linecap:square;stroke-linejoin:miter;stroke-miterlimit:2" />
    <rect
       id="shape11"
       stroke-miterlimit="2.00000000000"
       width="3.2564054"
       height="1.4654016"
       x="21.277571"
       y="20.304295"
       style="fill:#ecf0f1;fill-rule:evenodd;stroke:#003bc3;stroke-width:0;stroke-linecap:square;stroke-linejoin:miter;stroke-miterlimit:2" />
    <rect
       id="shape12"
       stroke-miterlimit="2.00000000000"
       width="3.2564054"
       height="1.4654016"
       x="23.441269"
       y="21.769808"
       style="fill:#ecf0f1;fill-rule:evenodd;stroke:#003bc3;stroke-width:0;stroke-linecap:square;stroke-linejoin:miter;stroke-miterlimit:2" />
    <rect
       id="shape13"
       stroke-miterlimit="2.00000000000"
       width="3.2564054"
       height="1.4654016"
       x="21.274359"
       y="23.239271"
       style="fill:#ecf0f1;fill-rule:evenodd;stroke:#003bc3;stroke-width:0;stroke-linecap:square;stroke-linejoin:miter;stroke-miterlimit:2" />
    <rect
       id="shape17"
       stroke-miterlimit="2.00000000000"
       width="5.4192996"
       height="9.7665815"
       x="21.285601"
       y="24.824669"
       style="fill:#ecf0f1;fill-rule:evenodd;stroke:#003bc3;stroke-width:0;stroke-linecap:square;stroke-linejoin:miter;stroke-miterlimit:2" />
    <rect
       id="shape18"
       stroke-miterlimit="2.00000000000"
       width="3.1765904"
       height="2.3104672"
       x="22.427498"
       y="25.799717"
       style="fill:#2c3e50;fill-rule:evenodd;stroke:#003bc3;stroke-width:0;stroke-linecap:square;stroke-linejoin:miter;stroke-miterlimit:2" />
  </g>
  <text
     xml:space="preserve"
     style="font-size:8px;font-style:normal;font-variant:normal;font-weight:bold;font-stretch:normal;line-height:125%;letter-spacing:0px;word-spacing:0px;fill:#2c3e50;fill-opacity:1;stroke:none;font-family:Century Schoolbook L;-inkscape-font-specification:Sans Bold"
     x="14.132812"
     y="40.31834"
     id="text2999"
     sodipodi:linespacing="125%"><tspan
       sodipodi:role="line"
       id="tspan3001"
       x="14.132812"
       y="40.31834"
       style="font-style:normal;font-variant:normal;font-weight:bold;font-stretch:normal;fill:#2c3e50;fill-opacity:1;font-family:DejaVu Sans;-inkscape-font-specification:DejaVu Sans Bold">Gzip</tspan></text>
</svg>
