<?xml version="1.0" encoding="UTF-8" standalone="no"?>
<!-- Created using Karbon, part of Calligra: http://www.calligra.org/karbon -->

<svg
   xmlns:dc="http://purl.org/dc/elements/1.1/"
   xmlns:cc="http://creativecommons.org/ns#"
   xmlns:rdf="http://www.w3.org/1999/02/22-rdf-syntax-ns#"
   xmlns:svg="http://www.w3.org/2000/svg"
   xmlns="http://www.w3.org/2000/svg"
   xmlns:sodipodi="http://sodipodi.sourceforge.net/DTD/sodipodi-0.dtd"
   xmlns:inkscape="http://www.inkscape.org/namespaces/inkscape"
   width="38.4pt"
   height="38.4pt"
   id="svg2"
   version="1.1"
   inkscape:version="0.48.4 r9939"
   sodipodi:docname="application-x-java-archive.svg">
  <metadata
     id="metadata28">
    <rdf:RDF>
      <cc:Work
         rdf:about="">
        <dc:format>image/svg+xml</dc:format>
        <dc:type
           rdf:resource="http://purl.org/dc/dcmitype/StillImage" />
        <dc:title />
      </cc:Work>
    </rdf:RDF>
  </metadata>
  <sodipodi:namedview
     pagecolor="#ffffff"
     bordercolor="#666666"
     borderopacity="1"
     objecttolerance="10"
     gridtolerance="10"
     guidetolerance="10"
     inkscape:pageopacity="0"
     inkscape:pageshadow="2"
     inkscape:window-width="1680"
     inkscape:window-height="991"
     id="namedview26"
     showgrid="false"
     inkscape:zoom="7.734636"
     inkscape:cx="-13.682169"
     inkscape:cy="22.91438"
     inkscape:window-x="0"
     inkscape:window-y="-3"
     inkscape:window-maximized="1"
     inkscape:current-layer="svg2" />
  <defs
     id="defs4" />
  <path
     sodipodi:nodetypes="cccccc"
     inkscape:connector-curvature="0"
     id="path3001"
     d="m 4.5323174,5.6497229 0,36.6960801 38.9260016,0 0.07401,-36.7457781 -12.667716,0.049698 z"
     style="fill:#91baf8;fill-opacity:1" />
  <g
     id="g3018"
     transform="matrix(1.1035756,0,0,0.88043476,-2.4851693,0.4048375)">
    <rect
       id="shape0"
       stroke-miterlimit="2.01260185242"
       width="5.4171777"
       height="19.768995"
       x="21.276451"
       y="5.6516771"
       style="fill:#34495e;fill-rule:evenodd;stroke:#003bc3;stroke-width:0;stroke-linecap:square;stroke-linejoin:miter;stroke-miterlimit:2.01260185" />
    <rect
       id="shape1"
       stroke-miterlimit="2.01260185242"
       width="3.2502258"
       height="1.4634197"
       x="21.302784"
       y="5.6575394"
       style="fill:#ecf0f1;fill-rule:evenodd;stroke:#003bc3;stroke-width:0;stroke-linecap:square;stroke-linejoin:miter;stroke-miterlimit:2.01260185" />
    <rect
       id="shape2"
       stroke-miterlimit="2.00000000000"
       width="3.2502258"
       height="1.4634197"
       x="23.462261"
       y="7.1211071"
       style="fill:#ecf0f1;fill-rule:evenodd;stroke:#003bc3;stroke-width:0;stroke-linecap:square;stroke-linejoin:miter;stroke-miterlimit:2" />
    <rect
       id="shape3"
       stroke-miterlimit="2.00000000000"
       width="3.2502258"
       height="1.4634197"
       x="21.302898"
       y="8.5871429"
       style="fill:#ecf0f1;fill-rule:evenodd;stroke:#003bc3;stroke-width:0;stroke-linecap:square;stroke-linejoin:miter;stroke-miterlimit:2" />
    <rect
       id="shape4"
       stroke-miterlimit="2.00000000000"
       width="3.2502258"
       height="1.4634197"
       x="23.46249"
       y="10.05072"
       style="fill:#ecf0f1;fill-rule:evenodd;stroke:#003bc3;stroke-width:0;stroke-linecap:square;stroke-linejoin:miter;stroke-miterlimit:2" />
    <rect
       id="shape5"
       stroke-miterlimit="2.00000000000"
       width="3.2502258"
       height="1.4634197"
       x="21.299692"
       y="11.51816"
       style="fill:#ecf0f1;fill-rule:evenodd;stroke:#003bc3;stroke-width:0;stroke-linecap:square;stroke-linejoin:miter;stroke-miterlimit:2" />
    <rect
       id="shape6"
       stroke-miterlimit="2.00000000000"
       width="3.2502258"
       height="1.4634197"
       x="23.459169"
       y="12.981691"
       style="fill:#ecf0f1;fill-rule:evenodd;stroke:#003bc3;stroke-width:0;stroke-linecap:square;stroke-linejoin:miter;stroke-miterlimit:2" />
    <rect
       id="shape7"
       stroke-miterlimit="2.00000000000"
       width="3.2502258"
       height="1.4634197"
       x="21.299692"
       y="14.4477"
       style="fill:#ecf0f1;fill-rule:evenodd;stroke:#003bc3;stroke-width:0;stroke-linecap:square;stroke-linejoin:miter;stroke-miterlimit:2" />
    <rect
       id="shape8"
       stroke-miterlimit="2.00000000000"
       width="3.2502258"
       height="1.4634197"
       x="23.459169"
       y="15.911323"
       style="fill:#ecf0f1;fill-rule:evenodd;stroke:#003bc3;stroke-width:0;stroke-linecap:square;stroke-linejoin:miter;stroke-miterlimit:2" />
    <rect
       id="shape9"
       stroke-miterlimit="2.00000000000"
       width="3.2502258"
       height="1.4634197"
       x="21.278053"
       y="17.377422"
       style="fill:#ecf0f1;fill-rule:evenodd;stroke:#003bc3;stroke-width:0;stroke-linecap:square;stroke-linejoin:miter;stroke-miterlimit:2" />
    <rect
       id="shape10"
       stroke-miterlimit="2.00000000000"
       width="3.2502258"
       height="1.4634197"
       x="23.437416"
       y="18.840956"
       style="fill:#ecf0f1;fill-rule:evenodd;stroke:#003bc3;stroke-width:0;stroke-linecap:square;stroke-linejoin:miter;stroke-miterlimit:2" />
    <rect
       id="shape11"
       stroke-miterlimit="2.00000000000"
       width="3.2502258"
       height="1.4634197"
       x="21.278053"
       y="20.307055"
       style="fill:#ecf0f1;fill-rule:evenodd;stroke:#003bc3;stroke-width:0;stroke-linecap:square;stroke-linejoin:miter;stroke-miterlimit:2" />
    <rect
       id="shape12"
       stroke-miterlimit="2.00000000000"
       width="3.2502258"
       height="1.4634197"
       x="23.437647"
       y="21.770586"
       style="fill:#ecf0f1;fill-rule:evenodd;stroke:#003bc3;stroke-width:0;stroke-linecap:square;stroke-linejoin:miter;stroke-miterlimit:2" />
    <rect
       id="shape13"
       stroke-miterlimit="2.00000000000"
       width="3.2502258"
       height="1.4634197"
       x="21.274849"
       y="23.238062"
       style="fill:#ecf0f1;fill-rule:evenodd;stroke:#003bc3;stroke-width:0;stroke-linecap:square;stroke-linejoin:miter;stroke-miterlimit:2" />
    <rect
       id="shape17"
       stroke-miterlimit="2.00000000000"
       width="5.4090157"
       height="9.7533731"
       x="21.286068"
       y="24.821316"
       style="fill:#ecf0f1;fill-rule:evenodd;stroke:#003bc3;stroke-width:0;stroke-linecap:square;stroke-linejoin:miter;stroke-miterlimit:2" />
    <rect
       id="shape18"
       stroke-miterlimit="2.00000000000"
       width="3.1705625"
       height="2.3073425"
       x="22.425798"
       y="25.795046"
       style="fill:#2c3e50;fill-rule:evenodd;stroke:#003bc3;stroke-width:0;stroke-linecap:square;stroke-linejoin:miter;stroke-miterlimit:2" />
  </g>
  <text
     xml:space="preserve"
     style="font-size:6px;font-style:normal;font-variant:normal;font-weight:500;font-stretch:normal;line-height:125%;letter-spacing:0px;word-spacing:0px;fill:#2c3e50;fill-opacity:1;stroke:none;font-family:Century Schoolbook L;-inkscape-font-specification:Century Schoolbook L Medium"
     x="15.035156"
     y="40.311302"
     id="text2999"
     sodipodi:linespacing="125%"><tspan
       sodipodi:role="line"
       id="tspan3001"
       x="15.035156"
       y="40.311302"
       style="font-size:8px;font-style:normal;font-variant:normal;font-weight:bold;font-stretch:normal;fill:#2c3e50;fill-opacity:1;font-family:DejaVu Sans;-inkscape-font-specification:DejaVu Sans Bold">Java</tspan></text>
</svg>
