<?xml version="1.0" encoding="UTF-8" standalone="no"?>
<!-- Created with Inkscape (http://www.inkscape.org/) -->

<svg
   xmlns:dc="http://purl.org/dc/elements/1.1/"
   xmlns:cc="http://creativecommons.org/ns#"
   xmlns:rdf="http://www.w3.org/1999/02/22-rdf-syntax-ns#"
   xmlns:svg="http://www.w3.org/2000/svg"
   xmlns="http://www.w3.org/2000/svg"
   xmlns:xlink="http://www.w3.org/1999/xlink"
   xmlns:sodipodi="http://sodipodi.sourceforge.net/DTD/sodipodi-0.dtd"
   xmlns:inkscape="http://www.inkscape.org/namespaces/inkscape"
   version="1.0"
   width="96"
   height="96"
   id="svg2408"
   inkscape:version="0.48.4 r9939"
   sodipodi:docname="eclipse.svg">
  <sodipodi:namedview
     pagecolor="#ffffff"
     bordercolor="#666666"
     borderopacity="1"
     objecttolerance="10"
     gridtolerance="10"
     guidetolerance="10"
     inkscape:pageopacity="0"
     inkscape:pageshadow="2"
     inkscape:window-width="1680"
     inkscape:window-height="991"
     id="namedview108"
     showgrid="false"
     inkscape:zoom="5.8134176"
     inkscape:cx="39.518659"
     inkscape:cy="34.186976"
     inkscape:window-x="0"
     inkscape:window-y="-3"
     inkscape:window-maximized="1"
     inkscape:current-layer="svg2408" />
  <defs
     id="defs2410">
    <linearGradient
       id="linearGradient4014">
      <stop
         id="stop4018"
         style="stop-color:#8c7bbd;stop-opacity:1"
         offset="0" />
      <stop
         id="stop4024"
         style="stop-color:#150641;stop-opacity:1"
         offset="1" />
    </linearGradient>
    <linearGradient
       id="linearGradient3919">
      <stop
         id="stop3921"
         style="stop-color:#aaaaff;stop-opacity:1"
         offset="0" />
      <stop
         id="stop3923"
         style="stop-color:#aaaaff;stop-opacity:0"
         offset="1" />
    </linearGradient>
    <linearGradient
       id="linearGradient3864">
      <stop
         id="stop3866"
         style="stop-color:#ffffff;stop-opacity:1"
         offset="0" />
      <stop
         id="stop3872"
         style="stop-color:#ffffff;stop-opacity:0.57364339"
         offset="0.24046054" />
      <stop
         id="stop3874"
         style="stop-color:#ffffff;stop-opacity:0.14728682"
         offset="0.68723786" />
      <stop
         id="stop3878"
         style="stop-color:#ffffff;stop-opacity:0.10852713"
         offset="0.74210525" />
      <stop
         id="stop3868"
         style="stop-color:#ffffff;stop-opacity:0"
         offset="1" />
    </linearGradient>
    <linearGradient
       id="linearGradient3791">
      <stop
         id="stop3793"
         style="stop-color:#36326c;stop-opacity:1"
         offset="0" />
      <stop
         id="stop3795"
         style="stop-color:#6d6aaf;stop-opacity:1"
         offset="1" />
    </linearGradient>
    <linearGradient
       x1="45.447727"
       y1="92.539597"
       x2="45.447727"
       y2="7.0165396"
       id="ButtonShadow"
       gradientUnits="userSpaceOnUse"
       gradientTransform="scale(1.0058652,0.994169)">
      <stop
         id="stop3750"
         style="stop-color:#000000;stop-opacity:1"
         offset="0" />
      <stop
         id="stop3752"
         style="stop-color:#000000;stop-opacity:0.58823532"
         offset="1" />
    </linearGradient>
    <linearGradient
       id="linearGradient3737">
      <stop
         id="stop3739"
         style="stop-color:#ffffff;stop-opacity:1"
         offset="0" />
      <stop
         id="stop3741"
         style="stop-color:#ffffff;stop-opacity:0"
         offset="1" />
    </linearGradient>
    <filter
       color-interpolation-filters="sRGB"
       id="filter3174">
      <feGaussianBlur
         id="feGaussianBlur3176"
         stdDeviation="1.71" />
    </filter>
    <linearGradient
       x1="36.357143"
       y1="6"
       x2="36.357143"
       y2="63.893143"
       id="linearGradient3188"
       xlink:href="#linearGradient3737"
       gradientUnits="userSpaceOnUse" />
    <filter
       x="-0.192"
       y="-0.192"
       width="1.3839999"
       height="1.3839999"
       color-interpolation-filters="sRGB"
       id="filter3794">
      <feGaussianBlur
         id="feGaussianBlur3796"
         stdDeviation="5.28" />
    </filter>
    <linearGradient
       x1="48"
       y1="20.220806"
       x2="48"
       y2="138.66119"
       id="linearGradient3613"
       xlink:href="#linearGradient3737"
       gradientUnits="userSpaceOnUse" />
    <radialGradient
       cx="48"
       cy="90.171875"
       r="42"
       fx="48"
       fy="90.171875"
       id="radialGradient3619"
       xlink:href="#linearGradient3737"
       gradientUnits="userSpaceOnUse"
       gradientTransform="matrix(1.1573129,0,0,0.99590774,-7.5510206,0.19713193)" />
    <clipPath
       id="clipPath3613">
      <rect
         width="84"
         height="84"
         rx="6"
         ry="6"
         x="6"
         y="6"
         id="rect3615"
         style="fill:#ffffff;fill-opacity:1;fill-rule:nonzero;stroke:none" />
    </clipPath>
    <linearGradient
       x1="48"
       y1="90"
       x2="48"
       y2="5.9877172"
       id="linearGradient3617"
       xlink:href="#linearGradient3791"
       gradientUnits="userSpaceOnUse" />
    <linearGradient
       x1="45.447727"
       y1="92.539597"
       x2="45.447727"
       y2="7.0165396"
       id="ButtonShadow-0"
       gradientUnits="userSpaceOnUse"
       gradientTransform="matrix(1.0058652,0,0,0.994169,100,0)">
      <stop
         id="stop3750-8"
         style="stop-color:#000000;stop-opacity:1"
         offset="0" />
      <stop
         id="stop3752-5"
         style="stop-color:#000000;stop-opacity:0.58823532"
         offset="1" />
    </linearGradient>
    <linearGradient
       x1="32.251034"
       y1="6.1317081"
       x2="32.251034"
       y2="90.238609"
       id="linearGradient3780"
       xlink:href="#ButtonShadow-0"
       gradientUnits="userSpaceOnUse"
       gradientTransform="matrix(1.0238095,0,0,1.0119048,-1.1428571,-98.071429)" />
    <linearGradient
       x1="32.251034"
       y1="6.1317081"
       x2="32.251034"
       y2="90.238609"
       id="linearGradient3772"
       xlink:href="#ButtonShadow-0"
       gradientUnits="userSpaceOnUse"
       gradientTransform="matrix(1.0238095,0,0,1.0119048,-1.1428571,-98.071429)" />
    <linearGradient
       x1="32.251034"
       y1="6.1317081"
       x2="32.251034"
       y2="90.238609"
       id="linearGradient3725"
       xlink:href="#ButtonShadow-0"
       gradientUnits="userSpaceOnUse"
       gradientTransform="matrix(1.0238095,0,0,1.0119048,-1.1428571,-98.071429)" />
    <linearGradient
       x1="32.251034"
       y1="6.1317081"
       x2="32.251034"
       y2="90.238609"
       id="linearGradient3721"
       xlink:href="#ButtonShadow-0"
       gradientUnits="userSpaceOnUse"
       gradientTransform="translate(0,-97)" />
    <linearGradient
       x1="45.447727"
       y1="92.539597"
       x2="45.447727"
       y2="7.0165396"
       id="linearGradient3015"
       gradientUnits="userSpaceOnUse"
       gradientTransform="matrix(1.0058652,0,0,0.994169,100,0)">
      <stop
         id="stop3017"
         style="stop-color:#000000;stop-opacity:1"
         offset="0" />
      <stop
         id="stop3019"
         style="stop-color:#000000;stop-opacity:0"
         offset="1" />
    </linearGradient>
    <linearGradient
       x1="32.251034"
       y1="6.1317081"
       x2="32.251034"
       y2="90.238609"
       id="linearGradient3026"
       xlink:href="#ButtonShadow-0"
       gradientUnits="userSpaceOnUse"
       gradientTransform="matrix(1.0238095,0,0,1.0119048,-1.1428571,-98.071429)" />
    <linearGradient
       id="linearGradient4244">
      <stop
         id="stop4246"
         style="stop-color:#ffffff;stop-opacity:1"
         offset="0" />
      <stop
         id="stop4267"
         style="stop-color:#afa7c6;stop-opacity:1"
         offset="0.17570542" />
      <stop
         id="stop4261"
         style="stop-color:#43477f;stop-opacity:1"
         offset="0.60860282" />
      <stop
         id="stop4270"
         style="stop-color:#1a2351;stop-opacity:1"
         offset="0.85355651" />
      <stop
         id="stop4248"
         style="stop-color:#000b2f;stop-opacity:1"
         offset="1" />
    </linearGradient>
    <linearGradient
       id="linearGradient4281">
      <stop
         id="stop4283"
         style="stop-color:#f6e5ed;stop-opacity:1"
         offset="0" />
      <stop
         id="stop4285"
         style="stop-color:#9f275f;stop-opacity:1"
         offset="1" />
    </linearGradient>
    <radialGradient
       cx="10.367113"
       cy="12.515939"
       r="20.571428"
       fx="8.0648556"
       fy="11.953024"
       id="radialGradient3009"
       xlink:href="#linearGradient4244"
       gradientUnits="userSpaceOnUse"
       gradientTransform="matrix(1.49376,1.39048,-1.00586,1.08057,5.61124,-17.4)" />
    <radialGradient
       cx="9.3303061"
       cy="13.350715"
       r="20.571428"
       fx="7.0280466"
       fy="12.7878"
       id="radialGradient3802"
       xlink:href="#linearGradient4281"
       gradientUnits="userSpaceOnUse"
       gradientTransform="matrix(1.9321,1.82407,-1.01344,1.07346,126.22221,3.554102)" />
    <radialGradient
       cx="10.367113"
       cy="12.515939"
       r="20.571428"
       fx="8.0648556"
       fy="11.953024"
       id="radialGradient3837"
       xlink:href="#linearGradient4244"
       gradientUnits="userSpaceOnUse"
       gradientTransform="matrix(1.49376,1.39048,-1.00586,1.08057,5.61124,-17.4)" />
    <radialGradient
       cx="11.912163"
       cy="21.022171"
       r="20.571428"
       fx="11.912163"
       fy="21.022171"
       id="radialGradient3839"
       xlink:href="#linearGradient4281"
       gradientUnits="userSpaceOnUse"
       gradientTransform="matrix(2.5419477,2.5419475,-1.5699299,1.56993,26.019003,54.954664)" />
    <radialGradient
       cx="10.367113"
       cy="12.515939"
       r="20.571428"
       fx="8.0648556"
       fy="11.953024"
       id="radialGradient3842"
       xlink:href="#linearGradient4281"
       gradientUnits="userSpaceOnUse"
       gradientTransform="matrix(2.1784001,2.08572,-1.4668792,1.620855,17.183057,-13.814288)" />
    <linearGradient
       x1="6"
       y1="48"
       x2="90"
       y2="48"
       id="linearGradient3925"
       xlink:href="#linearGradient3919"
       gradientUnits="userSpaceOnUse" />
    <linearGradient
       x1="6"
       y1="48"
       x2="56.039986"
       y2="48"
       id="linearGradient3953"
       xlink:href="#linearGradient3015"
       gradientUnits="userSpaceOnUse"
       gradientTransform="translate(0,2)" />
    <linearGradient
       x1="52"
       y1="19.252991"
       x2="52"
       y2="52.815491"
       id="linearGradient3963"
       xlink:href="#linearGradient3737"
       gradientUnits="userSpaceOnUse"
       gradientTransform="matrix(0.93299188,0,0,0.84906201,3.4844221,3.9060077)" />
    <radialGradient
       cx="26.785715"
       cy="27.25"
       r="16.964285"
       fx="26.785715"
       fy="27.25"
       id="radialGradient3965"
       xlink:href="#linearGradient3864"
       gradientUnits="userSpaceOnUse" />
    <radialGradient
       cx="10.367113"
       cy="12.515939"
       r="20.571428"
       fx="8.0648556"
       fy="11.953024"
       id="radialGradient3988"
       xlink:href="#linearGradient4244"
       gradientUnits="userSpaceOnUse"
       gradientTransform="matrix(2.1784001,2.08572,-1.4668792,1.620855,25.183057,-103.81429)" />
    <radialGradient
       cx="52"
       cy="66.104958"
       r="30.000002"
       fx="52"
       fy="66.104958"
       id="radialGradient4026"
       xlink:href="#linearGradient4014"
       gradientUnits="userSpaceOnUse"
       gradientTransform="matrix(1.092874,-6.8394169e-8,7.6055756e-8,1.2152989,-4.8294542,-14.232317)" />
    <filter
       color-interpolation-filters="sRGB"
       id="filter4039">
      <feGaussianBlur
         id="feGaussianBlur4041"
         stdDeviation="2.4" />
    </filter>
    <radialGradient
       inkscape:collect="always"
       xlink:href="#linearGradient4244"
       id="radialGradient3076"
       gradientUnits="userSpaceOnUse"
       gradientTransform="matrix(2.1784001,2.08572,-1.4668792,1.620855,25.183057,-103.81429)"
       cx="10.367113"
       cy="12.515939"
       fx="8.0648556"
       fy="11.953024"
       r="20.571428" />
    <radialGradient
       inkscape:collect="always"
       xlink:href="#linearGradient4281"
       id="radialGradient3082"
       gradientUnits="userSpaceOnUse"
       gradientTransform="matrix(2.5419477,2.5419475,-1.5699299,1.56993,26.019003,54.954664)"
       cx="11.912163"
       cy="21.022171"
       fx="11.912163"
       fy="21.022171"
       r="20.571428" />
    <radialGradient
       inkscape:collect="always"
       xlink:href="#linearGradient4281"
       id="radialGradient3094"
       gradientUnits="userSpaceOnUse"
       gradientTransform="matrix(1.9321,1.82407,-1.01344,1.07346,126.22221,3.554102)"
       cx="9.3303061"
       cy="13.350715"
       fx="7.0280466"
       fy="12.7878"
       r="20.571428" />
  </defs>
  <metadata
     id="metadata2413">
    <rdf:RDF>
      <cc:Work
         rdf:about="">
        <dc:format>image/svg+xml</dc:format>
        <dc:type
           rdf:resource="http://purl.org/dc/dcmitype/StillImage" />
        <dc:title />
      </cc:Work>
    </rdf:RDF>
  </metadata>
  <g
     id="layer2"
     style="display:none">
    <rect
       width="86"
       height="85"
       rx="6"
       ry="6"
       x="5"
       y="7"
       id="rect3745"
       style="opacity:0.9;fill:url(#ButtonShadow);fill-opacity:1;fill-rule:nonzero;stroke:none;filter:url(#filter3174)" />
  </g>
  <rect
     style="fill:#605c9f;fill-opacity:1;fill-rule:nonzero;stroke:none"
     id="rect2419"
     y="6"
     x="6"
     ry="0"
     rx="6"
     height="84"
     width="84" />
  <path
     d="m 74,48.607122 a 30.000001,30.607011 0 0 1 -60.000001,0 30.000001,30.607011 0 1 1 60.000001,0 z"
     inkscape:connector-curvature="0"
     id="path3099"
     style="fill:#000000;fill-opacity:1;opacity:0.3" />
  <g
     style="display:inline"
     id="layer1-2"
     transform="translate(25.750885,24.238094)" />
  <path
     style="opacity:0.3;fill:#000000;fill-opacity:1"
     id="path3898"
     inkscape:connector-curvature="0"
     d="M 82,49 A 30.000001,30 0 0 1 21.999999,49 30.000001,30 0 1 1 82,49 z" />
  <g
     id="g3869"
     transform="translate(5e-7,0.00547723)">
    <path
       d="M 74,48 A 30.000001,30 0 0 1 13.999999,48 30.000001,30 0 1 1 74,48 z"
       inkscape:connector-curvature="0"
       id="path4043"
       style="fill:#bc678f;fill-opacity:1" />
    <path
       d="M 82,48 A 30.000001,30 0 0 1 21.999999,48 30.000001,30 0 1 1 82,48 z"
       inkscape:connector-curvature="0"
       id="path3880"
       style="fill:#1e0e4a;fill-opacity:1" />
  </g>
  <g
     id="layer5" />
</svg>
