<?xml version="1.0" encoding="UTF-8" standalone="no"?>
<!-- Created with Inkscape (http://www.inkscape.org/) -->

<svg
   xmlns:dc="http://purl.org/dc/elements/1.1/"
   xmlns:cc="http://creativecommons.org/ns#"
   xmlns:rdf="http://www.w3.org/1999/02/22-rdf-syntax-ns#"
   xmlns:svg="http://www.w3.org/2000/svg"
   xmlns="http://www.w3.org/2000/svg"
   xmlns:xlink="http://www.w3.org/1999/xlink"
   xmlns:sodipodi="http://sodipodi.sourceforge.net/DTD/sodipodi-0.dtd"
   xmlns:inkscape="http://www.inkscape.org/namespaces/inkscape"
   version="1.0"
   width="96"
   height="96"
   id="svg2408"
   style="display:inline"
   inkscape:version="0.48.4 r9939"
   sodipodi:docname="daemon.svg">
  <sodipodi:namedview
     pagecolor="#ffffff"
     bordercolor="#666666"
     borderopacity="1"
     objecttolerance="10"
     gridtolerance="10"
     guidetolerance="10"
     inkscape:pageopacity="0"
     inkscape:pageshadow="2"
     inkscape:window-width="1366"
     inkscape:window-height="709"
     id="namedview247"
     showgrid="false"
     inkscape:zoom="4.6135565"
     inkscape:cx="23.556664"
     inkscape:cy="40.298629"
     inkscape:window-x="0"
     inkscape:window-y="-3"
     inkscape:window-maximized="1"
     inkscape:current-layer="svg2408">
    <inkscape:grid
       type="xygrid"
       id="grid3144" />
  </sodipodi:namedview>
  <defs
     id="defs2410">
    <linearGradient
       id="linearGradient4046">
      <stop
         id="stop4048"
         style="stop-color:#9d1701;stop-opacity:1"
         offset="0" />
      <stop
         id="stop4050"
         style="stop-color:#df731b;stop-opacity:1"
         offset="1" />
    </linearGradient>
    <linearGradient
       id="linearGradient4008">
      <stop
         id="stop4010"
         style="stop-color:#ffa04c;stop-opacity:1"
         offset="0" />
      <stop
         id="stop4012"
         style="stop-color:#df731b;stop-opacity:1"
         offset="1" />
    </linearGradient>
    <linearGradient
       id="linearGradient3993">
      <stop
         id="stop3995"
         style="stop-color:#ffeaa8;stop-opacity:1"
         offset="0" />
      <stop
         id="stop4092"
         style="stop-color:#ffc512;stop-opacity:1"
         offset="0.60655737" />
      <stop
         id="stop3997"
         style="stop-color:#f59811;stop-opacity:1"
         offset="1" />
    </linearGradient>
    <linearGradient
       id="linearGradient3843">
      <stop
         id="stop3845"
         style="stop-color:#ffd893;stop-opacity:1"
         offset="0" />
      <stop
         id="stop3847"
         style="stop-color:#e58010;stop-opacity:1"
         offset="1" />
    </linearGradient>
    <linearGradient
       id="linearGradient3781">
      <stop
         id="stop3783"
         style="stop-color:#ffd283;stop-opacity:1"
         offset="0" />
      <stop
         id="stop3785"
         style="stop-color:#f59811;stop-opacity:1"
         offset="1" />
    </linearGradient>
    <linearGradient
       id="linearGradient3727">
      <stop
         id="stop3729"
         style="stop-color:#ffae65;stop-opacity:1"
         offset="0" />
      <stop
         id="stop3731"
         style="stop-color:#ffa04c;stop-opacity:0"
         offset="1" />
    </linearGradient>
    <linearGradient
       id="linearGradient7648">
      <stop
         id="stop7650"
         style="stop-color:#f69909;stop-opacity:1"
         offset="0" />
      <stop
         id="stop7652"
         style="stop-color:#f69909;stop-opacity:0"
         offset="1" />
    </linearGradient>
    <linearGradient
       id="linearGradient7640">
      <stop
         id="stop7642"
         style="stop-color:#df731b;stop-opacity:1"
         offset="0" />
      <stop
         id="stop7644"
         style="stop-color:#df731b;stop-opacity:0"
         offset="1" />
    </linearGradient>
    <linearGradient
       id="linearGradient3910">
      <stop
         id="stop3912"
         style="stop-color:#000000;stop-opacity:1"
         offset="0" />
      <stop
         id="stop3918"
         style="stop-color:#10213a;stop-opacity:0.65882355"
         offset="0.57377046" />
      <stop
         id="stop3914"
         style="stop-color:#1c3b68;stop-opacity:0"
         offset="1" />
    </linearGradient>
    <linearGradient
       id="linearGradient5598">
      <stop
         id="stop5600"
         style="stop-color:#66a9f5;stop-opacity:1"
         offset="0" />
      <stop
         id="stop7879"
         style="stop-color:#3d73b6;stop-opacity:1"
         offset="0.40000001" />
      <stop
         id="stop5602"
         style="stop-color:#143e78;stop-opacity:1"
         offset="1" />
    </linearGradient>
    <linearGradient
       id="linearGradient2312">
      <stop
         id="stop2314"
         style="stop-color:#e3ebf3;stop-opacity:1"
         offset="0" />
      <stop
         id="stop2316"
         style="stop-color:#cedceb;stop-opacity:0.39215687"
         offset="1" />
    </linearGradient>
    <linearGradient
       id="linearGradient5629">
      <stop
         id="stop5631"
         style="stop-color:#ffffff;stop-opacity:0"
         offset="0" />
      <stop
         id="stop5637"
         style="stop-color:#0f4480;stop-opacity:0"
         offset="0.87216145" />
      <stop
         id="stop5633"
         style="stop-color:#0c3163;stop-opacity:0.87450981"
         offset="1" />
    </linearGradient>
    <linearGradient
       id="linearGradient4317">
      <stop
         id="stop4319"
         style="stop-color:#ffffff;stop-opacity:1"
         offset="0" />
      <stop
         id="stop4321"
         style="stop-color:#ffffff;stop-opacity:0"
         offset="1" />
    </linearGradient>
    <linearGradient
       x1="45.447727"
       y1="92.539597"
       x2="45.447727"
       y2="7.0165396"
       id="ButtonShadow"
       gradientUnits="userSpaceOnUse"
       gradientTransform="scale(1.0058652,0.994169)">
      <stop
         id="stop3750"
         style="stop-color:#000000;stop-opacity:1"
         offset="0" />
      <stop
         id="stop3752"
         style="stop-color:#000000;stop-opacity:0.58823532"
         offset="1" />
    </linearGradient>
    <linearGradient
       id="linearGradient3737">
      <stop
         id="stop3739"
         style="stop-color:#ffffff;stop-opacity:1"
         offset="0" />
      <stop
         id="stop3741"
         style="stop-color:#ffffff;stop-opacity:0"
         offset="1" />
    </linearGradient>
    <linearGradient
       id="linearGradient3700">
      <stop
         id="stop3702"
         style="stop-color:#b63602;stop-opacity:1"
         offset="0" />
      <stop
         id="stop3704"
         style="stop-color:#ffa72a;stop-opacity:1"
         offset="1" />
    </linearGradient>
    <linearGradient
       x1="48"
       y1="90"
       x2="48"
       y2="5.9877172"
       id="linearGradient3706"
       xlink:href="#linearGradient3700"
       gradientUnits="userSpaceOnUse" />
    <filter
       color-interpolation-filters="sRGB"
       id="filter3174">
      <feGaussianBlur
         id="feGaussianBlur3176"
         stdDeviation="1.71" />
    </filter>
    <linearGradient
       x1="36.357143"
       y1="6"
       x2="36.357143"
       y2="63.893143"
       id="linearGradient3188"
       xlink:href="#linearGradient3737"
       gradientUnits="userSpaceOnUse" />
    <linearGradient
       x1="4.24264"
       y1="-164.7422"
       x2="4.24264"
       y2="-32.689968"
       id="linearGradient3956"
       xlink:href="#linearGradient4317"
       gradientUnits="userSpaceOnUse"
       gradientTransform="matrix(0.1890843,0,0,0.1814684,43.833662,51.270698)" />
    <linearGradient
       x1="4.24264"
       y1="-164.7422"
       x2="6.3764067"
       y2="-47.453506"
       id="linearGradient3961"
       xlink:href="#linearGradient4317"
       gradientUnits="userSpaceOnUse"
       gradientTransform="matrix(0.2405723,0,0,0.2696101,42.832456,65.790782)" />
    <radialGradient
       cx="21.75"
       cy="-49.3125"
       r="114"
       fx="21.75"
       fy="-49.3125"
       id="radialGradient3964"
       xlink:href="#linearGradient5629"
       gradientUnits="userSpaceOnUse"
       gradientTransform="matrix(0.2281442,0,0,0.2281316,42.54835,57.656265)" />
    <radialGradient
       cx="372.90503"
       cy="693.90143"
       r="364.52515"
       fx="372.90503"
       fy="693.90143"
       id="radialGradient3976"
       xlink:href="#linearGradient5598"
       gradientUnits="userSpaceOnUse"
       gradientTransform="matrix(1.1265187,-1.4663371e-8,1.0849677e-8,0.8113239,-47.179503,135.69256)" />
    <linearGradient
       x1="6"
       y1="56.778179"
       x2="77.53125"
       y2="56.778179"
       id="linearGradient7646"
       xlink:href="#linearGradient7640"
       gradientUnits="userSpaceOnUse" />
    <linearGradient
       x1="46.147266"
       y1="10.333292"
       x2="92.14286"
       y2="90"
       id="linearGradient7654"
       xlink:href="#linearGradient7648"
       gradientUnits="userSpaceOnUse" />
    <linearGradient
       x1="76.074364"
       y1="65.418854"
       x2="83.626366"
       y2="72.970856"
       id="linearGradient3733"
       xlink:href="#linearGradient3727"
       gradientUnits="userSpaceOnUse"
       gradientTransform="matrix(0.9820258,-0.3605877,0.3605877,0.9820258,-21.724136,31.099571)" />
    <linearGradient
       x1="76.074364"
       y1="65.418854"
       x2="83.626366"
       y2="72.970856"
       id="linearGradient3743"
       xlink:href="#linearGradient3727"
       gradientUnits="userSpaceOnUse"
       gradientTransform="matrix(0.7163691,-0.2630419,0.2630419,0.7163691,8.6237219,51.589579)" />
    <linearGradient
       x1="76.074364"
       y1="65.418854"
       x2="83.626366"
       y2="72.970856"
       id="linearGradient3749"
       xlink:href="#linearGradient3727"
       gradientUnits="userSpaceOnUse"
       gradientTransform="matrix(0.7163691,-0.2630419,0.2630419,0.7163691,8.6237219,51.589579)" />
    <linearGradient
       x1="76.074364"
       y1="65.418854"
       x2="83.626366"
       y2="72.970856"
       id="linearGradient3755"
       xlink:href="#linearGradient3727"
       gradientUnits="userSpaceOnUse"
       gradientTransform="matrix(0.7163691,-0.2630419,0.2630419,0.7163691,8.6237219,51.589579)" />
    <linearGradient
       x1="76.074364"
       y1="65.418854"
       x2="83.626366"
       y2="72.970856"
       id="linearGradient3759"
       xlink:href="#linearGradient3727"
       gradientUnits="userSpaceOnUse"
       gradientTransform="matrix(0.6914629,-0.2538966,0.2538966,0.6914629,12.463819,46.241754)" />
    <linearGradient
       x1="76.074364"
       y1="65.418854"
       x2="83.626366"
       y2="72.970856"
       id="linearGradient3763"
       xlink:href="#linearGradient3727"
       gradientUnits="userSpaceOnUse"
       gradientTransform="matrix(0.3608373,-0.3850916,0.3850916,0.3608373,30.032152,87.955627)" />
    <linearGradient
       x1="76.074364"
       y1="65.418854"
       x2="83.626366"
       y2="72.970856"
       id="linearGradient3769"
       xlink:href="#linearGradient3727"
       gradientUnits="userSpaceOnUse"
       gradientTransform="matrix(0.7163691,-0.2630419,0.2630419,0.7163691,8.6237219,51.589579)" />
    <linearGradient
       x1="76.074364"
       y1="65.418854"
       x2="83.626366"
       y2="72.970856"
       id="linearGradient3775"
       xlink:href="#linearGradient3727"
       gradientUnits="userSpaceOnUse"
       gradientTransform="matrix(0.7163691,-0.2630419,0.2630419,0.7163691,8.6237219,51.589579)" />
    <linearGradient
       x1="76.074364"
       y1="65.418854"
       x2="83.626366"
       y2="72.970856"
       id="linearGradient3779"
       xlink:href="#linearGradient3781"
       gradientUnits="userSpaceOnUse"
       gradientTransform="matrix(1.1671019,-0.2399237,0.2399237,1.1671019,-32.021992,-45.739259)" />
    <linearGradient
       x1="76.074364"
       y1="65.418854"
       x2="83.626366"
       y2="72.970856"
       id="linearGradient3789"
       xlink:href="#linearGradient3843"
       gradientUnits="userSpaceOnUse"
       gradientTransform="matrix(1.190324,0.05309362,-0.05309362,1.190324,-11.899013,-45.928401)" />
    <linearGradient
       x1="76.074364"
       y1="65.418854"
       x2="83.626366"
       y2="72.970856"
       id="linearGradient3793"
       xlink:href="#linearGradient3781"
       gradientUnits="userSpaceOnUse"
       gradientTransform="matrix(0.7484538,-0.4918979,0.4918979,0.7484538,-29.442694,2.489429)" />
    <linearGradient
       x1="76.074364"
       y1="65.418854"
       x2="83.626366"
       y2="72.970856"
       id="linearGradient3797"
       xlink:href="#linearGradient3781"
       gradientUnits="userSpaceOnUse"
       gradientTransform="matrix(0.5225515,-0.3434306,0.3434306,0.5225515,21.435687,11.478722)" />
    <linearGradient
       x1="76.074364"
       y1="65.418854"
       x2="83.626366"
       y2="72.970856"
       id="linearGradient3801"
       xlink:href="#linearGradient3781"
       gradientUnits="userSpaceOnUse"
       gradientTransform="matrix(0.7255019,-0.09614471,0.06014635,0.7458159,20.704877,-30.666872)" />
    <linearGradient
       x1="76.074364"
       y1="65.418854"
       x2="83.626366"
       y2="72.970856"
       id="linearGradient3805"
       xlink:href="#linearGradient3781"
       gradientUnits="userSpaceOnUse"
       gradientTransform="matrix(0.3711689,-0.1871988,0.1871988,0.3711689,41.789421,4.9669699)" />
    <linearGradient
       x1="76.074364"
       y1="65.418854"
       x2="83.626366"
       y2="72.970856"
       id="linearGradient3809"
       xlink:href="#linearGradient3781"
       gradientUnits="userSpaceOnUse"
       gradientTransform="matrix(0.3948256,0.1300865,-0.1300865,0.3948256,64.04034,-24.573679)" />
    <linearGradient
       x1="76.074364"
       y1="65.418854"
       x2="83.626366"
       y2="72.970856"
       id="linearGradient3813"
       xlink:href="#linearGradient3781"
       gradientUnits="userSpaceOnUse"
       gradientTransform="matrix(0.5040987,-0.02918677,0.02918677,0.5040987,45.998403,-7.2686079)" />
    <linearGradient
       x1="76.074364"
       y1="65.418854"
       x2="83.626366"
       y2="72.970856"
       id="linearGradient3817"
       xlink:href="#linearGradient3993"
       gradientUnits="userSpaceOnUse"
       gradientTransform="matrix(0.6288027,-1.0120758,1.0120758,0.6288027,-99.947186,49.584732)" />
    <linearGradient
       x1="76.074364"
       y1="65.418854"
       x2="83.626366"
       y2="72.970856"
       id="linearGradient3821"
       xlink:href="#linearGradient3993"
       gradientUnits="userSpaceOnUse"
       gradientTransform="matrix(0.386944,-1.3420905,1.3420905,0.386944,-99.099579,96.515329)" />
    <linearGradient
       x1="76.074364"
       y1="65.418854"
       x2="83.626366"
       y2="72.970856"
       id="linearGradient3825"
       xlink:href="#linearGradient3993"
       gradientUnits="userSpaceOnUse"
       gradientTransform="matrix(0.06725779,-1.1896077,1.1896077,0.06725779,-72.98847,108.21723)" />
    <linearGradient
       x1="76.074364"
       y1="65.418854"
       x2="83.626366"
       y2="72.970856"
       id="linearGradient3829"
       xlink:href="#linearGradient3993"
       gradientUnits="userSpaceOnUse"
       gradientTransform="matrix(0.03993423,-0.9828373,0.9828373,0.03993423,-47.340831,96.258369)" />
    <linearGradient
       x1="76.074364"
       y1="65.418854"
       x2="83.626366"
       y2="72.970856"
       id="linearGradient3833"
       xlink:href="#linearGradient3781"
       gradientUnits="userSpaceOnUse"
       gradientTransform="matrix(-0.1869192,-0.5967126,0.5967126,-0.1869192,-12.997301,89.53938)" />
    <linearGradient
       x1="76.074364"
       y1="65.418854"
       x2="83.626366"
       y2="72.970856"
       id="linearGradient3837"
       xlink:href="#linearGradient3781"
       gradientUnits="userSpaceOnUse"
       gradientTransform="matrix(0.9411367,-0.7307201,0.7307201,0.9411367,-94.098052,2.4298142)" />
    <linearGradient
       x1="76.074364"
       y1="65.418854"
       x2="83.626366"
       y2="72.970856"
       id="linearGradient3841"
       xlink:href="#linearGradient3993"
       gradientUnits="userSpaceOnUse"
       gradientTransform="matrix(0.6077762,-0.657841,0.657841,0.6077762,-56.276178,25.159848)" />
    <linearGradient
       x1="76.074364"
       y1="65.418854"
       x2="83.626366"
       y2="72.970856"
       id="linearGradient3851"
       xlink:href="#linearGradient3843"
       gradientUnits="userSpaceOnUse"
       gradientTransform="matrix(0.8246643,0.2196683,-0.2196683,0.8246643,34.600846,-36.799497)" />
    <linearGradient
       x1="76.074364"
       y1="65.418854"
       x2="83.626366"
       y2="72.970856"
       id="linearGradient3855"
       xlink:href="#linearGradient3781"
       gradientUnits="userSpaceOnUse"
       gradientTransform="matrix(1.1637239,0.07551779,-0.07551779,1.1637239,-10.19798,-53.960149)" />
    <linearGradient
       x1="76.074364"
       y1="65.418854"
       x2="83.626366"
       y2="72.970856"
       id="linearGradient3859"
       xlink:href="#linearGradient3843"
       gradientUnits="userSpaceOnUse"
       gradientTransform="matrix(0.4582539,-0.2908732,0.2908732,0.4582539,21.662029,36.158854)" />
    <linearGradient
       x1="76.074364"
       y1="65.418854"
       x2="83.626366"
       y2="72.970856"
       id="linearGradient3863"
       xlink:href="#linearGradient3843"
       gradientUnits="userSpaceOnUse"
       gradientTransform="matrix(0.6831812,-0.3142574,0.3142574,0.6831812,5.8508334,27.26478)" />
    <linearGradient
       x1="76.074364"
       y1="65.418854"
       x2="83.626366"
       y2="72.970856"
       id="linearGradient3871"
       xlink:href="#linearGradient3843"
       gradientUnits="userSpaceOnUse"
       gradientTransform="matrix(0.4673169,-0.1161029,0.1161029,0.4673169,42.421625,22.496014)" />
    <linearGradient
       x1="76.074364"
       y1="65.418854"
       x2="83.626366"
       y2="72.970856"
       id="linearGradient3875"
       xlink:href="#linearGradient3727"
       gradientUnits="userSpaceOnUse"
       gradientTransform="matrix(0.9782488,0.2074354,-0.2074354,0.9782488,22.218385,-23.165914)" />
    <linearGradient
       x1="76.074364"
       y1="65.418854"
       x2="83.626366"
       y2="72.970856"
       id="linearGradient3879"
       xlink:href="#linearGradient3727"
       gradientUnits="userSpaceOnUse"
       gradientTransform="matrix(0.7920005,0.2946434,-0.2946434,0.7920005,42.539061,-26.704668)" />
    <linearGradient
       x1="76.074364"
       y1="65.418854"
       x2="83.626366"
       y2="72.970856"
       id="linearGradient3885"
       xlink:href="#linearGradient3727"
       gradientUnits="userSpaceOnUse"
       gradientTransform="matrix(0.7163691,-0.2630419,0.2630419,0.7163691,8.6237219,51.589579)" />
    <linearGradient
       x1="76.074364"
       y1="65.418854"
       x2="83.626366"
       y2="72.970856"
       id="linearGradient3889"
       xlink:href="#linearGradient3727"
       gradientUnits="userSpaceOnUse"
       gradientTransform="matrix(0.7363681,0.01861346,-0.01861346,0.7363681,24.560691,12.365427)" />
    <linearGradient
       x1="76.074364"
       y1="65.418854"
       x2="83.626366"
       y2="72.970856"
       id="linearGradient3893"
       xlink:href="#linearGradient3727"
       gradientUnits="userSpaceOnUse"
       gradientTransform="matrix(0.4783123,-0.2229719,0.2229719,0.4783123,32.536407,52.26506)" />
    <linearGradient
       x1="76.074364"
       y1="65.418854"
       x2="83.626366"
       y2="72.970856"
       id="linearGradient3901"
       xlink:href="#linearGradient3727"
       gradientUnits="userSpaceOnUse"
       gradientTransform="matrix(0.7364134,-0.01672543,0.01672543,0.7364134,30.617678,8.8593186)" />
    <linearGradient
       x1="76.074364"
       y1="65.418854"
       x2="83.626366"
       y2="72.970856"
       id="linearGradient3911"
       xlink:href="#linearGradient3727"
       gradientUnits="userSpaceOnUse"
       gradientTransform="matrix(0.3449243,-0.368109,0.368109,0.3449243,29.1893,57.048222)" />
    <linearGradient
       x1="76.074364"
       y1="65.418854"
       x2="83.626366"
       y2="72.970856"
       id="linearGradient3915"
       xlink:href="#linearGradient3781"
       gradientUnits="userSpaceOnUse"
       gradientTransform="matrix(0.5225515,-0.3434306,0.3434306,0.5225515,8.1774349,30.040275)" />
    <linearGradient
       x1="76.074364"
       y1="65.418854"
       x2="83.626366"
       y2="72.970856"
       id="linearGradient3919"
       xlink:href="#linearGradient3993"
       gradientUnits="userSpaceOnUse"
       gradientTransform="matrix(1.1067603,-0.4413296,0.4413296,1.1067603,-51.147262,-16.818665)" />
    <linearGradient
       x1="76.074364"
       y1="65.418854"
       x2="83.626366"
       y2="72.970856"
       id="linearGradient3923"
       xlink:href="#linearGradient3993"
       gradientUnits="userSpaceOnUse"
       gradientTransform="matrix(0.963661,-0.7007479,0.7007479,0.963661,-77.885364,0.331086)" />
    <linearGradient
       x1="76.074364"
       y1="65.418854"
       x2="83.626366"
       y2="72.970856"
       id="linearGradient3927"
       xlink:href="#linearGradient3993"
       gradientUnits="userSpaceOnUse"
       gradientTransform="matrix(0.9475654,-1.0261834,1.0261834,0.9475654,-94.162112,31.405539)" />
    <linearGradient
       x1="76.074364"
       y1="65.418854"
       x2="83.626366"
       y2="72.970856"
       id="linearGradient3931"
       xlink:href="#linearGradient3781"
       gradientUnits="userSpaceOnUse"
       gradientTransform="matrix(0.5384517,-0.2946873,0.2726721,0.5652328,4.430729,-2.910297)" />
    <linearGradient
       x1="76.074364"
       y1="65.418854"
       x2="83.626366"
       y2="72.970856"
       id="linearGradient3935"
       xlink:href="#linearGradient3993"
       gradientUnits="userSpaceOnUse"
       gradientTransform="matrix(0.9597462,-0.2155254,0.2155254,0.9597462,-13.634727,-25.650382)" />
    <linearGradient
       x1="76.074364"
       y1="65.418854"
       x2="83.626366"
       y2="72.970856"
       id="linearGradient3939"
       xlink:href="#linearGradient3781"
       gradientUnits="userSpaceOnUse"
       gradientTransform="matrix(0.6054087,-0.4111899,0.3881186,0.6397053,-7.2104812,7.9215456)" />
    <linearGradient
       x1="76.074364"
       y1="65.418854"
       x2="83.626366"
       y2="72.970856"
       id="linearGradient3943"
       xlink:href="#linearGradient3781"
       gradientUnits="userSpaceOnUse"
       gradientTransform="matrix(0.06081153,-0.4112319,0.4112319,0.06081153,18.967648,48.710693)" />
    <linearGradient
       x1="76.074364"
       y1="65.418854"
       x2="83.626366"
       y2="72.970856"
       id="linearGradient3947"
       xlink:href="#linearGradient3993"
       gradientUnits="userSpaceOnUse"
       gradientTransform="matrix(0.1990431,-0.7042575,0.7086538,0.2401431,-16.875411,56.921861)" />
    <linearGradient
       x1="76.074364"
       y1="65.418854"
       x2="83.626366"
       y2="72.970856"
       id="linearGradient3951"
       xlink:href="#linearGradient3781"
       gradientUnits="userSpaceOnUse"
       gradientTransform="matrix(0.1120965,-0.6034942,0.6103256,0.1460852,-16.805075,57.280769)" />
    <linearGradient
       x1="76.074364"
       y1="65.418854"
       x2="83.626366"
       y2="72.970856"
       id="linearGradient3955"
       xlink:href="#linearGradient3993"
       gradientUnits="userSpaceOnUse"
       gradientTransform="matrix(-0.6354725,-1.0079012,1.0079012,-0.6354725,-2.4988781,154.66583)" />
    <linearGradient
       x1="76.074364"
       y1="65.418854"
       x2="83.626366"
       y2="72.970856"
       id="linearGradient3959"
       xlink:href="#linearGradient3781"
       gradientUnits="userSpaceOnUse"
       gradientTransform="matrix(-0.4281608,-0.4557225,0.4557225,-0.4281608,11.364984,98.48179)" />
    <linearGradient
       x1="76.074364"
       y1="65.418854"
       x2="83.626366"
       y2="72.970856"
       id="linearGradient3965"
       xlink:href="#linearGradient3727"
       gradientUnits="userSpaceOnUse"
       gradientTransform="matrix(0.7163691,-0.2630419,0.2630419,0.7163691,8.6237219,51.589579)" />
    <linearGradient
       x1="76.074364"
       y1="65.418854"
       x2="83.626366"
       y2="72.970856"
       id="linearGradient3973"
       xlink:href="#linearGradient3781"
       gradientUnits="userSpaceOnUse"
       gradientTransform="matrix(0.6526642,-0.3310986,0.3038644,0.6837583,-6.924399,7.484653)" />
    <linearGradient
       x1="76.074364"
       y1="65.418854"
       x2="83.626366"
       y2="72.970856"
       id="linearGradient4006"
       xlink:href="#linearGradient4008"
       gradientUnits="userSpaceOnUse"
       gradientTransform="matrix(-0.2198117,-1.1673145,1.1673145,-0.2198117,-43.124123,180.46059)" />
    <linearGradient
       x1="76.074364"
       y1="65.418854"
       x2="83.626366"
       y2="72.970856"
       id="linearGradient4016"
       xlink:href="#linearGradient4008"
       gradientUnits="userSpaceOnUse"
       gradientTransform="matrix(-0.6280478,-0.7140584,0.7140584,-0.6280478,28.231702,175.16151)" />
    <linearGradient
       x1="76.074364"
       y1="65.418854"
       x2="83.626366"
       y2="72.970856"
       id="linearGradient4020"
       xlink:href="#linearGradient4008"
       gradientUnits="userSpaceOnUse"
       gradientTransform="matrix(0.1958729,-0.699642,0.699642,0.1958729,-48.672569,98.353388)" />
    <linearGradient
       x1="76.074364"
       y1="65.418854"
       x2="83.626366"
       y2="72.970856"
       id="linearGradient4024"
       xlink:href="#linearGradient4008"
       gradientUnits="userSpaceOnUse"
       gradientTransform="matrix(-0.007884,-0.9477426,0.9477426,-0.007884,-49.921757,138.70377)" />
    <linearGradient
       x1="76.074364"
       y1="65.418854"
       x2="83.626366"
       y2="72.970856"
       id="linearGradient4028"
       xlink:href="#linearGradient4008"
       gradientUnits="userSpaceOnUse"
       gradientTransform="matrix(-0.599477,-0.3262687,0.3262687,-0.599477,59.963834,143.82527)" />
    <linearGradient
       x1="76.074364"
       y1="65.418854"
       x2="83.626366"
       y2="72.970856"
       id="linearGradient4032"
       xlink:href="#linearGradient4008"
       gradientUnits="userSpaceOnUse"
       gradientTransform="matrix(0.03389637,-0.4489222,0.4489222,0.03389637,-24.478628,88.693334)" />
    <linearGradient
       x1="76.074364"
       y1="65.418854"
       x2="83.626366"
       y2="72.970856"
       id="linearGradient4036"
       xlink:href="#linearGradient4008"
       gradientUnits="userSpaceOnUse"
       gradientTransform="matrix(-0.1417169,-0.5196144,0.5196144,-0.1417169,-10.327739,117.79869)" />
    <linearGradient
       x1="76.074364"
       y1="65.418854"
       x2="83.626366"
       y2="72.970856"
       id="linearGradient4040"
       xlink:href="#linearGradient4008"
       gradientUnits="userSpaceOnUse"
       gradientTransform="matrix(-0.1321197,-0.477535,0.477535,-0.1321197,-0.7019176,121.25785)" />
    <linearGradient
       x1="76.074364"
       y1="65.418854"
       x2="83.626366"
       y2="72.970856"
       id="linearGradient4044"
       xlink:href="#linearGradient4046"
       gradientUnits="userSpaceOnUse"
       gradientTransform="matrix(-0.3836975,-0.9818443,1.0180659,-0.3834818,-27.629548,180.22642)" />
    <linearGradient
       x1="76.074364"
       y1="65.418854"
       x2="83.626366"
       y2="72.970856"
       id="linearGradient4054"
       xlink:href="#linearGradient4046"
       gradientUnits="userSpaceOnUse"
       gradientTransform="matrix(-0.6778511,-0.5849563,0.6122406,-0.6920668,35.362432,175.04136)" />
    <linearGradient
       x1="76.074364"
       y1="65.418854"
       x2="83.626366"
       y2="72.970856"
       id="linearGradient4058"
       xlink:href="#linearGradient4046"
       gradientUnits="userSpaceOnUse"
       gradientTransform="matrix(-0.2020378,-0.4538219,0.4708774,-0.2027262,-7.9261364,124.28332)" />
    <linearGradient
       x1="76.074364"
       y1="65.418854"
       x2="83.626366"
       y2="72.970856"
       id="linearGradient4062"
       xlink:href="#linearGradient4046"
       gradientUnits="userSpaceOnUse"
       gradientTransform="matrix(-0.4519872,-0.2606427,0.2184296,-0.5865159,51.612955,142.51502)" />
    <linearGradient
       x1="76.074364"
       y1="65.418854"
       x2="83.626366"
       y2="72.970856"
       id="linearGradient4101"
       xlink:href="#linearGradient3781"
       gradientUnits="userSpaceOnUse"
       gradientTransform="matrix(-0.2271965,-0.4857471,0.5016798,-0.219981,7.5795692,78.201882)" />
    <radialGradient
       cx="19181.57"
       cy="17597.709"
       r="16756.031"
       fx="19181.57"
       fy="17597.709"
       id="radialGradient6694"
       xlink:href="#linearGradient2312"
       gradientUnits="userSpaceOnUse"
       gradientTransform="matrix(1,0,0,1.0498756,0,-877.69716)" />
    <radialGradient
       cx="127.27922"
       cy="98.020309"
       r="24.165739"
       fx="127.27922"
       fy="98.020309"
       id="radialGradient4558"
       xlink:href="#linearGradient2312"
       gradientUnits="userSpaceOnUse"
       gradientTransform="matrix(1,0,0,1.0496111,-79.30166,-57.138289)" />
    <radialGradient
       cx="111.25"
       cy="52.07143"
       r="6.25"
       fx="111.25"
       fy="52.07143"
       id="radialGradient5331"
       xlink:href="#linearGradient3910"
       gradientUnits="userSpaceOnUse"
       gradientTransform="matrix(1,0,0,6.1142859,0,-266.30818)" />
    <linearGradient
       id="linearGradient3737-1">
      <stop
         id="stop3739-7"
         style="stop-color:#ffffff;stop-opacity:1"
         offset="0" />
      <stop
         id="stop3741-2"
         style="stop-color:#ffffff;stop-opacity:0"
         offset="1" />
    </linearGradient>
    <radialGradient
       cx="48"
       cy="90.171875"
       r="42"
       fx="48"
       fy="90.171875"
       id="radialGradient2855"
       xlink:href="#linearGradient3737-1"
       gradientUnits="userSpaceOnUse"
       gradientTransform="matrix(1.1573129,0,0,0.99590774,-7.551021,0.1971319)" />
    <linearGradient
       x1="45.447727"
       y1="92.539597"
       x2="45.447727"
       y2="7.0165396"
       id="ButtonShadow-7"
       gradientUnits="userSpaceOnUse"
       gradientTransform="matrix(1.0058652,0,0,0.994169,100,0)">
      <stop
         id="stop3750-7"
         style="stop-color:#000000;stop-opacity:1"
         offset="0" />
      <stop
         id="stop3752-6"
         style="stop-color:#000000;stop-opacity:0.58823532"
         offset="1" />
    </linearGradient>
    <linearGradient
       x1="32.251034"
       y1="6.1317081"
       x2="32.251034"
       y2="90.238609"
       id="linearGradient3780"
       xlink:href="#ButtonShadow-7"
       gradientUnits="userSpaceOnUse"
       gradientTransform="matrix(1.0238095,0,0,1.0119048,-1.1428571,-98.071429)" />
    <linearGradient
       x1="32.251034"
       y1="6.1317081"
       x2="32.251034"
       y2="90.238609"
       id="linearGradient3772"
       xlink:href="#ButtonShadow-7"
       gradientUnits="userSpaceOnUse"
       gradientTransform="matrix(1.0238095,0,0,1.0119048,-1.1428571,-98.071429)" />
    <linearGradient
       x1="32.251034"
       y1="6.1317081"
       x2="32.251034"
       y2="90.238609"
       id="linearGradient3725"
       xlink:href="#ButtonShadow-7"
       gradientUnits="userSpaceOnUse"
       gradientTransform="matrix(1.0238095,0,0,1.0119048,-1.1428571,-98.071429)" />
    <linearGradient
       x1="32.251034"
       y1="6.1317081"
       x2="32.251034"
       y2="90.238609"
       id="linearGradient3721"
       xlink:href="#ButtonShadow-7"
       gradientUnits="userSpaceOnUse"
       gradientTransform="translate(0,-97)" />
    <linearGradient
       x1="32.251034"
       y1="6.1317081"
       x2="32.251034"
       y2="90.238609"
       id="linearGradient3026"
       xlink:href="#ButtonShadow-7"
       gradientUnits="userSpaceOnUse"
       gradientTransform="matrix(1.0238095,0,0,1.0119048,-1.1428571,-98.071429)" />
  </defs>
  <metadata
     id="metadata2413">
    <rdf:RDF>
      <cc:Work
         rdf:about="">
        <dc:format>image/svg+xml</dc:format>
        <dc:type
           rdf:resource="http://purl.org/dc/dcmitype/StillImage" />
        <dc:title></dc:title>
      </cc:Work>
    </rdf:RDF>
  </metadata>
  <rect
     style="fill:#b3b3b3;fill-opacity:1;fill-rule:evenodd;stroke:none"
     id="rect3955"
     width="83.793816"
     height="84.255493"
     x="6.0017614"
     y="5.7427449"
     rx="9.729434"
     ry="0" />
  <g
     id="layer2"
     style="display:none">
    <rect
       width="86"
       height="85"
       rx="6"
       ry="6"
       x="5"
       y="7"
       id="rect3745"
       style="opacity:0.9;fill:url(#ButtonShadow);fill-opacity:1;fill-rule:nonzero;stroke:none;filter:url(#filter3174)" />
  </g>
  <g
     id="layer10"
     style="display:inline" />
  <g
     id="layer9"
     style="display:inline" />
  <g
     id="layer7"
     style="display:inline">
    <a
       transform="matrix(0.5813319,0.01171362,-0.01171362,0.5813319,31.462951,18.060368)"
       id="a3961" />
    <a
       transform="matrix(1.0461348,0,0,1.0461348,-5.2298889,-7.9172448)"
       id="a3740" />
    <a
       transform="matrix(0.8341746,-0.1856091,0.1856091,0.8341746,-1.1847331,33.762235)"
       id="a3745" />
    <a
       transform="matrix(0.8622115,-0.2679751,0.234576,1.0454489,-7.9621057,19.01928)"
       id="a3751" />
    <a
       transform="matrix(0.5813319,0.01171362,-0.01171362,0.5813319,39.12443,30.477247)"
       id="a3765" />
    <a
       transform="matrix(0.333034,-0.476626,0.476626,0.333034,19.694267,97.988729)"
       id="a3771" />
    <a
       transform="matrix(0.5432401,0.2073022,-0.2073022,0.5432401,52.943206,-1.6524088)"
       id="a3881" />
  </g>
  <g
     id="layer8"
     style="display:inline" />
  <g
     id="g3173"
     transform="translate(1.24418,0)">
    <g
       transform="matrix(0.51459585,0,0,0.51459585,43.359636,14.930762)"
       id="g3963">
      <path
         style="fill:#d2e5f3;fill-opacity:1;stroke:none"
         d="m 15.696914,58.373574 9.92599,-19.159469 10.849337,-11.311011 11.541849,-2.770044 12.003522,2.077533 10.156827,5.770924 3.231717,5.540087 -3.693391,15.235241 -7.386783,10.156826 -4.61674,5.078414 L 45.244046,72.454629 34.163872,70.607933 23.776208,65.52952 z"
         id="path3957"
         inkscape:connector-curvature="0" />
      <path
         style="fill:#96a6b1;fill-opacity:1;stroke:none"
         d="m 19.432962,49.826189 c 0,0 13.874996,-17.38243 28.061887,-16.039671 12.080101,1.143356 26.336176,5.922292 26.336176,5.922292 l -3.194912,-3.957259 -10.618501,-9.464316 -18.466957,0 -9.233479,5.078413 -6.925109,8.079294 z"
         id="path3959"
         inkscape:connector-curvature="0"
         sodipodi:nodetypes="csccccccc" />
      <path
         sodipodi:nodetypes="csccccccc"
         inkscape:connector-curvature="0"
         id="path3961"
         d="m 20.35339,48.905761 c 0,0 12.186998,-17.887558 26.681245,-18.790369 12.107651,-0.754156 26.79639,8.171043 26.79639,8.171043 l -3.194912,-3.213358 -10.618501,-8.785842 -18.466957,0 -9.233479,4.714354 -9.686393,12.409058 z"
         style="fill:#000000;fill-opacity:1;stroke:none" />
      <g
         id="layer1"
         style="display:inline">
        <path
           d="m 45.792406,23.252221 c 18.861473,-2.16592 31.161793,12.554532 31.161793,12.554532 l -2.260061,1.28032 C 75.111402,51.857333 67.227069,65.573297 55.595261,70.855395 43.963452,76.137492 26.569109,73.141716 15.758177,58.919391 L 15.011348,58.050533 C 20.440452,42.991175 29.224021,25.154817 45.792406,23.252221 z m 0.361211,4.139285 C 37.746352,27.643634 30.13385,35.22891 24.695715,42.972403 19.623768,50.194473 16.759399,56.833304 16.358569,57.767421 29.183189,71.652652 42.942543,73.560753 53.56821,68.735552 64.246018,63.886673 71.800421,52.119874 71.540911,38.325469 71.087473,37.642475 63.667442,26.858294 46.153617,27.391506 z"
           inkscape:connector-curvature="0"
           id="path3942"
           style="fill:#000000;fill-opacity:1;fill-rule:evenodd;stroke:none" />
      </g>
      <path
         sodipodi:type="arc"
         style="fill:#4d4d4d;fill-opacity:1;fill-rule:evenodd;stroke:none"
         id="path3160"
         sodipodi:cx="45.244045"
         sodipodi:cy="49.255512"
         sodipodi:rx="11.772685"
         sodipodi:ry="13.273126"
         d="m 57.01673,49.255512 c 0,7.330545 -5.27081,13.273126 -11.772685,13.273126 -6.501874,0 -11.772685,-5.942581 -11.772685,-13.273126 0,-7.330545 5.270811,-13.273125 11.772685,-13.273125 6.501875,0 11.772685,5.94258 11.772685,13.273125 z"
         transform="matrix(1.2782609,0,0,1.1739131,-13.051321,-6.9503175)" />
      <path
         sodipodi:type="arc"
         style="fill:#160200;fill-opacity:1;fill-rule:evenodd;stroke:none"
         id="path3164"
         sodipodi:cx="45.474884"
         sodipodi:cy="49.370934"
         sodipodi:rx="8.0792942"
         sodipodi:ry="8.0792942"
         d="m 53.554178,49.370934 c 0,4.462071 -3.617223,8.079294 -8.079294,8.079294 -4.462071,0 -8.079294,-3.617223 -8.079294,-8.079294 0,-4.462071 3.617223,-8.079295 8.079294,-8.079295 4.462071,0 8.079294,3.617224 8.079294,8.079295 z"
         transform="matrix(0.77142858,0,0,0.77142858,8.7784002,12.900643)" />
      <path
         sodipodi:type="arc"
         style="fill:#ffffff;fill-opacity:1;fill-rule:evenodd;stroke:none"
         id="path3166"
         sodipodi:cx="48.129509"
         sodipodi:cy="41.407055"
         sodipodi:rx="2.6546252"
         sodipodi:ry="2.6546252"
         d="m 50.784134,41.407055 c 0,1.466109 -1.188516,2.654625 -2.654625,2.654625 -1.466109,0 -2.654625,-1.188516 -2.654625,-2.654625 0,-1.466109 1.188516,-2.654625 2.654625,-2.654625 1.466109,0 2.654625,1.188516 2.654625,2.654625 z"
         transform="translate(-9.2334788,7.1559461)" />
    </g>
    <g
       id="g3154"
       transform="matrix(-0.51459585,0,0,0.51459585,50.152004,14.930762)">
      <path
         inkscape:connector-curvature="0"
         id="path3156"
         d="m 15.696914,58.373574 9.92599,-19.159469 10.849337,-11.311011 11.541849,-2.770044 12.003522,2.077533 10.156827,5.770924 3.231717,5.540087 -3.693391,15.235241 -7.386783,10.156826 -4.61674,5.078414 L 45.244046,72.454629 34.163872,70.607933 23.776208,65.52952 z"
         style="fill:#d2e5f3;fill-opacity:1;stroke:none" />
      <path
         sodipodi:nodetypes="csccccccc"
         inkscape:connector-curvature="0"
         id="path3158"
         d="m 19.432962,49.826189 c 0,0 13.874996,-17.38243 28.061887,-16.039671 12.080101,1.143356 26.336176,5.922292 26.336176,5.922292 l -3.194912,-3.957259 -10.618501,-9.464316 -18.466957,0 -9.233479,5.078413 -6.925109,8.079294 z"
         style="fill:#96a6b1;fill-opacity:1;stroke:none" />
      <path
         style="fill:#000000;fill-opacity:1;stroke:none"
         d="m 20.35339,48.905761 c 0,0 12.186998,-17.887558 26.681245,-18.790369 12.107651,-0.754156 26.79639,8.171043 26.79639,8.171043 l -3.194912,-3.213358 -10.618501,-8.785842 -18.466957,0 -9.233479,4.714354 -9.686393,12.409058 z"
         id="path3161"
         inkscape:connector-curvature="0"
         sodipodi:nodetypes="csccccccc" />
      <g
         style="display:inline"
         id="g3163">
        <path
           style="fill:#000000;fill-opacity:1;fill-rule:evenodd;stroke:none"
           id="path3165"
           inkscape:connector-curvature="0"
           d="m 45.792406,23.252221 c 18.861473,-2.16592 31.161793,12.554532 31.161793,12.554532 l -2.260061,1.28032 C 75.111402,51.857333 67.227069,65.573297 55.595261,70.855395 43.963452,76.137492 26.569109,73.141716 15.758177,58.919391 L 15.011348,58.050533 C 20.440452,42.991175 29.224021,25.154817 45.792406,23.252221 z m 0.361211,4.139285 C 37.746352,27.643634 30.13385,35.22891 24.695715,42.972403 19.623768,50.194473 16.759399,56.833304 16.358569,57.767421 29.183189,71.652652 42.942543,73.560753 53.56821,68.735552 64.246018,63.886673 71.800421,52.119874 71.540911,38.325469 71.087473,37.642475 63.667442,26.858294 46.153617,27.391506 z" />
      </g>
      <path
         transform="matrix(1.2782609,0,0,1.1739131,-13.051321,-6.9503175)"
         d="m 57.01673,49.255512 c 0,7.330545 -5.27081,13.273126 -11.772685,13.273126 -6.501874,0 -11.772685,-5.942581 -11.772685,-13.273126 0,-7.330545 5.270811,-13.273125 11.772685,-13.273125 6.501875,0 11.772685,5.94258 11.772685,13.273125 z"
         sodipodi:ry="13.273126"
         sodipodi:rx="11.772685"
         sodipodi:cy="49.255512"
         sodipodi:cx="45.244045"
         id="path3167"
         style="fill:#4d4d4d;fill-opacity:1;fill-rule:evenodd;stroke:none"
         sodipodi:type="arc" />
      <path
         transform="matrix(0.77142858,0,0,0.77142858,8.7784002,12.900643)"
         d="m 53.554178,49.370934 c 0,4.462071 -3.617223,8.079294 -8.079294,8.079294 -4.462071,0 -8.079294,-3.617223 -8.079294,-8.079294 0,-4.462071 3.617223,-8.079295 8.079294,-8.079295 4.462071,0 8.079294,3.617224 8.079294,8.079295 z"
         sodipodi:ry="8.0792942"
         sodipodi:rx="8.0792942"
         sodipodi:cy="49.370934"
         sodipodi:cx="45.474884"
         id="path3169"
         style="fill:#160200;fill-opacity:1;fill-rule:evenodd;stroke:none"
         sodipodi:type="arc" />
      <path
         transform="translate(-9.2334788,7.1559461)"
         d="m 50.784134,41.407055 c 0,1.466109 -1.188516,2.654625 -2.654625,2.654625 -1.466109,0 -2.654625,-1.188516 -2.654625,-2.654625 0,-1.466109 1.188516,-2.654625 2.654625,-2.654625 1.466109,0 2.654625,1.188516 2.654625,2.654625 z"
         sodipodi:ry="2.6546252"
         sodipodi:rx="2.6546252"
         sodipodi:cy="41.407055"
         sodipodi:cx="48.129509"
         id="path3171"
         style="fill:#ffffff;fill-opacity:1;fill-rule:evenodd;stroke:none"
         sodipodi:type="arc" />
    </g>
  </g>
</svg>
