<?xml version="1.0" encoding="UTF-8" standalone="no"?>
<!-- Created with Inkscape (http://www.inkscape.org/) -->

<svg
   xmlns:dc="http://purl.org/dc/elements/1.1/"
   xmlns:cc="http://creativecommons.org/ns#"
   xmlns:rdf="http://www.w3.org/1999/02/22-rdf-syntax-ns#"
   xmlns:svg="http://www.w3.org/2000/svg"
   xmlns="http://www.w3.org/2000/svg"
   xmlns:xlink="http://www.w3.org/1999/xlink"
   xmlns:sodipodi="http://sodipodi.sourceforge.net/DTD/sodipodi-0.dtd"
   xmlns:inkscape="http://www.inkscape.org/namespaces/inkscape"
   version="1.0"
   width="96"
   height="96"
   id="svg2408"
   style="display:inline;enable-background:new"
   inkscape:version="0.48.4 r9939"
   sodipodi:docname="kblogger.svg">
  <sodipodi:namedview
     pagecolor="#ffffff"
     bordercolor="#666666"
     borderopacity="1"
     objecttolerance="10"
     gridtolerance="10"
     guidetolerance="10"
     inkscape:pageopacity="0"
     inkscape:pageshadow="2"
     inkscape:window-width="1366"
     inkscape:window-height="709"
     id="namedview90"
     showgrid="false"
     inkscape:zoom="5.0372066"
     inkscape:cx="61.006831"
     inkscape:cy="35.225317"
     inkscape:window-x="0"
     inkscape:window-y="-3"
     inkscape:window-maximized="1"
     inkscape:current-layer="svg2408" />
  <defs
     id="defs2410">
    <linearGradient
       id="linearGradient3687">
      <stop
         id="stop3689"
         style="stop-color:#ffffff;stop-opacity:1"
         offset="0" />
      <stop
         id="stop3691"
         style="stop-color:#ffffff;stop-opacity:0"
         offset="1" />
    </linearGradient>
    <linearGradient
       id="linearGradient3487">
      <stop
         id="stop3489"
         style="stop-color:#7cb7f2;stop-opacity:1"
         offset="0" />
      <stop
         id="stop3491"
         style="stop-color:#deecfc;stop-opacity:0"
         offset="1" />
    </linearGradient>
    <linearGradient
       id="linearGradient3175">
      <stop
         id="stop3177"
         style="stop-color:#4490e6;stop-opacity:1"
         offset="0" />
      <stop
         id="stop3179"
         style="stop-color:#103d8f;stop-opacity:1"
         offset="1" />
    </linearGradient>
    <radialGradient
       cx="56.065952"
       cy="-15.871236"
       r="35.9375"
       fx="56.065952"
       fy="-15.871236"
       id="radialGradient3465"
       xlink:href="#linearGradient3175"
       gradientUnits="userSpaceOnUse"
       gradientTransform="matrix(0.00225966,0.925477,-1.3844339,0,25.901984,-30.21143)" />
    <linearGradient
       x1="58.650177"
       y1="122"
       x2="58.650177"
       y2="5.4252338"
       id="ButtonColor"
       gradientUnits="userSpaceOnUse"
       gradientTransform="matrix(1.0172414,0,0,1.0172414,-1.1034483,-1.1034483)">
      <stop
         id="stop3792"
         style="stop-color:#2fc044;stop-opacity:1"
         offset="0" />
      <stop
         id="stop3794"
         style="stop-color:#246d2f;stop-opacity:1"
         offset="1" />
    </linearGradient>
    <linearGradient
       id="linearGradient3465">
      <stop
         id="stop3467"
         style="stop-color:#919191;stop-opacity:1"
         offset="0" />
      <stop
         id="stop3469"
         style="stop-color:#fdfdfd;stop-opacity:1"
         offset="1" />
    </linearGradient>
    <linearGradient
       id="linearGradient3187">
      <stop
         id="stop3189"
         style="stop-color:#b4b4b4;stop-opacity:1"
         offset="0" />
      <stop
         id="stop3191"
         style="stop-color:#e6e6e6;stop-opacity:1"
         offset="1" />
    </linearGradient>
    <linearGradient
       x1="45.447727"
       y1="92.539597"
       x2="45.447727"
       y2="7.0165396"
       id="ButtonShadow"
       gradientUnits="userSpaceOnUse"
       gradientTransform="scale(1.0058652,0.994169)">
      <stop
         id="stop3750"
         style="stop-color:#000000;stop-opacity:1"
         offset="0" />
      <stop
         id="stop3752"
         style="stop-color:#000000;stop-opacity:0.58823532"
         offset="1" />
    </linearGradient>
    <linearGradient
       id="linearGradient3737">
      <stop
         id="stop3739"
         style="stop-color:#ffffff;stop-opacity:1"
         offset="0" />
      <stop
         id="stop3741"
         style="stop-color:#ffffff;stop-opacity:0"
         offset="1" />
    </linearGradient>
    <filter
       color-interpolation-filters="sRGB"
       id="filter3174">
      <feGaussianBlur
         id="feGaussianBlur3176"
         stdDeviation="1.71" />
    </filter>
    <linearGradient
       x1="36.357143"
       y1="6"
       x2="36.357143"
       y2="63.893143"
       id="linearGradient3188"
       xlink:href="#linearGradient3737"
       gradientUnits="userSpaceOnUse" />
    <linearGradient
       x1="43.17857"
       y1="13"
       x2="43.17857"
       y2="83.294571"
       id="linearGradient3436"
       xlink:href="#linearGradient3465"
       gradientUnits="userSpaceOnUse"
       gradientTransform="matrix(1.0294118,0,0,1.0294118,-1.4117647,-1.4117647)" />
    <radialGradient
       cx="47.098362"
       cy="80.842926"
       r="38.957481"
       fx="47.098362"
       fy="80.842926"
       id="radialGradient3366"
       xlink:href="#ButtonColor"
       gradientUnits="userSpaceOnUse"
       gradientTransform="matrix(1.3112996,-5.281739e-8,4.5811678e-8,1.1373685,-14.661706,-10.847943)" />
    <linearGradient
       x1="48"
       y1="90"
       x2="48"
       y2="5.9877172"
       id="linearGradient3466"
       xlink:href="#linearGradient3187"
       gradientUnits="userSpaceOnUse" />
    <filter
       color-interpolation-filters="sRGB"
       id="filter5085">
      <feGaussianBlur
         id="feGaussianBlur5087"
         stdDeviation="0.525" />
    </filter>
    <linearGradient
       x1="76.45089"
       y1="8.0625"
       x2="76.45089"
       y2="72.765785"
       id="linearGradient3693"
       xlink:href="#linearGradient3687"
       gradientUnits="userSpaceOnUse" />
    <linearGradient
       x1="65.15625"
       y1="16.125"
       x2="65.15625"
       y2="69.687508"
       id="linearGradient3701"
       xlink:href="#linearGradient3487"
       gradientUnits="userSpaceOnUse" />
    <linearGradient
       x1="65.15625"
       y1="16.125"
       x2="65.15625"
       y2="69.687508"
       id="linearGradient2675"
       xlink:href="#linearGradient3737"
       gradientUnits="userSpaceOnUse" />
    <linearGradient
       id="linearGradient3737-1">
      <stop
         id="stop3739-7"
         style="stop-color:#ffffff;stop-opacity:1"
         offset="0" />
      <stop
         id="stop3741-2"
         style="stop-color:#ffffff;stop-opacity:0"
         offset="1" />
    </linearGradient>
    <radialGradient
       cx="48"
       cy="90.171875"
       r="42"
       fx="48"
       fy="90.171875"
       id="radialGradient2893"
       xlink:href="#linearGradient3737-1"
       gradientUnits="userSpaceOnUse"
       gradientTransform="matrix(1.1573129,0,0,0.99590774,-7.551021,0.1971319)" />
    <linearGradient
       id="linearGradient3737-6">
      <stop
         id="stop3739-1"
         style="stop-color:#ffffff;stop-opacity:1"
         offset="0" />
      <stop
         id="stop3741-5"
         style="stop-color:#ffffff;stop-opacity:0"
         offset="1" />
    </linearGradient>
    <clipPath
       id="clipPath3613">
      <rect
         width="84"
         height="84"
         rx="6"
         ry="6"
         x="6"
         y="6"
         id="rect3615"
         style="fill:#ffffff;fill-opacity:1;fill-rule:nonzero;stroke:none" />
    </clipPath>
    <filter
       x="-0.192"
       y="-0.192"
       width="1.3839999"
       height="1.3839999"
       color-interpolation-filters="sRGB"
       id="filter3794">
      <feGaussianBlur
         id="feGaussianBlur3796"
         stdDeviation="5.28" />
    </filter>
    <linearGradient
       x1="48"
       y1="20.220806"
       x2="48"
       y2="138.66119"
       id="linearGradient2908"
       xlink:href="#linearGradient3737-6"
       gradientUnits="userSpaceOnUse" />
    <filter
       x="-0.26470587"
       y="-0.34615383"
       width="1.5294118"
       height="1.6923077"
       color-interpolation-filters="sRGB"
       id="filter3970">
      <feGaussianBlur
         id="feGaussianBlur3972"
         stdDeviation="3.9705883" />
    </filter>
    <linearGradient
       x1="45.447727"
       y1="92.539597"
       x2="45.447727"
       y2="7.0165396"
       id="ButtonShadow-0"
       gradientUnits="userSpaceOnUse"
       gradientTransform="matrix(1.0058652,0,0,0.994169,100,0)">
      <stop
         id="stop3750-8"
         style="stop-color:#000000;stop-opacity:1"
         offset="0" />
      <stop
         id="stop3752-5"
         style="stop-color:#000000;stop-opacity:0.58823532"
         offset="1" />
    </linearGradient>
    <linearGradient
       x1="32.251034"
       y1="6.1317081"
       x2="32.251034"
       y2="90.238609"
       id="linearGradient3780"
       xlink:href="#ButtonShadow-0"
       gradientUnits="userSpaceOnUse"
       gradientTransform="matrix(1.0238095,0,0,1.0119048,-1.1428571,-98.071429)" />
    <linearGradient
       x1="32.251034"
       y1="6.1317081"
       x2="32.251034"
       y2="90.238609"
       id="linearGradient3772"
       xlink:href="#ButtonShadow-0"
       gradientUnits="userSpaceOnUse"
       gradientTransform="matrix(1.0238095,0,0,1.0119048,-1.1428571,-98.071429)" />
    <linearGradient
       x1="32.251034"
       y1="6.1317081"
       x2="32.251034"
       y2="90.238609"
       id="linearGradient3725"
       xlink:href="#ButtonShadow-0"
       gradientUnits="userSpaceOnUse"
       gradientTransform="matrix(1.0238095,0,0,1.0119048,-1.1428571,-98.071429)" />
    <linearGradient
       x1="32.251034"
       y1="6.1317081"
       x2="32.251034"
       y2="90.238609"
       id="linearGradient3721"
       xlink:href="#ButtonShadow-0"
       gradientUnits="userSpaceOnUse"
       gradientTransform="translate(0,-97)" />
    <linearGradient
       x1="32.251034"
       y1="6.1317081"
       x2="32.251034"
       y2="90.238609"
       id="linearGradient3059"
       xlink:href="#ButtonShadow-0"
       gradientUnits="userSpaceOnUse"
       gradientTransform="matrix(1.0238095,0,0,1.0119048,-1.1428571,-98.071429)" />
  </defs>
  <metadata
     id="metadata2413">
    <rdf:RDF>
      <cc:Work
         rdf:about="">
        <dc:format>image/svg+xml</dc:format>
        <dc:type
           rdf:resource="http://purl.org/dc/dcmitype/StillImage" />
        <dc:title />
      </cc:Work>
    </rdf:RDF>
  </metadata>
  <g
     id="layer2"
     style="display:none">
    <rect
       width="86"
       height="85"
       rx="6"
       ry="6"
       x="5"
       y="7"
       id="rect3745"
       style="opacity:0.9;fill:url(#ButtonShadow);fill-opacity:1;fill-rule:nonzero;stroke:none;filter:url(#filter3174)" />
  </g>
  <g
     id="layer3"
     style="display:inline"
     transform="matrix(1.0715198,0,0,1.061509,-2.6254721,-1.4364662)">
    <rect
       width="77.914963"
       height="78.516495"
       rx="5.8527675"
       ry="0"
       x="8.1408806"
       y="8.2544327"
       id="rect3461"
       style="fill:#008080;fill-opacity:1;stroke:none" />
    <path
       d="m 12.0625,12.0625 0,53.875 71.875,0 0,-53.875 -71.875,0 z"
       transform="matrix(-1.0008688,0,0,-1.3339699,96.010447,99.965928)"
       id="path3215"
       style="fill:none;stroke:none"
       inkscape:connector-curvature="0" />
    <rect
       width="68"
       height="68"
       rx="3"
       ry="3"
       x="14"
       y="14"
       id="rect3469"
       style="fill:#008080;stroke:none;filter:url(#filter5085)" />
  </g>
  <g
     id="layer1"
     style="display:inline" />
  <g
     id="layer5"
     style="display:inline" />
  <rect
     style="fill:#000000;fill-opacity:1;fill-rule:evenodd;stroke:none"
     id="rect3049"
     width="81.807533"
     height="4.3775101"
     x="7.0213194"
     y="8.4930573"
     rx="1.6479011"
     ry="2.188755" />
  <rect
     style="fill:#d3bc5f;fill-opacity:1;fill-rule:evenodd;stroke:none"
     id="rect3051"
     width="54.281124"
     height="68.726906"
     x="14.883534"
     y="15.67269"
     rx="1.622493"
     ry="2.188755" />
  <rect
     ry="2.188755"
     rx="1.622493"
     y="17.861446"
     x="15.759036"
     height="26.046185"
     width="35.676708"
     id="rect3055"
     style="fill:#000000;fill-opacity:1;fill-rule:evenodd;stroke:none" />
  <rect
     style="fill:#ffffff;fill-opacity:1;fill-rule:evenodd;stroke:none"
     id="rect3053"
     width="33.877884"
     height="24.732931"
     x="16.658449"
     y="18.518072"
     rx="1.5406866"
     ry="2.0783978" />
  <g
     id="g3067">
    <rect
       ry="0.65662652"
       rx="1.5406866"
       y="20.269075"
       x="54.5"
       height="0.65662652"
       width="12.694779"
       id="rect3057"
       style="fill:#000000;fill-opacity:1;fill-rule:evenodd;stroke:none" />
    <rect
       style="fill:#000000;fill-opacity:1;fill-rule:evenodd;stroke:none"
       id="rect3059"
       width="5.0341368"
       height="0.65662652"
       x="54.5"
       y="22.269075"
       rx="0.61096197"
       ry="0.65662652" />
    <rect
       ry="0.65662652"
       rx="0.61096197"
       y="22.269075"
       x="60.5"
       height="0.65662652"
       width="5.0341368"
       id="rect3061"
       style="fill:#000000;fill-opacity:1;fill-rule:evenodd;stroke:none" />
    <rect
       style="fill:#000000;fill-opacity:1;fill-rule:evenodd;stroke:none"
       id="rect3063"
       width="2.6265063"
       height="0.65662652"
       x="54.5"
       y="24.269075"
       rx="0.31876278"
       ry="0.65662652" />
    <rect
       style="fill:#000000;fill-opacity:1;fill-rule:evenodd;stroke:none"
       id="rect3065"
       width="9.192771"
       height="0.65662652"
       x="58.002007"
       y="24.269075"
       rx="1.1156696"
       ry="0.65662652" />
  </g>
  <g
     id="g3074"
     transform="translate(0,6)">
    <rect
       style="fill:#000000;fill-opacity:1;fill-rule:evenodd;stroke:none"
       id="rect3076"
       width="12.694779"
       height="0.65662652"
       x="54.5"
       y="20.269075"
       rx="1.5406866"
       ry="0.65662652" />
    <rect
       ry="0.65662652"
       rx="0.61096197"
       y="22.269075"
       x="54.5"
       height="0.65662652"
       width="5.0341368"
       id="rect3078"
       style="fill:#000000;fill-opacity:1;fill-rule:evenodd;stroke:none" />
    <rect
       style="fill:#000000;fill-opacity:1;fill-rule:evenodd;stroke:none"
       id="rect3080"
       width="5.0341368"
       height="0.65662652"
       x="60.5"
       y="22.269075"
       rx="0.61096197"
       ry="0.65662652" />
    <rect
       ry="0.65662652"
       rx="0.31876278"
       y="24.269075"
       x="54.5"
       height="0.65662652"
       width="2.6265063"
       id="rect3082"
       style="fill:#000000;fill-opacity:1;fill-rule:evenodd;stroke:none" />
    <rect
       ry="0.65662652"
       rx="1.1156696"
       y="24.269075"
       x="58.002007"
       height="0.65662652"
       width="9.192771"
       id="rect3084"
       style="fill:#000000;fill-opacity:1;fill-rule:evenodd;stroke:none" />
  </g>
  <path
     style="fill:none;stroke:#000000;stroke-width:1px;stroke-linecap:butt;stroke-linejoin:miter;stroke-opacity:1"
     d="M 16.196787,34.714859 27.140562,23.333333 32.831325,35.15261"
     id="path3086"
     inkscape:connector-curvature="0" />
  <path
     style="fill:none;stroke:#000000;stroke-width:1px;stroke-linecap:butt;stroke-linejoin:miter;stroke-opacity:1"
     d="M 31.080321,30.556225 41.148594,19.61245 50.997992,33.182731"
     id="path3088"
     inkscape:connector-curvature="0" />
  <rect
     style="fill:#808000;fill-opacity:1;fill-rule:evenodd;stroke:none"
     id="rect3864"
     width="34.11536"
     height="5.2027783"
     x="16.50024"
     y="38.026184"
     rx="0.58193654"
     ry="2.6013892" />
  <path
     style="fill:#a05a2c;stroke:none"
     d="m 22.722687,28.584517 0.637383,3.503547 2.761987,-3.065604 1.487223,3.941491 1.912146,-4.379434 2.761987,5.474293 0.849843,2.408689 0.424921,-1.313831 -2.337067,-4.379434 5.311514,-4.817378 1.912145,7.226067 0.849843,-5.474293 2.549527,6.569152 3.82429,-7.445039 4.03675,5.474294 0.849844,1.532801 0,5.693266 -33.993692,-0.875887 0,-4.160463 z"
     id="path3094"
     inkscape:connector-curvature="0" />
  <rect
     style="fill:#e6e6e6;fill-opacity:1;fill-rule:evenodd;stroke:none"
     id="rect3866"
     width="14.715679"
     height="15.977023"
     x="71.896606"
     y="20.319363"
     rx="1.622493"
     ry="2.188755" />
  <rect
     style="fill:#e6e6e6;fill-opacity:1;fill-rule:evenodd;stroke:none"
     id="rect3868"
     width="14.085008"
     height="6.3067198"
     x="72.317055"
     y="39.449745"
     rx="1.622493"
     ry="2.188755" />
  <g
     transform="matrix(0.96195413,0,0,0.98712102,5.5022871,23.652696)"
     id="g23"
     style="fill:#000000;fill-opacity:1">
    <path
       style="fill:none;stroke:#000000;stroke-width:1.13801479px;stroke-opacity:1"
       inkscape:connector-curvature="0"
       d="m 12,26.5 h 4"
       id="path29" />
    <path
       style="fill:none;stroke:#000000;stroke-width:1.13801479px;stroke-opacity:1"
       inkscape:connector-curvature="0"
       d="m 17,26.5 h 1"
       id="path31" />
    <path
       style="fill:none;stroke:#000000;stroke-width:1.13801479px;stroke-opacity:1"
       inkscape:connector-curvature="0"
       d="m 19,26.5 h 5"
       id="path33" />
    <path
       style="fill:none;stroke:#000000;stroke-width:1.13801479px;stroke-opacity:1"
       inkscape:connector-curvature="0"
       d="m 25,26.5 h 2"
       id="path35" />
    <path
       style="fill:none;stroke:#000000;stroke-width:1.13801467px;stroke-opacity:1"
       inkscape:connector-curvature="0"
       d="m 28.34629,26.5 h 1.086573"
       id="path37" />
    <path
       style="fill:none;stroke:#000000;stroke-width:1.13801479px;stroke-opacity:1"
       inkscape:connector-curvature="0"
       d="M 30.581768,26.5 H 32.72721"
       id="path39" />
    <path
       style="fill:none;stroke:#000000;stroke-width:1.13801479px;stroke-opacity:1"
       inkscape:connector-curvature="0"
       d="m 12,28.5 h 1"
       id="path41" />
    <path
       style="fill:none;stroke:#000000;stroke-width:1.13801479px;stroke-opacity:1"
       inkscape:connector-curvature="0"
       d="m 14,28.5 h 4"
       id="path43" />
    <path
       style="fill:none;stroke:#000000;stroke-width:1.13801479px;stroke-opacity:1"
       inkscape:connector-curvature="0"
       d="m 19,28.5 h 3"
       id="path45" />
    <path
       style="fill:none;stroke:#000000;stroke-width:1.13801479px;stroke-opacity:1"
       inkscape:connector-curvature="0"
       d="m 23,28.5 h 2"
       id="path47" />
    <path
       style="fill:none;stroke:#000000;stroke-width:1.13801467px;stroke-opacity:1"
       inkscape:connector-curvature="0"
       d="m 26.173145,28.5 h 3.259718"
       id="path49" />
    <path
       style="fill:none;stroke:#000000;stroke-width:1.13801479px;stroke-opacity:1"
       inkscape:connector-curvature="0"
       d="M 30.581768,28.5 H 32.72721"
       id="path51" />
    <path
       style="fill:none;stroke:#000000;stroke-width:1.13801479px;stroke-opacity:1"
       inkscape:connector-curvature="0"
       d="m 12,30.5 h 3"
       id="path53" />
    <path
       style="fill:none;stroke:#000000;stroke-width:1.13801479px;stroke-opacity:1"
       inkscape:connector-curvature="0"
       d="m 16,30.5 h 2"
       id="path55" />
    <path
       style="fill:none;stroke:#000000;stroke-width:1.13801479px;stroke-opacity:1"
       inkscape:connector-curvature="0"
       d="m 19,30.5 h 7"
       id="path57" />
    <path
       style="fill:none;stroke:#000000;stroke-width:1.13801467px;stroke-opacity:1"
       inkscape:connector-curvature="0"
       d="M 27.259717,30.5 H 28.34629"
       id="path59" />
    <path
       style="fill:none;stroke:#000000;stroke-width:1.13801479px;stroke-opacity:1"
       inkscape:connector-curvature="0"
       d="M 29.509047,30.5 H 32.72721"
       id="path61" />
    <path
       style="fill:none;stroke:#000000;stroke-width:1.13801479px;stroke-opacity:1"
       inkscape:connector-curvature="0"
       d="m 12,32.5 h 4"
       id="path63" />
    <path
       style="fill:none;stroke:#000000;stroke-width:1.13801479px;stroke-opacity:1"
       inkscape:connector-curvature="0"
       d="m 17,32.5 h 2"
       id="path65" />
    <path
       style="fill:none;stroke:#000000;stroke-width:1.13801479px;stroke-opacity:1"
       inkscape:connector-curvature="0"
       d="m 20,32.5 h 1"
       id="path67" />
    <path
       style="fill:none;stroke:#000000;stroke-width:1.13801479px;stroke-opacity:1"
       inkscape:connector-curvature="0"
       d="m 22,32.5 h 1"
       id="path69" />
    <path
       style="fill:none;stroke:#000000;stroke-width:1.13801467px;stroke-opacity:1"
       inkscape:connector-curvature="0"
       d="M 23.999999,32.5 H 28.34629"
       id="path71" />
    <path
       style="fill:none;stroke:#000000;stroke-width:1.13801479px;stroke-opacity:1"
       inkscape:connector-curvature="0"
       d="M 29.509047,32.5 H 32.72721"
       id="path73" />
    <path
       style="fill:none;stroke:#000000;stroke-width:1.13801479px;stroke-opacity:1"
       inkscape:connector-curvature="0"
       d="m 12,34.5 h 3"
       id="path75" />
    <path
       style="fill:none;stroke:#000000;stroke-width:1.13801479px;stroke-opacity:1"
       inkscape:connector-curvature="0"
       d="m 16,34.5 h 1"
       id="path77" />
    <path
       style="fill:none;stroke:#000000;stroke-width:1.13801479px;stroke-opacity:1"
       inkscape:connector-curvature="0"
       d="m 18,34.5 h 2"
       id="path79" />
    <path
       style="fill:none;stroke:#000000;stroke-width:1.13801479px;stroke-opacity:1"
       inkscape:connector-curvature="0"
       d="m 21,34.5 h 6"
       id="path81" />
    <path
       style="fill:none;stroke:#000000;stroke-width:1.13801467px;stroke-opacity:1"
       inkscape:connector-curvature="0"
       d="m 28.34629,34.5 h 2.173146"
       id="path83" />
    <path
       style="fill:none;stroke:#000000;stroke-width:1.13801479px;stroke-opacity:1"
       inkscape:connector-curvature="0"
       d="M 31.654489,34.5 H 32.72721"
       id="path85" />
    <path
       style="fill:none;stroke:#000000;stroke-width:1.13801479px;stroke-opacity:1"
       inkscape:connector-curvature="0"
       d="m 12,36.5 h 2"
       id="path87" />
    <path
       style="fill:none;stroke:#000000;stroke-width:1.13801479px;stroke-opacity:1"
       inkscape:connector-curvature="0"
       d="m 15,36.5 h 6"
       id="path89" />
    <path
       style="fill:none;stroke:#000000;stroke-width:1.13801479px;stroke-opacity:1"
       inkscape:connector-curvature="0"
       d="m 21.999999,36.5 h 5.363606 5.363605"
       id="path91" />
    <path
       style="fill:none;stroke:#000000;stroke-width:1.13801479px;stroke-opacity:1"
       inkscape:connector-curvature="0"
       d="m 12,38.5 h 3"
       id="path93" />
    <path
       style="fill:none;stroke:#000000;stroke-width:1.13801479px;stroke-opacity:1"
       inkscape:connector-curvature="0"
       d="m 16,38.5 h 4"
       id="path95" />
  </g>
  <g
     style="fill:#000000;fill-opacity:1"
     id="g3916"
     transform="matrix(0.96195413,0,0,0.98712102,5.4770847,41.439115)">
    <path
       id="path3918"
       d="m 12,26.5 h 4"
       inkscape:connector-curvature="0"
       style="fill:none;stroke:#000000;stroke-width:1.13801479px;stroke-opacity:1" />
    <path
       id="path3920"
       d="m 17,26.5 h 1"
       inkscape:connector-curvature="0"
       style="fill:none;stroke:#000000;stroke-width:1.13801479px;stroke-opacity:1" />
    <path
       id="path3922"
       d="m 19,26.5 h 5"
       inkscape:connector-curvature="0"
       style="fill:none;stroke:#000000;stroke-width:1.13801479px;stroke-opacity:1" />
    <path
       id="path3924"
       d="m 25,26.5 h 2"
       inkscape:connector-curvature="0"
       style="fill:none;stroke:#000000;stroke-width:1.13801479px;stroke-opacity:1" />
    <path
       id="path3926"
       d="m 28.34629,26.5 h 1.086573"
       inkscape:connector-curvature="0"
       style="fill:none;stroke:#000000;stroke-width:1.13801467px;stroke-opacity:1" />
    <path
       id="path3928"
       d="M 30.581768,26.5 H 32.72721"
       inkscape:connector-curvature="0"
       style="fill:none;stroke:#000000;stroke-width:1.13801479px;stroke-opacity:1" />
    <path
       id="path3930"
       d="m 12,28.5 h 1"
       inkscape:connector-curvature="0"
       style="fill:none;stroke:#000000;stroke-width:1.13801479px;stroke-opacity:1" />
    <path
       id="path3932"
       d="m 14,28.5 h 4"
       inkscape:connector-curvature="0"
       style="fill:none;stroke:#000000;stroke-width:1.13801479px;stroke-opacity:1" />
    <path
       id="path3934"
       d="m 19,28.5 h 3"
       inkscape:connector-curvature="0"
       style="fill:none;stroke:#000000;stroke-width:1.13801479px;stroke-opacity:1" />
    <path
       id="path3936"
       d="m 23,28.5 h 2"
       inkscape:connector-curvature="0"
       style="fill:none;stroke:#000000;stroke-width:1.13801479px;stroke-opacity:1" />
    <path
       id="path3938"
       d="m 26.173145,28.5 h 3.259718"
       inkscape:connector-curvature="0"
       style="fill:none;stroke:#000000;stroke-width:1.13801467px;stroke-opacity:1" />
    <path
       id="path3940"
       d="M 30.581768,28.5 H 32.72721"
       inkscape:connector-curvature="0"
       style="fill:none;stroke:#000000;stroke-width:1.13801479px;stroke-opacity:1" />
    <path
       id="path3942"
       d="m 12,30.5 h 3"
       inkscape:connector-curvature="0"
       style="fill:none;stroke:#000000;stroke-width:1.13801479px;stroke-opacity:1" />
    <path
       id="path3944"
       d="m 16,30.5 h 2"
       inkscape:connector-curvature="0"
       style="fill:none;stroke:#000000;stroke-width:1.13801479px;stroke-opacity:1" />
    <path
       id="path3946"
       d="m 19,30.5 h 7"
       inkscape:connector-curvature="0"
       style="fill:none;stroke:#000000;stroke-width:1.13801479px;stroke-opacity:1" />
    <path
       id="path3948"
       d="M 27.259717,30.5 H 28.34629"
       inkscape:connector-curvature="0"
       style="fill:none;stroke:#000000;stroke-width:1.13801467px;stroke-opacity:1" />
    <path
       id="path3950"
       d="M 29.509047,30.5 H 32.72721"
       inkscape:connector-curvature="0"
       style="fill:none;stroke:#000000;stroke-width:1.13801479px;stroke-opacity:1" />
    <path
       id="path3952"
       d="m 12,32.5 h 4"
       inkscape:connector-curvature="0"
       style="fill:none;stroke:#000000;stroke-width:1.13801479px;stroke-opacity:1" />
    <path
       id="path3954"
       d="m 17,32.5 h 2"
       inkscape:connector-curvature="0"
       style="fill:none;stroke:#000000;stroke-width:1.13801479px;stroke-opacity:1" />
    <path
       id="path3956"
       d="m 20,32.5 h 1"
       inkscape:connector-curvature="0"
       style="fill:none;stroke:#000000;stroke-width:1.13801479px;stroke-opacity:1" />
    <path
       id="path3958"
       d="m 22,32.5 h 1"
       inkscape:connector-curvature="0"
       style="fill:none;stroke:#000000;stroke-width:1.13801479px;stroke-opacity:1" />
    <path
       id="path3960"
       d="M 23.999999,32.5 H 28.34629"
       inkscape:connector-curvature="0"
       style="fill:none;stroke:#000000;stroke-width:1.13801467px;stroke-opacity:1" />
    <path
       id="path3962"
       d="M 29.509047,32.5 H 32.72721"
       inkscape:connector-curvature="0"
       style="fill:none;stroke:#000000;stroke-width:1.13801479px;stroke-opacity:1" />
    <path
       id="path3964"
       d="m 12,34.5 h 3"
       inkscape:connector-curvature="0"
       style="fill:none;stroke:#000000;stroke-width:1.13801479px;stroke-opacity:1" />
    <path
       id="path3966"
       d="m 16,34.5 h 1"
       inkscape:connector-curvature="0"
       style="fill:none;stroke:#000000;stroke-width:1.13801479px;stroke-opacity:1" />
    <path
       id="path3968"
       d="m 18,34.5 h 2"
       inkscape:connector-curvature="0"
       style="fill:none;stroke:#000000;stroke-width:1.13801479px;stroke-opacity:1" />
    <path
       id="path3970"
       d="m 21,34.5 h 6"
       inkscape:connector-curvature="0"
       style="fill:none;stroke:#000000;stroke-width:1.13801479px;stroke-opacity:1" />
    <path
       id="path3972"
       d="m 28.34629,34.5 h 2.173146"
       inkscape:connector-curvature="0"
       style="fill:none;stroke:#000000;stroke-width:1.13801467px;stroke-opacity:1" />
    <path
       id="path3974"
       d="M 31.654489,34.5 H 32.72721"
       inkscape:connector-curvature="0"
       style="fill:none;stroke:#000000;stroke-width:1.13801479px;stroke-opacity:1" />
    <path
       id="path3976"
       d="m 12,36.5 h 2"
       inkscape:connector-curvature="0"
       style="fill:none;stroke:#000000;stroke-width:1.13801479px;stroke-opacity:1" />
    <path
       id="path3978"
       d="m 15,36.5 h 6"
       inkscape:connector-curvature="0"
       style="fill:none;stroke:#000000;stroke-width:1.13801479px;stroke-opacity:1" />
    <path
       id="path3980"
       d="m 21.999999,36.5 h 5.363606 5.363605"
       inkscape:connector-curvature="0"
       style="fill:none;stroke:#000000;stroke-width:1.13801479px;stroke-opacity:1" />
    <path
       id="path3982"
       d="m 12,38.5 h 3"
       inkscape:connector-curvature="0"
       style="fill:none;stroke:#000000;stroke-width:1.13801479px;stroke-opacity:1" />
    <path
       id="path3984"
       d="m 16,38.5 h 4"
       inkscape:connector-curvature="0"
       style="fill:none;stroke:#000000;stroke-width:1.13801479px;stroke-opacity:1" />
  </g>
  <text
     xml:space="preserve"
     style="font-size:2.08854818px;font-style:normal;font-variant:normal;font-weight:normal;font-stretch:normal;line-height:125%;letter-spacing:0px;word-spacing:0px;fill:#000000;fill-opacity:1;stroke:none;font-family:Linux Libertine Display;-inkscape-font-specification:Linux Libertine Display"
     x="17.300077"
     y="46.846607"
     id="text3986"
     sodipodi:linespacing="125%"
     transform="scale(0.97906893,1.0213785)"><tspan
       sodipodi:role="line"
       id="tspan3988"
       x="17.300077"
       y="46.846607">22/04/2014</tspan></text>
  <text
     transform="scale(0.97906897,1.0213785)"
     sodipodi:linespacing="125%"
     id="text3990"
     y="64.469849"
     x="17.300077"
     style="font-size:2.08854818px;font-style:normal;font-variant:normal;font-weight:normal;font-stretch:normal;line-height:125%;letter-spacing:0px;word-spacing:0px;fill:#000000;fill-opacity:1;stroke:none;font-family:Linux Libertine Display;-inkscape-font-specification:Linux Libertine Display"
     xml:space="preserve"><tspan
       y="64.469849"
       x="17.300077"
       id="tspan3992"
       sodipodi:role="line">24/04/2014</tspan></text>
  <text
     xml:space="preserve"
     style="font-size:21.7654686px;font-style:normal;font-variant:normal;font-weight:normal;font-stretch:normal;line-height:125%;letter-spacing:0px;word-spacing:0px;fill:#000000;fill-opacity:1;stroke:none;font-family:Linux Libertine Display;-inkscape-font-specification:Linux Libertine Display"
     x="35.53421"
     y="96.64537"
     id="text3143"
     sodipodi:linespacing="125%"
     transform="scale(1.1306423,0.88445304)"><tspan
       sodipodi:role="line"
       id="tspan3145"
       x="35.53421"
       y="96.64537"
       style="font-size:58.04124832px;font-style:normal;font-variant:normal;font-weight:normal;font-stretch:normal;font-family:Droid Sans Ethiopic;-inkscape-font-specification:Droid Sans Ethiopic">K</tspan></text>
  <text
     transform="scale(1.1155072,0.89645323)"
     sodipodi:linespacing="125%"
     id="text3145"
     y="93.801468"
     x="36.378578"
     style="font-size:20.67669868px;font-style:normal;font-variant:normal;font-weight:normal;font-stretch:normal;line-height:125%;letter-spacing:0px;word-spacing:0px;fill:#ffffff;fill-opacity:1;stroke:none;font-family:Linux Libertine Display;-inkscape-font-specification:Linux Libertine Display"
     xml:space="preserve"><tspan
       style="font-size:55.13786316px;font-style:normal;font-variant:normal;font-weight:normal;font-stretch:normal;fill:#ffffff;font-family:Droid Sans Ethiopic;-inkscape-font-specification:Droid Sans Ethiopic"
       y="93.801468"
       x="36.378578"
       id="tspan3147"
       sodipodi:role="line">K</tspan></text>
</svg>
