<?xml version="1.0" encoding="UTF-8" standalone="no"?>
<!-- Created with Inkscape (http://www.inkscape.org/) -->

<svg
   xmlns:dc="http://purl.org/dc/elements/1.1/"
   xmlns:cc="http://creativecommons.org/ns#"
   xmlns:rdf="http://www.w3.org/1999/02/22-rdf-syntax-ns#"
   xmlns:svg="http://www.w3.org/2000/svg"
   xmlns="http://www.w3.org/2000/svg"
   xmlns:xlink="http://www.w3.org/1999/xlink"
   xmlns:sodipodi="http://sodipodi.sourceforge.net/DTD/sodipodi-0.dtd"
   xmlns:inkscape="http://www.inkscape.org/namespaces/inkscape"
   version="1.0"
   width="96"
   height="96"
   id="svg2408"
   style="display:inline"
   inkscape:version="0.48.4 r9939"
   sodipodi:docname="kmouth.svg">
  <sodipodi:namedview
     pagecolor="#ffffff"
     bordercolor="#666666"
     borderopacity="1"
     objecttolerance="10"
     gridtolerance="10"
     guidetolerance="10"
     inkscape:pageopacity="0"
     inkscape:pageshadow="2"
     inkscape:window-width="1680"
     inkscape:window-height="991"
     id="namedview68"
     showgrid="false"
     inkscape:zoom="4.4113235"
     inkscape:cx="183.59634"
     inkscape:cy="22.892706"
     inkscape:window-x="0"
     inkscape:window-y="-3"
     inkscape:window-maximized="1"
     inkscape:current-layer="svg2408" />
  <defs
     id="defs2410">
    <linearGradient
       x1="45.447727"
       y1="92.539597"
       x2="45.447727"
       y2="7.0165396"
       id="ButtonShadow"
       gradientUnits="userSpaceOnUse"
       gradientTransform="scale(1.0058652,0.994169)">
      <stop
         id="stop3750"
         style="stop-color:#000000;stop-opacity:1"
         offset="0" />
      <stop
         id="stop3752"
         style="stop-color:#000000;stop-opacity:0.58823532"
         offset="1" />
    </linearGradient>
    <filter
       color-interpolation-filters="sRGB"
       id="filter3174">
      <feGaussianBlur
         id="feGaussianBlur3176"
         stdDeviation="1.71" />
    </filter>
    <linearGradient
       x1="45.447727"
       y1="92.539597"
       x2="45.447727"
       y2="7.0165396"
       id="ButtonShadow-0"
       gradientUnits="userSpaceOnUse"
       gradientTransform="matrix(1.0058652,0,0,0.994169,100,0)">
      <stop
         id="stop3750-8"
         style="stop-color:#000000;stop-opacity:1"
         offset="0" />
      <stop
         id="stop3752-5"
         style="stop-color:#000000;stop-opacity:0.58823532"
         offset="1" />
    </linearGradient>
    <linearGradient
       x1="32.251034"
       y1="6.1317081"
       x2="32.251034"
       y2="90.238609"
       id="linearGradient3780"
       xlink:href="#ButtonShadow-0"
       gradientUnits="userSpaceOnUse"
       gradientTransform="matrix(1.0238095,0,0,1.0119048,-1.1428571,-98.071429)" />
    <linearGradient
       x1="32.251034"
       y1="6.1317081"
       x2="32.251034"
       y2="90.238609"
       id="linearGradient3772"
       xlink:href="#ButtonShadow-0"
       gradientUnits="userSpaceOnUse"
       gradientTransform="matrix(1.0238095,0,0,1.0119048,-1.1428571,-98.071429)" />
    <linearGradient
       x1="32.251034"
       y1="6.1317081"
       x2="32.251034"
       y2="90.238609"
       id="linearGradient3725"
       xlink:href="#ButtonShadow-0"
       gradientUnits="userSpaceOnUse"
       gradientTransform="matrix(1.0238095,0,0,1.0119048,-1.1428571,-98.071429)" />
    <linearGradient
       x1="32.251034"
       y1="6.1317081"
       x2="32.251034"
       y2="90.238609"
       id="linearGradient3721"
       xlink:href="#ButtonShadow-0"
       gradientUnits="userSpaceOnUse"
       gradientTransform="translate(0,-97)" />
    <linearGradient
       x1="32.251034"
       y1="6.1317081"
       x2="32.251034"
       y2="90.238609"
       id="linearGradient3760"
       xlink:href="#ButtonShadow-0"
       gradientUnits="userSpaceOnUse"
       gradientTransform="matrix(1.0238095,0,0,1.0119048,-1.1428571,-98.071429)" />
    <linearGradient
       id="linearGradient3317">
      <stop
         id="stop3319"
         style="stop-color:#6ab300;stop-opacity:1"
         offset="0" />
      <stop
         id="stop3321"
         style="stop-color:#9dcf00;stop-opacity:1"
         offset="1" />
    </linearGradient>
    <linearGradient
       id="linearGradient3700-7">
      <stop
         id="stop3702-2"
         style="stop-color:#e6e6e6;stop-opacity:1"
         offset="0" />
      <stop
         id="stop3704-9"
         style="stop-color:#f5f5f5;stop-opacity:1"
         offset="1" />
    </linearGradient>
    <linearGradient
       x1="36.357143"
       y1="6"
       x2="36.357143"
       y2="63.893143"
       id="linearGradient3923-0"
       xlink:href="#linearGradient3737-1-9"
       gradientUnits="userSpaceOnUse" />
    <linearGradient
       id="linearGradient3737-1-9">
      <stop
         id="stop3739-9-7"
         style="stop-color:#ffffff;stop-opacity:1"
         offset="0" />
      <stop
         id="stop3741-3-7"
         style="stop-color:#ffffff;stop-opacity:0"
         offset="1" />
    </linearGradient>
    <radialGradient
       cx="48"
       cy="90.171875"
       r="42"
       fx="48"
       fy="90.171875"
       id="radialGradient2886-8"
       xlink:href="#linearGradient3737-0-2"
       gradientUnits="userSpaceOnUse"
       gradientTransform="matrix(1.1573129,0,0,0.99590774,-7.551021,0.1971319)" />
    <linearGradient
       id="linearGradient3737-0-2">
      <stop
         id="stop3739-6-6"
         style="stop-color:#ffffff;stop-opacity:1"
         offset="0" />
      <stop
         id="stop3741-0-7"
         style="stop-color:#ffffff;stop-opacity:0"
         offset="1" />
    </linearGradient>
    <linearGradient
       x1="48"
       y1="90"
       x2="48"
       y2="5.9877172"
       id="linearGradient3100"
       xlink:href="#linearGradient3700-7"
       gradientUnits="userSpaceOnUse" />
    <linearGradient
       id="linearGradient3737-9-3">
      <stop
         id="stop3739-2-0"
         style="stop-color:#ffffff;stop-opacity:1"
         offset="0" />
      <stop
         id="stop3741-1-9"
         style="stop-color:#ffffff;stop-opacity:0"
         offset="1" />
    </linearGradient>
    <clipPath
       id="clipPath3613-0">
      <rect
         width="84"
         height="84"
         rx="6"
         ry="6"
         x="6"
         y="6"
         id="rect3615-6"
         style="fill:#ffffff;fill-opacity:1;fill-rule:nonzero;stroke:none" />
    </clipPath>
    <filter
       x="-0.192"
       y="-0.192"
       width="1.3839999"
       height="1.3839999"
       color-interpolation-filters="sRGB"
       id="filter3794">
      <feGaussianBlur
         id="feGaussianBlur3796"
         stdDeviation="5.28" />
    </filter>
    <linearGradient
       x1="48"
       y1="20.220806"
       x2="48"
       y2="138.66119"
       id="linearGradient3121"
       xlink:href="#linearGradient3737-9-3"
       gradientUnits="userSpaceOnUse" />
    <linearGradient
       x1="48"
       y1="64"
       x2="48"
       y2="24"
       id="linearGradient4142"
       xlink:href="#linearGradient3317"
       gradientUnits="userSpaceOnUse" />
    <linearGradient
       x1="32"
       y1="88"
       x2="32"
       y2="8"
       id="linearGradient3949"
       xlink:href="#linearGradient3856"
       gradientUnits="userSpaceOnUse" />
    <linearGradient
       id="linearGradient3856">
      <stop
         id="stop3858"
         style="stop-color:#b3b3b3;stop-opacity:1"
         offset="0" />
      <stop
         id="stop3860"
         style="stop-color:#e6e6e6;stop-opacity:1"
         offset="1" />
    </linearGradient>
    <radialGradient
       cx="47.999981"
       cy="47.999424"
       r="34.937546"
       fx="47.999981"
       fy="47.999424"
       id="radialGradient3920"
       xlink:href="#linearGradient3914"
       gradientUnits="userSpaceOnUse"
       gradientTransform="matrix(1.3452582,-3.8835319e-8,3.3050848e-8,1.1448837,-16.572388,-6.9543292)" />
    <linearGradient
       id="linearGradient3914">
      <stop
         id="stop3916"
         style="stop-color:#000000;stop-opacity:1"
         offset="0" />
      <stop
         id="stop3918"
         style="stop-color:#000000;stop-opacity:0"
         offset="1" />
    </linearGradient>
    <linearGradient
       x1="48"
       y1="80"
       x2="48"
       y2="16"
       id="linearGradient3879"
       xlink:href="#linearGradient3873"
       gradientUnits="userSpaceOnUse" />
    <linearGradient
       id="linearGradient3873">
      <stop
         id="stop3875"
         style="stop-color:#dfdfdf;stop-opacity:1"
         offset="0" />
      <stop
         id="stop3877"
         style="stop-color:#fefefe;stop-opacity:1"
         offset="1" />
    </linearGradient>
    <linearGradient
       x1="32"
       y1="88"
       x2="32"
       y2="8"
       id="linearGradient3205"
       xlink:href="#linearGradient3856"
       gradientUnits="userSpaceOnUse" />
    <linearGradient
       id="linearGradient3207">
      <stop
         id="stop3209"
         style="stop-color:#b3b3b3;stop-opacity:1"
         offset="0" />
      <stop
         id="stop3211"
         style="stop-color:#e6e6e6;stop-opacity:1"
         offset="1" />
    </linearGradient>
    <radialGradient
       cx="47.999981"
       cy="47.999424"
       r="34.937546"
       fx="47.999981"
       fy="47.999424"
       id="radialGradient3213"
       xlink:href="#linearGradient3914"
       gradientUnits="userSpaceOnUse"
       gradientTransform="matrix(1.3452582,-3.8835319e-8,3.3050848e-8,1.1448837,-16.572388,-6.9543292)" />
    <linearGradient
       id="linearGradient3215">
      <stop
         id="stop3217"
         style="stop-color:#000000;stop-opacity:1"
         offset="0" />
      <stop
         id="stop3219"
         style="stop-color:#000000;stop-opacity:0"
         offset="1" />
    </linearGradient>
    <linearGradient
       x1="48"
       y1="80"
       x2="48"
       y2="16"
       id="linearGradient3221"
       xlink:href="#linearGradient3873"
       gradientUnits="userSpaceOnUse" />
    <linearGradient
       id="linearGradient3223">
      <stop
         id="stop3225"
         style="stop-color:#dfdfdf;stop-opacity:1"
         offset="0" />
      <stop
         id="stop3227"
         style="stop-color:#fefefe;stop-opacity:1"
         offset="1" />
    </linearGradient>
    <linearGradient
       x1="32"
       y1="88"
       x2="32"
       y2="8"
       id="linearGradient3229"
       xlink:href="#linearGradient3856"
       gradientUnits="userSpaceOnUse" />
    <linearGradient
       id="linearGradient3231">
      <stop
         id="stop3233"
         style="stop-color:#b3b3b3;stop-opacity:1"
         offset="0" />
      <stop
         id="stop3235"
         style="stop-color:#e6e6e6;stop-opacity:1"
         offset="1" />
    </linearGradient>
    <radialGradient
       cx="47.999981"
       cy="47.999424"
       r="34.937546"
       fx="47.999981"
       fy="47.999424"
       id="radialGradient3237"
       xlink:href="#linearGradient3914"
       gradientUnits="userSpaceOnUse"
       gradientTransform="matrix(1.3452582,-3.8835319e-8,3.3050848e-8,1.1448837,-16.572388,-6.9543292)" />
    <linearGradient
       id="linearGradient3239">
      <stop
         id="stop3241"
         style="stop-color:#000000;stop-opacity:1"
         offset="0" />
      <stop
         id="stop3243"
         style="stop-color:#000000;stop-opacity:0"
         offset="1" />
    </linearGradient>
    <linearGradient
       x1="45"
       y1="95"
       x2="45"
       y2="4"
       id="linearGradient3929"
       xlink:href="#ButtonShadow-0-9"
       gradientUnits="userSpaceOnUse" />
    <linearGradient
       x1="45.447727"
       y1="92.539597"
       x2="45.447727"
       y2="7.0165396"
       id="ButtonShadow-0-9"
       gradientUnits="userSpaceOnUse"
       gradientTransform="matrix(1.0058652,0,0,0.994169,100,0)">
      <stop
         id="stop3750-8-9"
         style="stop-color:#000000;stop-opacity:1"
         offset="0" />
      <stop
         id="stop3752-5-0"
         style="stop-color:#000000;stop-opacity:0.58823532"
         offset="1" />
    </linearGradient>
    <linearGradient
       x1="38"
       y1="94"
       x2="38"
       y2="5"
       id="linearGradient3927"
       xlink:href="#ButtonShadow-0-9"
       gradientUnits="userSpaceOnUse" />
    <linearGradient
       x1="45.447727"
       y1="92.539597"
       x2="45.447727"
       y2="7.0165396"
       id="linearGradient3250"
       gradientUnits="userSpaceOnUse"
       gradientTransform="matrix(1.0058652,0,0,0.994169,100,0)">
      <stop
         id="stop3252"
         style="stop-color:#000000;stop-opacity:1"
         offset="0" />
      <stop
         id="stop3254"
         style="stop-color:#000000;stop-opacity:0.58823532"
         offset="1" />
    </linearGradient>
    <linearGradient
       x1="47"
       y1="93"
       x2="47"
       y2="6"
       id="linearGradient3940"
       xlink:href="#ButtonShadow-0-9"
       gradientUnits="userSpaceOnUse" />
    <linearGradient
       x1="45.447727"
       y1="92.539597"
       x2="45.447727"
       y2="7.0165396"
       id="linearGradient3257"
       gradientUnits="userSpaceOnUse"
       gradientTransform="matrix(1.0058652,0,0,0.994169,100,0)">
      <stop
         id="stop3259"
         style="stop-color:#000000;stop-opacity:1"
         offset="0" />
      <stop
         id="stop3261"
         style="stop-color:#000000;stop-opacity:0.58823532"
         offset="1" />
    </linearGradient>
    <linearGradient
       x1="50"
       y1="92"
       x2="50"
       y2="7"
       id="linearGradient3933"
       xlink:href="#ButtonShadow-0-9"
       gradientUnits="userSpaceOnUse" />
    <linearGradient
       x1="45.447727"
       y1="92.539597"
       x2="45.447727"
       y2="7.0165396"
       id="linearGradient3264"
       gradientUnits="userSpaceOnUse"
       gradientTransform="matrix(1.0058652,0,0,0.994169,100,0)">
      <stop
         id="stop3266"
         style="stop-color:#000000;stop-opacity:1"
         offset="0" />
      <stop
         id="stop3268"
         style="stop-color:#000000;stop-opacity:0.58823532"
         offset="1" />
    </linearGradient>
    <linearGradient
       x1="49"
       y1="91"
       x2="49"
       y2="7"
       id="linearGradient3920"
       xlink:href="#ButtonShadow-0-9"
       gradientUnits="userSpaceOnUse" />
    <linearGradient
       x1="45.447727"
       y1="92.539597"
       x2="45.447727"
       y2="7.0165396"
       id="linearGradient3271"
       gradientUnits="userSpaceOnUse"
       gradientTransform="matrix(1.0058652,0,0,0.994169,100,0)">
      <stop
         id="stop3273"
         style="stop-color:#000000;stop-opacity:1"
         offset="0" />
      <stop
         id="stop3275"
         style="stop-color:#000000;stop-opacity:0.58823532"
         offset="1" />
    </linearGradient>
    <mask
       id="XMLID_23_">
      <g
         id="g31"
         style="filter:url(#Adobe_OpacityMaskFilter)">
        <radialGradient
           cx="88.977501"
           cy="-20.899401"
           r="673.11609"
           fx="88.977501"
           fy="-20.899401"
           id="XMLID_24_"
           gradientUnits="userSpaceOnUse">
          <stop
             id="stop34"
             style="stop-color:#ffffff;stop-opacity:1"
             offset="0.30899999" />
          <stop
             id="stop36"
             style="stop-color:#000000;stop-opacity:1"
             offset="1" />
        </radialGradient>
        <ellipse
           sodipodi:ry="349.10599"
           sodipodi:rx="512.93402"
           sodipodi:cy="286.172"
           sodipodi:cx="295.89499"
           cx="295.89499"
           cy="286.172"
           rx="512.93402"
           ry="349.10599"
           id="ellipse38"
           style="fill:url(#XMLID_24_) #000000" />
      </g>
    </mask>
    <radialGradient
       cx="88.977501"
       cy="-20.899401"
       r="673.11609"
       fx="88.977501"
       fy="-20.899401"
       id="radialGradient3128"
       gradientUnits="userSpaceOnUse">
      <stop
         id="stop3130"
         style="stop-color:#ffffff;stop-opacity:1"
         offset="0.30899999" />
      <stop
         id="stop3132"
         style="stop-color:#000000;stop-opacity:1"
         offset="1" />
    </radialGradient>
    <linearGradient
       x1="13.1875"
       y1="48"
       x2="82.8125"
       y2="48"
       id="linearGradient3991"
       xlink:href="#linearGradient3985"
       gradientUnits="userSpaceOnUse"
       gradientTransform="matrix(0,1,-1,0,96,0)" />
    <linearGradient
       id="linearGradient3985">
      <stop
         id="stop3987"
         style="stop-color:#000000;stop-opacity:1"
         offset="0" />
      <stop
         id="stop3989"
         style="stop-color:#000000;stop-opacity:0"
         offset="1" />
    </linearGradient>
    <linearGradient
       x1="32.251034"
       y1="6.1317081"
       x2="32.251034"
       y2="90.238609"
       id="linearGradient3059"
       xlink:href="#ButtonShadow-0-6"
       gradientUnits="userSpaceOnUse"
       gradientTransform="matrix(1.0238095,0,0,1.0119048,-1.1428571,-98.071429)" />
    <linearGradient
       x1="45.447727"
       y1="92.539597"
       x2="45.447727"
       y2="7.0165396"
       id="ButtonShadow-0-6"
       gradientUnits="userSpaceOnUse"
       gradientTransform="matrix(1.0058652,0,0,0.994169,100,0)">
      <stop
         id="stop3750-8-5"
         style="stop-color:#000000;stop-opacity:1"
         offset="0" />
      <stop
         id="stop3752-5-7"
         style="stop-color:#000000;stop-opacity:0.58823532"
         offset="1" />
    </linearGradient>
    <linearGradient
       x1="32.251034"
       y1="6.1317081"
       x2="32.251034"
       y2="90.238609"
       id="linearGradient3780-8"
       xlink:href="#ButtonShadow-0-6"
       gradientUnits="userSpaceOnUse"
       gradientTransform="matrix(1.0238095,0,0,1.0119048,-1.1428571,-98.071429)" />
    <linearGradient
       x1="45.447727"
       y1="92.539597"
       x2="45.447727"
       y2="7.0165396"
       id="linearGradient3143"
       gradientUnits="userSpaceOnUse"
       gradientTransform="matrix(1.0058652,0,0,0.994169,100,0)">
      <stop
         id="stop3145"
         style="stop-color:#000000;stop-opacity:1"
         offset="0" />
      <stop
         id="stop3147"
         style="stop-color:#000000;stop-opacity:0.58823532"
         offset="1" />
    </linearGradient>
    <linearGradient
       x1="32.251034"
       y1="6.1317081"
       x2="32.251034"
       y2="90.238609"
       id="linearGradient3772-7"
       xlink:href="#ButtonShadow-0-6"
       gradientUnits="userSpaceOnUse"
       gradientTransform="matrix(1.0238095,0,0,1.0119048,-1.1428571,-98.071429)" />
    <linearGradient
       x1="45.447727"
       y1="92.539597"
       x2="45.447727"
       y2="7.0165396"
       id="linearGradient3150"
       gradientUnits="userSpaceOnUse"
       gradientTransform="matrix(1.0058652,0,0,0.994169,100,0)">
      <stop
         id="stop3152"
         style="stop-color:#000000;stop-opacity:1"
         offset="0" />
      <stop
         id="stop3154"
         style="stop-color:#000000;stop-opacity:0.58823532"
         offset="1" />
    </linearGradient>
    <linearGradient
       x1="32.251034"
       y1="6.1317081"
       x2="32.251034"
       y2="90.238609"
       id="linearGradient3725-5"
       xlink:href="#ButtonShadow-0-6"
       gradientUnits="userSpaceOnUse"
       gradientTransform="matrix(1.0238095,0,0,1.0119048,-1.1428571,-98.071429)" />
    <linearGradient
       x1="45.447727"
       y1="92.539597"
       x2="45.447727"
       y2="7.0165396"
       id="linearGradient3157"
       gradientUnits="userSpaceOnUse"
       gradientTransform="matrix(1.0058652,0,0,0.994169,100,0)">
      <stop
         id="stop3159"
         style="stop-color:#000000;stop-opacity:1"
         offset="0" />
      <stop
         id="stop3161"
         style="stop-color:#000000;stop-opacity:0.58823532"
         offset="1" />
    </linearGradient>
    <linearGradient
       x1="48"
       y1="90"
       x2="48"
       y2="5.9877172"
       id="linearGradient3885"
       xlink:href="#ButtonColor"
       gradientUnits="userSpaceOnUse" />
    <linearGradient
       x1="58.650177"
       y1="122"
       x2="58.650177"
       y2="5.4252338"
       id="ButtonColor"
       gradientUnits="userSpaceOnUse"
       gradientTransform="matrix(1.0172414,0,0,1.0172414,-1.1034483,-1.1034483)">
      <stop
         id="stop3189"
         style="stop-color:#141414;stop-opacity:1"
         offset="0" />
      <stop
         id="stop3191"
         style="stop-color:#464646;stop-opacity:1"
         offset="1" />
    </linearGradient>
    <linearGradient
       x1="32.251034"
       y1="6.1317081"
       x2="32.251034"
       y2="90.238609"
       id="linearGradient3719"
       xlink:href="#ButtonShadow-0-1"
       gradientUnits="userSpaceOnUse"
       gradientTransform="matrix(1.0238095,0,0,-1.0119048,-1.1428571,98.071429)" />
    <linearGradient
       x1="45.447727"
       y1="92.539597"
       x2="45.447727"
       y2="7.0165396"
       id="ButtonShadow-0-1"
       gradientUnits="userSpaceOnUse"
       gradientTransform="matrix(1.0058652,0,0,0.994169,100,0)">
      <stop
         id="stop3750-8-1"
         style="stop-color:#000000;stop-opacity:1"
         offset="0" />
      <stop
         id="stop3752-5-75"
         style="stop-color:#000000;stop-opacity:0.58823532"
         offset="1" />
    </linearGradient>
    <linearGradient
       x1="32.251034"
       y1="6.1317081"
       x2="32.251034"
       y2="90.238609"
       id="linearGradient3711"
       xlink:href="#ButtonShadow-0-1"
       gradientUnits="userSpaceOnUse"
       gradientTransform="matrix(1.0238095,0,0,-1.0119048,-1.1428571,98.071429)" />
    <linearGradient
       x1="45.447727"
       y1="92.539597"
       x2="45.447727"
       y2="7.0165396"
       id="linearGradient3071"
       gradientUnits="userSpaceOnUse"
       gradientTransform="matrix(1.0058652,0,0,0.994169,100,0)">
      <stop
         id="stop3073"
         style="stop-color:#000000;stop-opacity:1"
         offset="0" />
      <stop
         id="stop3075"
         style="stop-color:#000000;stop-opacity:0.58823532"
         offset="1" />
    </linearGradient>
    <linearGradient
       x1="32.251034"
       y1="6.1317081"
       x2="32.251034"
       y2="90.238609"
       id="linearGradient3702"
       xlink:href="#ButtonShadow-0-1"
       gradientUnits="userSpaceOnUse"
       gradientTransform="matrix(1.0238095,0,0,-1.0119048,-1.1428571,98.071429)" />
    <linearGradient
       x1="45.447727"
       y1="92.539597"
       x2="45.447727"
       y2="7.0165396"
       id="linearGradient3078"
       gradientUnits="userSpaceOnUse"
       gradientTransform="matrix(1.0058652,0,0,0.994169,100,0)">
      <stop
         id="stop3080"
         style="stop-color:#000000;stop-opacity:1"
         offset="0" />
      <stop
         id="stop3082"
         style="stop-color:#000000;stop-opacity:0.58823532"
         offset="1" />
    </linearGradient>
    <linearGradient
       x1="32.251034"
       y1="6.1317081"
       x2="32.251034"
       y2="90.238609"
       id="linearGradient3725-1"
       xlink:href="#ButtonShadow-0-1"
       gradientUnits="userSpaceOnUse"
       gradientTransform="matrix(1.0238095,0,0,-1.0119048,-1.1428571,98.071429)" />
    <linearGradient
       x1="45.447727"
       y1="92.539597"
       x2="45.447727"
       y2="7.0165396"
       id="linearGradient3085"
       gradientUnits="userSpaceOnUse"
       gradientTransform="matrix(1.0058652,0,0,0.994169,100,0)">
      <stop
         id="stop3087"
         style="stop-color:#000000;stop-opacity:1"
         offset="0" />
      <stop
         id="stop3089"
         style="stop-color:#000000;stop-opacity:0.58823532"
         offset="1" />
    </linearGradient>
    <linearGradient
       x1="32.251034"
       y1="6.1317081"
       x2="32.251034"
       y2="90.238609"
       id="linearGradient3721-2"
       xlink:href="#ButtonShadow-0-1"
       gradientUnits="userSpaceOnUse"
       gradientTransform="matrix(1,0,0,-1,0,97)" />
    <linearGradient
       x1="45.447727"
       y1="92.539597"
       x2="45.447727"
       y2="7.0165396"
       id="linearGradient3092"
       gradientUnits="userSpaceOnUse"
       gradientTransform="matrix(1.0058652,0,0,0.994169,100,0)">
      <stop
         id="stop3094"
         style="stop-color:#000000;stop-opacity:1"
         offset="0" />
      <stop
         id="stop3096"
         style="stop-color:#000000;stop-opacity:0.58823532"
         offset="1" />
    </linearGradient>
  </defs>
  <metadata
     id="metadata2413">
    <rdf:RDF>
      <cc:Work
         rdf:about="">
        <dc:format>image/svg+xml</dc:format>
        <dc:type
           rdf:resource="http://purl.org/dc/dcmitype/StillImage" />
        <dc:title />
      </cc:Work>
    </rdf:RDF>
  </metadata>
  <g
     id="layer2"
     style="display:none">
    <rect
       width="86"
       height="85"
       rx="6"
       ry="6"
       x="5"
       y="7"
       id="rect3745"
       style="opacity:0.9;fill:url(#ButtonShadow);fill-opacity:1;fill-rule:nonzero;stroke:none;filter:url(#filter3174)" />
  </g>
  <rect
     style="fill:#ededed;fill-opacity:1;fill-rule:nonzero;stroke:none;display:inline"
     id="rect2419"
     y="6"
     x="6"
     ry="0"
     rx="6"
     height="84"
     width="84" />
  <g
     id="layer3"
     style="display:none">
    <rect
       width="66"
       height="66"
       rx="12"
       ry="12"
       x="15"
       y="15"
       clip-path="url(#clipPath3613-0)"
       id="rect3171"
       style="opacity:0.5;fill:url(#linearGradient3121);fill-opacity:1;fill-rule:nonzero;stroke:#ffffff;stroke-width:0.5;stroke-linecap:round;stroke-linejoin:miter;stroke-miterlimit:4;stroke-opacity:1;stroke-dasharray:none;stroke-dashoffset:0;display:inline;filter:url(#filter3794)" />
  </g>
  <g
     transform="matrix(0.25611676,0,0,0.28964683,9.0629189,10.174652)"
     id="g4107"
     style="opacity:0.3;fill:#000000">
    <g
       transform="matrix(0.84804,0,0,0.84804,5.1164,20.417)"
       id="g4109"
       style="fill:#000000">
      <path
         d="m 293.08,134.99 c 0,32.82 -47.43,59.45 -105.88,59.45 -58.45,0 -105.88,-26.63 -105.88,-59.45 -0.004,-32.82 47.43,-59.451 105.88,-59.451 58.45,0 105.88,26.631 105.88,59.451 z"
         id="path4111"
         inkscape:connector-curvature="0"
         style="fill:#000000" />
      <g
         transform="matrix(0.29804,0,0,0.29804,21.297,35.348)"
         id="g4113"
         style="fill:#000000;fill-rule:evenodd">
        <path
           style="fill:#000000;stroke:#5f5f5f;stroke-width:1.45263231;stroke-miterlimit:4;stroke-opacity:1;stroke-dasharray:none"
           d="m 707.21,345.73 c -3.51,-7.31 35.82,-35.16 50.34,-26.12 l 25.17,15.67 -1.42,60.32 -35.15,25.65 L 707.21,407 v -61.27 z"
           id="path4115"
           inkscape:connector-curvature="0" />
        <path
           style="fill:#000000;fill-opacity:0.99215686"
           d="m 772.44,329.03 c -0.25,-0.36 2.44,53.71 -14.44,61.47 -18.26,8.4 -28.56,-4.38 -28.56,-4.38 l -8.72,21.5 c 1.07,2.11 2.2,3.93 3.34,5.54 l 22.1,8.09 35.15,-25.66 1.41,-60.31 -9.84,-6.12 -0.44,-0.13 z"
           id="path4117"
           inkscape:connector-curvature="0" />
        <path
           d="m 743.88,318.66 c -10.4,2.43 -22.62,9.81 -30.07,16.5 l 7.66,8.68 c 5.44,-8.79 12.61,-17.26 22.41,-25.18 z"
           id="path4119"
           inkscape:connector-curvature="0"
           style="fill:#000000" />
      </g>
      <path
         style="fill:#000000;fill-rule:evenodd;stroke:#5f5f5f;stroke-width:0.43294257;stroke-miterlimit:4;stroke-opacity:1;stroke-dasharray:none"
         d="m 218.44,146.32 c 0.57,-0.9 9.54,-18.38 20.77,-8.67 3.95,3.41 2.26,13.44 1.74,19.28 l -23.36,8.21 0.85,-18.82 z"
         id="path4121"
         inkscape:connector-curvature="0" />
      <path
         style="fill:#000000;fill-rule:evenodd;stroke:#5f5f5f;stroke-width:0.43294257;stroke-miterlimit:4;stroke-opacity:1;stroke-dasharray:none"
         d="m 220.03,138.79 c 4.1,2.12 2.79,11.23 2,19.67 l -27.43,-0.15 0.15,-11.26 c -0.59,-0.26 0.18,-6.01 4.46,-6.11 0,0 5.61,-0.4 8.81,-1.5 2.43,-0.84 12.01,-0.65 12.01,-0.65 z"
         id="path4123"
         inkscape:connector-curvature="0" />
      <path
         style="fill:#000000;fill-opacity:0.99215686;fill-rule:evenodd;stroke:#5f5f5f;stroke-width:0.43294257;stroke-miterlimit:4;stroke-opacity:1;stroke-dasharray:none"
         d="m 130.86,145.56 c 3.99,-2.27 8.3,-4.1 14.01,-4 5.14,0.59 12.6,0.62 15.42,1.8 4.84,2.04 3.91,7.45 3.95,7.51 l -33.38,-5.31 z"
         id="path4125"
         inkscape:connector-curvature="0" />
      <path
         style="fill:#000000;fill-opacity:0.99215686;fill-rule:evenodd"
         d="m 194.76,147.18 -0.15,11.13 4.89,0.03 c 0.34,-0.85 0.52,-1.91 0.44,-3.25 -0.3,-5.21 -2.86,-7.19 -5.18,-7.91 z"
         id="path4127"
         inkscape:connector-curvature="0" />
      <path
         style="fill:#000000;fill-rule:evenodd;stroke:#5f5f5f;stroke-width:0.43294257;stroke-miterlimit:4;stroke-opacity:1;stroke-dasharray:none"
         d="m 161.79,153.41 c 1.65,-4.11 -0.17,-10.65 6.06,-11.41 9.85,-1.2 25.29,0.29 26.42,1.15 0.81,0.63 1.45,9.51 0.2,13.87 -11.99,1.67 -22.05,-1.7 -32.68,-3.61 z"
         id="path4129"
         inkscape:connector-curvature="0" />
      <g
         transform="matrix(0.29804,0,0,0.29804,21.297,35.348)"
         id="g4131"
         style="fill:#000000;fill-rule:evenodd">
        <path
           sodipodi:nodetypes="cccccc"
           d="m 303.75,287.69 55.24,19.14 c 13.6109,2.82494 21.94047,6.31808 37.57086,-0.7065 30.33557,-4.79376 44.46086,-20.78145 46.43086,-25.94145 -9.15082,-13.11471 15.06214,-17.6553 13.48824,-32.73387 C 392.68996,230.74818 342.6,262 303.75,287.69 z"
           id="path4133"
           inkscape:connector-curvature="0"
           style="fill:#000000;fill-opacity:1;stroke:none" />
        <path
           sodipodi:nodetypes="ccccccccc"
           style="fill:#000000;stroke:none"
           d="m 403.72,251.25 c -40.34,0.23 -70.83,17.17 -99.97,36.44 L 359,306.84 c 20.13,6.98 29.59,-4.41 35.25,-11.78 1.68,2.5 3.5,4.39 5.41,5.72 3.73,-7.14 8.63,-14.84 14.96,-18.69 7.73,-4.69 20.02,-10.12 29.04,-13.9 2.12,-5.87 10.92257,-12.51169 10.90257,-12.45169 C 438.61257,251.56831 417.16,251.17 403.72,251.25 z"
           id="path4135"
           inkscape:connector-curvature="0" />
        <path
           d="m 403.72,251.25 c -40.34,0.23 -70.83,17.17 -99.97,36.44 l 47.97,16.62 61.03,-43.12 -0.63,-9.72 c -2.84,-0.15 -5.65,-0.24 -8.4,-0.22 z"
           id="path4137"
           inkscape:connector-curvature="0"
           style="fill:#000000" />
      </g>
      <g
         transform="matrix(0.29804,0,0,0.29804,21.297,35.348)"
         id="g4139"
         style="fill:#000000;fill-rule:evenodd">
        <path
           d="m 735.1,288.02 c 10.02,9.84 19.57,8.93 28.97,4.28 3.56,3.6 9.43,4.45 16.15,4.27 11.49,-11.61 15.81,-34.14 14.01,-66.01 l -25.18,-19.24 -25.41,2.85 -8.54,73.85 z"
           id="path4141"
           inkscape:connector-curvature="0"
           style="fill:#000000;stroke:#5f5f5f;stroke-width:1.45263231;stroke-miterlimit:4;stroke-opacity:1;stroke-dasharray:none" />
        <path
           d="m 769.06,211.31 -25.4,2.85 -1.88,16.25 c 16.94,7.35 33.66,16.29 46.53,53.68 5.38,-12.66 7.2,-30.7 5.91,-53.53 l -25.16,-19.25 z"
           id="path4143"
           inkscape:connector-curvature="0"
           style="fill:#000000" />
        <path
           d="m 779.41,219.22 c 5.14,19.42 10.14,38.8 11.56,57.16 3.3,-11.91 4.3,-27.28 3.25,-45.82 l -14.81,-11.34 z"
           id="path4145"
           inkscape:connector-curvature="0"
           style="fill:#000000" />
      </g>
      <path
         d="m 249.11,122.2 c 4.6,-7.62 5.34,-15.44 4.91,-23.322"
         id="path4147"
         inkscape:connector-curvature="0"
         style="fill:#000000;fill-opacity:1;stroke:none" />
      <g
         transform="matrix(0.29804,0,0,0.29804,21.297,35.348)"
         id="g4149"
         style="fill:#000000;fill-rule:evenodd">
        <path
           style="fill:#000000;stroke:#5f5f5f;stroke-width:1.45263231;stroke-miterlimit:4;stroke-opacity:1;stroke-dasharray:none"
           d="m 624.81,211.45 -16.45,63.47 c 22.48,19.8 42.54,42.03 68.51,29.56 14.73,-4.14 27.52,-9.57 57.76,-3.36 8.07,-0.37 14.98,-12.96 17.8,-28.21 4.09,-22.09 4.31,-45.19 1.01,-64.15 l -128.63,2.69 z"
           id="path4151"
           inkscape:connector-curvature="0" />
        <path
           d="m 753.44,208.75 -128.63,2.69 -13.22,51 c 3.27,-1.06 5.5,-13.88 61.9,-29.28 69.57,-19 77.31,7.86 81.95,14.09 0.71,-13.59 0.02,-26.84 -2,-38.5 z"
           id="path4153"
           inkscape:connector-curvature="0"
           style="fill:#000000" />
      </g>
      <path
         d="m 265.81,47.328 c -0.45,10e-4 -0.9,-0.001 -1.36,0.01 -10.39,0.232 -15.83,4.15 -20.01,8.009 -5.11,4.711 -12.61,3.194 -22.43,-2.598 -32.97,-6.559 -67.32,6.186 -97.49,27.224 -26.368,18.386 -49.484,38.067 -69.264,48.247 -10.556,5.43 -18.994,7.52 -19.019,12.41 -6.028,6.82 -3.164,10.07 -2.924,10.33 5.663,6.07 55.461,27.21 81.527,45.86 22.91,16.39 51.94,29.39 70.5,30.29 18.27,0.89 64.77,7.15 93.71,-15 21.62,-15.16 42.58,-62.93 10.47,-86.92 21.98,-6.84 30.09,-25.253 25.77,-42.414 C 311.05,65.884 294.23,47.281 265.81,47.328 z M 249.22,100.5 c 4.27,3.65 8.78,4.26 13.31,4.5 2.71,6.15 4.77,11.45 4.71,16.72 -0.06,6.43 -4.73,6.78 -7.16,7.19 9.25,3.15 -1.02,-2.72 -7.2,8.17 0.61,9.93 -0.72,17.78 -7.29,19.45 -4.8,1.22 -14.69,1.57 -21.89,0.63 -8.57,-0.92 -16.95,-2.41 -27.02,-1.01 -10.19,1.42 -20.56,2.08 -32.54,-5.61 -8.63,-5.54 -21.38,-3.83 -30.58,-4.26 -5.34,-2.22 -10.69,-1.77 -14.24,-1.99 -3.72,-1.73 -7.43,-4.32 -14.85,-5.52 -4.3,-2.02 -8.716,-3.98 -13.757,-5.63 -0.19,-0.44 -0.661,-0.92 1.462,-1.11 5.446,-0.26 8.855,-3.94 8.815,-3.91 12.97,-2.61 23.02,-8.49 33.73,-13.61 9.9,0.47 20.21,0.7 47.34,-9.01 6.19,1.49 11.61,-0.63 17.02,-2.8 4.6,1.94 11.02,0.83 18.01,-1.2 4.84,1.03 9.64,1.61 14.21,0 11.6,1.75 17.92,-1.04 17.92,-1 z"
         id="path4155"
         inkscape:connector-curvature="0"
         style="fill:#000000;fill-rule:evenodd" />
      <path
         d="m 103.43,138.92 c -0.93,-1.55 7.13,-6.35 12.81,-0.57 2.55,1.2 3.3,1.17 8.1,3.91 2.82,0.4 3.79,1.98 5.25,3.25 l -9.66,3.3 -16.5,-9.89 z"
         id="path4157"
         inkscape:connector-curvature="0"
         style="fill:#000000;fill-rule:evenodd;stroke:#000000;stroke-width:1.64139247" />
      <path
         d="m 64.486,122.97 c -3.152,1.95 -6.231,3.71 -9.23,5.25 -10.555,5.43 -18.994,7.51 -19.019,12.41 -1.301,1.47 -2.187,2.78 -2.775,3.92 l 3.511,1.76 c 10.477,-8.26 15.934,-3.97 22.93,-3.53 4.423,-4.65 7.671,-9.82 20.807,-10.47 -4.03,-4.99 -9.577,-7.92 -16.224,-9.34 z"
         id="path4159"
         inkscape:connector-curvature="0"
         style="fill:#000000;fill-rule:evenodd" />
      <g
         transform="matrix(0.29804,0,0,0.29804,21.297,35.348)"
         id="g4161"
         style="fill:#000000;fill-rule:evenodd">
        <path
           sodipodi:nodetypes="ccccccc"
           style="fill:#000000;stroke:#5f5f5f;stroke-width:1.45263231;stroke-miterlimit:4;stroke-opacity:1;stroke-dasharray:none"
           d="m 419.25,242.67 c 29.40043,67.51931 42.31399,66.26312 85.49,72.66 38.58,6.92 45.26086,4.72675 57.40086,0.78675 C 614.34219,309.33662 609.77,296.53 617.31,284.94 c 1.54,-18.88 1.77,-39.55 -0.48,-62.22 L 495.72,208.94 z"
           id="path4163"
           inkscape:connector-curvature="0" />
        <path
           sodipodi:nodetypes="cccccccc"
           d="m 495.72,208.94 -84.13953,37.86506 c 10.79,11.93 17.62176,25.03832 28.69176,37.98832 9.11,-18.27 33.03777,-45.44338 79.78777,-38.32338 28.82,4.39 69.27,-4.66 96.91,-6.66 l 1.12,0.31 c -0.27,-5.67 -0.66,-11.46 -1.25,-17.4 z"
           id="path4165"
           inkscape:connector-curvature="0"
           style="fill:#000000" />
      </g>
      <path
         d="m 92.536,136.18 c 4.158,-2 8.244,-4.14 12.014,-9.81 -6.931,0.36 -22.073,1.31 -12.014,9.81 z"
         id="path4167"
         inkscape:connector-curvature="0"
         style="fill:#000000;fill-rule:evenodd;stroke:#000000;stroke-width:1.09426165px;stroke-linecap:round;stroke-linejoin:round" />
      <path
         style="fill:#000000;fill-opacity:0.99215686;fill-rule:evenodd"
         d="m 193,68.079 c -13.13,0.139 -29.77,2.432 -50.55,8.969 l -34.39,14.8 C 88.423,106.35 70.805,120.22 55.256,128.22 c -10.555,5.43 -18.994,7.51 -19.019,12.41 -6.028,6.82 -3.164,10.07 -2.924,10.33 3.902,4.18 28.761,15.52 52.371,28.27 31.346,2.18 59.386,8.99 84.396,22.33 l 50.61,26.99 c 19.48,-0.39 41.79,-3.76 58.36,-16.44 21.62,-15.16 42.58,-62.93 10.47,-86.92 15.13,-4.71 23.69,-14.89 26.15,-26.376 -12.76,-19.383 -22.34,-28.196 -29.88,-30.176 -12.96,-2.69 -22.59,6.787 -28.83,8.01 -6.49,1.273 -12.45,3.435 -22.01,-0.401 -2.89,0.28 -15.07,-8.452 -41.95,-8.168 z m 56.22,32.421 c 4.27,3.65 8.78,4.26 13.31,4.5 2.71,6.14 4.77,11.45 4.72,16.72 -0.07,6.43 -4.74,6.78 -7.17,7.19 0.05,6.77 -0.71,2.96 -7.2,8.17 0.61,9.93 -0.72,17.78 -7.29,19.45 -4.8,1.22 -14.69,1.57 -21.89,0.63 -8.57,-0.92 -16.95,-2.41 -27.02,-1.01 -10.19,1.42 -20.56,2.08 -32.54,-5.61 -8.63,-5.54 -21.38,-3.83 -30.58,-4.26 -5.34,-2.22 -10.69,-1.77 -14.24,-1.99 -3.72,-1.73 -7.43,-4.32 -14.85,-5.52 -4.3,-2.02 -8.716,-3.98 -13.757,-5.63 -0.19,-0.44 -0.661,-0.92 1.462,-1.11 5.446,-0.26 8.855,-3.94 8.815,-3.91 12.97,-2.61 23.02,-8.49 33.73,-13.61 9.9,0.47 20.21,0.7 47.34,-9.01 6.19,1.49 11.61,-0.63 17.02,-2.8 4.6,1.94 11.02,0.83 18.01,-1.2 4.84,1.03 9.64,1.61 14.21,0 11.6,1.75 17.92,-1.04 17.92,-1 z"
         id="path4169"
         inkscape:connector-curvature="0" />
      <path
         d="m 288.55,132.29 c -3.46,-0.02 -5.35,3.81 -10.37,8.82 -12.55,12.51 -22.75,14.17 -28.82,13.3 -1,1 -2.24,1.73 -3.77,2.12 -4.8,1.22 -14.69,1.57 -21.89,0.63 -8.57,-0.92 -16.95,-2.41 -27.02,-1.01 -10.19,1.42 -20.56,2.08 -32.54,-5.61 -8.63,-5.54 -21.38,-3.83 -30.58,-4.26 -5.34,-2.22 -10.69,-1.77 -14.24,-1.99 -3.72,-1.73 -7.43,-4.32 -14.85,-5.52 -2.62,-1.23 -5.286,-2.44 -8.113,-3.57 -12.295,4.44 -17.732,16.97 -8.755,21.53 26.958,13.69 53.918,27.16 80.878,35.62 70.1,29.89 82.42,18.46 98.9,10.41 13.15,-6.42 25.28,-16.23 36.57,-28.84 2.57,-9.7 2.97,-19.86 -0.06,-29.11 -5.12,-6.91 -10.23,-12.49 -15.34,-12.52 z"
         id="path4171"
         inkscape:connector-curvature="0"
         style="fill:#000000;fill-rule:evenodd" />
      <path
         d="m 252.36,147.11 c 6.6,-1.21 14.54,3.61 21.62,-9.21 6.68,-12.09 18.75,-10.38 18.72,-10.41 l -3.41,-2.5 c -18.26,-8.26 -27.84,9.13 -36.93,22.12 z"
         id="path4173"
         inkscape:connector-curvature="0"
         style="fill:#000000;fill-rule:evenodd" />
      <path
         d="m 256.56,128.2 -4.67,4.81 c -0.33,0.23 1.35,11.45 0.42,14.44 -0.73,2.38 -4.67,8.07 -4.67,8.07 6.08,-2.15 11.71,-6.8 16.28,-11.04 -1.04,-11.37 5.27,-17.46 13.59,-22.09 -5.6,-5.84 -8.51,-12.09 -9.2,-18.68 -3.97,-0.76 -7.53,-1.11 -9.63,0 l -2.12,24.49 z"
         id="path4175"
         inkscape:connector-curvature="0"
         style="fill:#000000;fill-rule:evenodd" />
      <path
         style="fill:#000000;fill-opacity:0.99215686;fill-rule:evenodd"
         d="m 251.89,123.67 c 0.51,0 0.86,1.98 2.55,3.25 5.07,3.83 10.61,0.85 11.6,-3.11 1,-3.96 -0.7,-20.38 -2.69,-20.81 -1.98,-0.42 -5.23,1.42 -5.23,1.42 -1.06,7.27 0.52,16.43 -6.23,19.25 z"
         id="path4177"
         inkscape:connector-curvature="0" />
      <path
         d="m 43.718,151.33 c 0,0 47.645,-0.8 51.648,8.41 4.004,9.2 2.378,15.74 -3.603,16.41 -7.997,0.9 -54.536,-22.5 -48.045,-24.82 z"
         id="path4179"
         inkscape:connector-curvature="0"
         style="fill:#000000;fill-rule:evenodd" />
      <path
         d="m 169.03,145.09 c -4.15,-2.63 21.69,-1.74 22.46,-0.25 0,0 0.48,3.62 -1.78,3.94 -1.48,0.21 -3.57,-1.91 -3.57,-1.91 -3.96,-2.12 -14.47,-0.11 -17.11,-1.78 z"
         id="path4181"
         inkscape:connector-curvature="0"
         style="fill:#000000;fill-rule:evenodd" />
      <path
         d="m 203.75,154.4 c -0.97,2.59 -1.54,-12.73 -0.93,-13.27 0,0 1.52,-0.46 1.74,0.86 0.15,0.86 -0.68,2.2 -0.68,2.2 -0.76,2.45 0.49,8.57 -0.13,10.21 z"
         id="path4183"
         inkscape:connector-curvature="0"
         style="fill:#000000;fill-rule:evenodd" />
      <path
         style="fill:#000000;fill-rule:evenodd"
         d="m 235.19,139.1 c 0,0 1.84,15.28 3.68,14.01 1.84,-1.27 2.97,-9.06 1.98,-11.18 -0.99,-2.13 -4.39,-7.08 -5.66,-2.83 z"
         id="path4185"
         inkscape:connector-curvature="0" />
      <path
         d="m 244.68,139.03 c 0.1,2.07 -0.35,3.75 -1.02,3.75 -0.67,0 -1.3,-1.68 -1.4,-3.75 -0.11,-2.07 0.34,-3.75 1.01,-3.75 0.67,0 1.3,1.68 1.41,3.75 z"
         id="path4187"
         inkscape:connector-curvature="0"
         style="fill:#000000" />
      <path
         style="fill:#000000;fill-opacity:0.99215686;fill-rule:evenodd"
         d="m 80.5,131.94 c -5.568,-1.01 -19.625,1.36 -33.805,5.84 l 0.028,0.08 c 18.896,-5.96 33.671,-5.16 45.846,-4.03 0.463,-2.06 -6.5,-0.89 -12.069,-1.89 z"
         id="path4189"
         inkscape:connector-curvature="0" />
      <path
         d="m 274.8,139.01 c -7.93,3.4 -14.87,8.28 -26.51,17.28 l -0.74,-0.64 c 11.64,-9 18.7,-13.92 27.29,-16.46 l -0.04,-0.18 z"
         id="path4191"
         inkscape:connector-curvature="0"
         style="fill:#000000;fill-rule:evenodd" />
      <path
         d="m 284.04,91.311 c -3.92,2.557 -7.19,5.526 -11.31,7.905 -4.12,2.374 -9.08,4.174 -16.42,4.374 l 0.18,0.74 c 7.39,-0.2 12.27,-2.26 16.43,-4.661 l 11.12,-8.358 z"
         id="path4193"
         inkscape:connector-curvature="0"
         style="fill:#000000;fill-rule:evenodd" />
      <path
         d="m 256.64,161.46 -0.25,0.16 c 13.71,13.45 10.3,20.79 10.99,29.17 l 0.29,-0.05 c -1.71,-8.16 -1.69,-15 -11.03,-29.28 z"
         id="path4195"
         inkscape:connector-curvature="0"
         style="fill:#000000;fill-rule:evenodd" />
      <path
         d="m 233.92,162.52 -0.15,0.08 c 4.76,16.94 1.89,22.92 0.92,31.12 l 0.15,0.04 c 0.43,-8.3 1.52,-14.82 -0.92,-31.24 z"
         id="path4197"
         inkscape:connector-curvature="0"
         style="fill:#000000;fill-rule:evenodd" />
      <path
         d="m 245.46,163.46 -0.11,0.11 c 6.67,15.67 5.31,22.1 5.86,30.33 h 0.13 c -1.01,-8.22 -1.2,-14.82 -5.88,-30.44 z"
         id="path4199"
         inkscape:connector-curvature="0"
         style="fill:#000000;fill-rule:evenodd" />
      <path
         d="m 272.53,156.3 -0.16,0.15 c 11.1,8.24 9.54,14.03 10.98,20.09 l 0.19,-0.08 c -2.11,-5.78 -2.87,-10.79 -11.01,-20.16 z"
         id="path4201"
         inkscape:connector-curvature="0"
         style="fill:#000000;fill-rule:evenodd" />
      <path
         d="m 291.74,136.28 -0.15,0.15 c 11.1,8.24 9.54,14.03 10.98,20.09 l 0.19,-0.07 c -2.12,-5.79 -2.88,-10.8 -11.02,-20.17 z"
         id="path4203"
         inkscape:connector-curvature="0"
         style="fill:#000000;fill-rule:evenodd" />
      <path
         d="m 118.43,144.29 0.16,0.15 c -11.11,8.24 -9.55,14.03 -10.98,20.09 l -0.2,-0.08 c 2.12,-5.78 2.88,-10.8 11.02,-20.16 z"
         id="path4205"
         inkscape:connector-curvature="0"
         style="fill:#000000;fill-rule:evenodd" />
      <path
         d="m 140.03,145.89 0.18,0.19 c -12.9,10.44 -11.08,17.77 -12.75,25.45 l -0.23,-0.09 c 2.46,-7.33 3.34,-13.68 12.8,-25.55 z"
         id="path4207"
         inkscape:connector-curvature="0"
         style="fill:#000000;fill-rule:evenodd" />
      <path
         d="m 254.84,100.91 -0.25,-0.17 c 14.94,-7.949 10.54,-24.66 10.99,-29.169 l 0.29,0.055 c -1.56,8.125 0.06,14.562 -11.03,29.284 z"
         id="path4209"
         inkscape:connector-curvature="0"
         style="fill:#000000;fill-rule:evenodd" />
      <path
         d="m 185.38,104.71 -0.25,-0.17 c 13.71,-13.443 10.29,-20.786 10.99,-29.166 l 0.29,0.056 c -1.72,8.161 -1.7,14.999 -11.03,29.28 z"
         id="path4211"
         inkscape:connector-curvature="0"
         style="fill:#000000;fill-rule:evenodd" />
      <path
         d="m 195.39,102.91 -0.25,-0.17 c 13.71,-13.444 10.29,-20.788 10.99,-29.168 l 0.28,0.056 c -1.71,8.162 -1.69,14.999 -11.02,29.282 z"
         id="path4213"
         inkscape:connector-curvature="0"
         style="fill:#000000;fill-rule:evenodd" />
      <path
         d="m 130.49,114.92 0.25,-0.17 C 117.03,101.31 120.45,93.964 119.75,85.584 l -0.29,0.056 c 1.72,8.161 1.7,15 11.03,29.28 z"
         id="path4215"
         inkscape:connector-curvature="0"
         style="fill:#000000;fill-rule:evenodd" />
      <path
         d="m 217.68,119.65 c 0,3.52 1.36,5.38 -1.59,5.38 -2.94,0 -8.2,-3.53 -8.2,-7.06 0,-3.52 0.37,-8.06 3.31,-8.06 2.94,0 6.48,6.22 6.48,9.74 z"
         id="path4217"
         inkscape:connector-curvature="0"
         style="fill:#000000" />
      <path
         d="m 173.35,121.91 c 0.82,3.42 1.7,5.12 0.74,5.35 -0.96,0.23 -3.5,-2.79 -4.32,-6.22 -0.83,-3.42 -1.77,-7.86 -0.81,-8.1 0.96,-0.23 3.57,5.54 4.39,8.97 z"
         id="path4219"
         inkscape:connector-curvature="0"
         style="fill:#000000" />
      <path
         d="m 248.79,118.93 c -1.24,0.89 -1.55,1.84 -2.3,0.8 -0.74,-1.04 -0.82,-3.8 0.43,-4.69 1.24,-0.89 2.94,-1.9 3.69,-0.86 0.74,1.04 -0.57,3.86 -1.82,4.75 z"
         id="path4221"
         inkscape:connector-curvature="0"
         style="fill:#000000" />
      <path
         d="m 276.78,122.56 v 0.1 c 6.57,0.18 10.04,1.07 13.03,2.55 -0.93,-2.44 -8.48,-3.12 -13.03,-2.65 z"
         id="path4223"
         inkscape:connector-curvature="0"
         style="fill:#000000;fill-rule:evenodd" />
    </g>
  </g>
  <g
     style="opacity:0.98999999"
     id="layer4"
     transform="matrix(0.25489387,0,0,0.2777378,8.9064627,10.895778)">
    <g
       id="g2525"
       transform="matrix(0.84804,0,0,0.84804,5.1164,20.417)">
      <path
         inkscape:connector-curvature="0"
         id="path3329"
         d="m 293.08,134.99 c 0,32.82 -47.43,59.45 -105.88,59.45 -58.45,0 -105.88,-26.63 -105.88,-59.45 -0.004,-32.82 47.43,-59.451 105.88,-59.451 58.45,0 105.88,26.631 105.88,59.451 z" />
      <g
         style="fill-rule:evenodd"
         id="g3238"
         transform="matrix(0.29804,0,0,0.29804,21.297,35.348)">
        <path
           inkscape:connector-curvature="0"
           id="path3218"
           d="m 707.21,345.73 c -3.51,-7.31 35.82,-35.16 50.34,-26.12 l 25.17,15.67 -1.42,60.32 -35.15,25.65 L 707.21,407 v -61.27 z"
           style="fill:#f9f9f9;stroke:#5f5f5f;stroke-width:1.48700321;stroke-miterlimit:4;stroke-opacity:1;stroke-dasharray:none" />
        <path
           inkscape:connector-curvature="0"
           id="path3222"
           d="m 772.44,329.03 c -0.25,-0.36 2.44,53.71 -14.44,61.47 -18.26,8.4 -28.56,-4.38 -28.56,-4.38 l -8.72,21.5 c 1.07,2.11 2.2,3.93 3.34,5.54 l 22.1,8.09 35.15,-25.66 1.41,-60.31 -9.84,-6.12 -0.44,-0.13 z"
           style="fill:#ececec;fill-opacity:0.99215686" />
        <path
           style="fill:#666666"
           inkscape:connector-curvature="0"
           id="path3247"
           d="m 743.88,318.66 c -10.4,2.43 -22.62,9.81 -30.07,16.5 l 7.66,8.68 c 5.44,-8.79 12.61,-17.26 22.41,-25.18 z" />
      </g>
      <path
         inkscape:connector-curvature="0"
         id="path3406"
         d="m 218.44,146.32 c 0.57,-0.9 9.54,-18.38 20.77,-8.67 3.95,3.41 2.26,13.44 1.74,19.28 l -23.36,8.21 0.85,-18.82 z"
         style="fill:#f9f9f9;fill-rule:evenodd;stroke:#5f5f5f;stroke-width:0.44318646;stroke-miterlimit:4;stroke-opacity:1;stroke-dasharray:none" />
      <path
         inkscape:connector-curvature="0"
         id="path3404"
         d="m 220.03,138.79 c 4.1,2.12 2.79,11.23 2,19.67 l -27.43,-0.15 0.15,-11.26 c -0.59,-0.26 0.18,-6.01 4.46,-6.11 0,0 5.61,-0.4 8.81,-1.5 2.43,-0.84 12.01,-0.65 12.01,-0.65 z"
         style="fill:#f9f9f9;fill-rule:evenodd;stroke:#5f5f5f;stroke-width:0.44318646;stroke-miterlimit:4;stroke-opacity:1;stroke-dasharray:none" />
      <path
         inkscape:connector-curvature="0"
         id="path3400"
         d="m 130.86,145.56 c 3.99,-2.27 8.3,-4.1 14.01,-4 5.14,0.59 12.6,0.62 15.42,1.8 4.84,2.04 3.91,7.45 3.95,7.51 l -33.38,-5.31 z"
         style="fill:#ececec;fill-opacity:0.99215686;fill-rule:evenodd;stroke:#5f5f5f;stroke-width:0.44318646;stroke-miterlimit:4;stroke-opacity:1;stroke-dasharray:none" />
      <path
         inkscape:connector-curvature="0"
         id="path3229"
         d="m 194.76,147.18 -0.15,11.13 4.89,0.03 c 0.34,-0.85 0.52,-1.91 0.44,-3.25 -0.3,-5.21 -2.86,-7.19 -5.18,-7.91 z"
         style="fill:#ececec;fill-opacity:0.99215686;fill-rule:evenodd" />
      <path
         inkscape:connector-curvature="0"
         id="path3402"
         d="m 161.79,153.41 c 1.65,-4.11 -0.17,-10.65 6.06,-11.41 9.85,-1.2 25.29,0.29 26.42,1.15 0.81,0.63 1.45,9.51 0.2,13.87 -11.99,1.67 -22.05,-1.7 -32.68,-3.61 z"
         style="fill:#f9f9f9;fill-rule:evenodd;stroke:#5f5f5f;stroke-width:0.44318646;stroke-miterlimit:4;stroke-opacity:1;stroke-dasharray:none" />
      <g
         style="fill-rule:evenodd"
         id="g3587"
         transform="matrix(0.29804,0,0,0.29804,21.297,35.348)">
        <path
           style="fill:#f9f9f9;fill-opacity:1;stroke:none"
           inkscape:connector-curvature="0"
           id="path3386"
           d="m 303.75,287.69 55.24,19.14 c 13.6109,2.82494 21.94047,6.31808 37.57086,-0.7065 30.33557,-4.79376 44.46086,-20.78145 46.43086,-25.94145 -9.15082,-13.11471 15.06214,-17.6553 13.48824,-32.73387 C 392.68996,230.74818 342.6,262 303.75,287.69 z"
           sodipodi:nodetypes="cccccc" />
        <path
           inkscape:connector-curvature="0"
           id="path3575"
           d="m 403.72,251.25 c -40.34,0.23 -70.83,17.17 -99.97,36.44 L 359,306.84 c 20.13,6.98 29.59,-4.41 35.25,-11.78 1.68,2.5 3.5,4.39 5.41,5.72 3.73,-7.14 8.63,-14.84 14.96,-18.69 7.73,-4.69 20.02,-10.12 29.04,-13.9 2.12,-5.87 10.92257,-12.51169 10.90257,-12.45169 C 438.61257,251.56831 417.16,251.17 403.72,251.25 z"
           style="fill:#f9f9f9;stroke:none"
           sodipodi:nodetypes="ccccccccc" />
        <path
           style="fill:#999999"
           inkscape:connector-curvature="0"
           id="path3582"
           d="m 403.72,251.25 c -40.34,0.23 -70.83,17.17 -99.97,36.44 l 47.97,16.62 61.03,-43.12 -0.63,-9.72 c -2.84,-0.15 -5.65,-0.24 -8.4,-0.22 z" />
      </g>
      <g
         style="fill-rule:evenodd"
         id="g3624"
         transform="matrix(0.29804,0,0,0.29804,21.297,35.348)">
        <path
           style="fill:#f2f2f2;stroke:#5f5f5f;stroke-width:1.48700321;stroke-miterlimit:4;stroke-opacity:1;stroke-dasharray:none"
           inkscape:connector-curvature="0"
           id="path3396"
           d="m 735.1,288.02 c 10.02,9.84 19.57,8.93 28.97,4.28 3.56,3.6 9.43,4.45 16.15,4.27 11.49,-11.61 15.81,-34.14 14.01,-66.01 l -25.18,-19.24 -25.41,2.85 -8.54,73.85 z" />
        <path
           style="fill:#999999"
           inkscape:connector-curvature="0"
           id="path3612"
           d="m 769.06,211.31 -25.4,2.85 -1.88,16.25 c 16.94,7.35 33.66,16.29 46.53,53.68 5.38,-12.66 7.2,-30.7 5.91,-53.53 l -25.16,-19.25 z" />
        <path
           style="fill:#666666"
           inkscape:connector-curvature="0"
           id="path3619"
           d="m 779.41,219.22 c 5.14,19.42 10.14,38.8 11.56,57.16 3.3,-11.91 4.3,-27.28 3.25,-45.82 l -14.81,-11.34 z" />
      </g>
      <path
         style="fill:#9a9a9a;fill-opacity:1;stroke:none"
         inkscape:connector-curvature="0"
         id="path3196"
         d="m 249.11,122.2 c 4.6,-7.62 5.34,-15.44 4.91,-23.322" />
      <g
         style="fill-rule:evenodd"
         id="g3192"
         transform="matrix(0.29804,0,0,0.29804,21.297,35.348)">
        <path
           inkscape:connector-curvature="0"
           id="path3394"
           d="m 624.81,211.45 -16.45,63.47 c 22.48,19.8 42.54,42.03 68.51,29.56 14.73,-4.14 27.52,-9.57 57.76,-3.36 8.07,-0.37 14.98,-12.96 17.8,-28.21 4.09,-22.09 4.31,-45.19 1.01,-64.15 l -128.63,2.69 z"
           style="fill:#f9f9f9;stroke:#5f5f5f;stroke-width:1.48700321;stroke-miterlimit:4;stroke-opacity:1;stroke-dasharray:none" />
        <path
           style="fill:#999999"
           inkscape:connector-curvature="0"
           id="path3567"
           d="m 753.44,208.75 -128.63,2.69 -13.22,51 c 3.27,-1.06 5.5,-13.88 61.9,-29.28 69.57,-19 77.31,7.86 81.95,14.09 0.71,-13.59 0.02,-26.84 -2,-38.5 z" />
      </g>
      <path
         style="fill:#cb0423;fill-rule:evenodd"
         inkscape:connector-curvature="0"
         id="path3388"
         d="m 265.81,47.328 c -0.45,10e-4 -0.9,-0.001 -1.36,0.01 -10.39,0.232 -15.83,4.15 -20.01,8.009 -5.11,4.711 -12.61,3.194 -22.43,-2.598 -32.97,-6.559 -67.32,6.186 -97.49,27.224 -26.368,18.386 -49.484,38.067 -69.264,48.247 -10.556,5.43 -18.994,7.52 -19.019,12.41 -6.028,6.82 -3.164,10.07 -2.924,10.33 5.663,6.07 55.461,27.21 81.527,45.86 22.91,16.39 51.94,29.39 70.5,30.29 18.27,0.89 64.77,7.15 93.71,-15 21.62,-15.16 42.58,-62.93 10.47,-86.92 21.98,-6.84 30.09,-25.253 25.77,-42.414 C 311.05,65.884 294.23,47.281 265.81,47.328 z M 249.22,100.5 c 4.27,3.65 8.78,4.26 13.31,4.5 2.71,6.15 4.77,11.45 4.71,16.72 -0.06,6.43 -4.73,6.78 -7.16,7.19 9.25,3.15 -1.02,-2.72 -7.2,8.17 0.61,9.93 -0.72,17.78 -7.29,19.45 -4.8,1.22 -14.69,1.57 -21.89,0.63 -8.57,-0.92 -16.95,-2.41 -27.02,-1.01 -10.19,1.42 -20.56,2.08 -32.54,-5.61 -8.63,-5.54 -21.38,-3.83 -30.58,-4.26 -5.34,-2.22 -10.69,-1.77 -14.24,-1.99 -3.72,-1.73 -7.43,-4.32 -14.85,-5.52 -4.3,-2.02 -8.716,-3.98 -13.757,-5.63 -0.19,-0.44 -0.661,-0.92 1.462,-1.11 5.446,-0.26 8.855,-3.94 8.815,-3.91 12.97,-2.61 23.02,-8.49 33.73,-13.61 9.9,0.47 20.21,0.7 47.34,-9.01 6.19,1.49 11.61,-0.63 17.02,-2.8 4.6,1.94 11.02,0.83 18.01,-1.2 4.84,1.03 9.64,1.61 14.21,0 11.6,1.75 17.92,-1.04 17.92,-1 z" />
      <path
         style="fill:#b3b3b3;fill-rule:evenodd;stroke:#000000;stroke-width:1.68022978"
         inkscape:connector-curvature="0"
         id="path3398"
         d="m 103.43,138.92 c -0.93,-1.55 7.13,-6.35 12.81,-0.57 2.55,1.2 3.3,1.17 8.1,3.91 2.82,0.4 3.79,1.98 5.25,3.25 l -9.66,3.3 -16.5,-9.89 z" />
      <path
         style="fill:#591311;fill-rule:evenodd"
         inkscape:connector-curvature="0"
         id="path3444"
         d="m 64.486,122.97 c -3.152,1.95 -6.231,3.71 -9.23,5.25 -10.555,5.43 -18.994,7.51 -19.019,12.41 -1.301,1.47 -2.187,2.78 -2.775,3.92 l 3.511,1.76 c 10.477,-8.26 15.934,-3.97 22.93,-3.53 4.423,-4.65 7.671,-9.82 20.807,-10.47 -4.03,-4.99 -9.577,-7.92 -16.224,-9.34 z" />
      <g
         style="fill-rule:evenodd"
         id="g3561"
         transform="matrix(0.29804,0,0,0.29804,21.297,35.348)">
        <path
           inkscape:connector-curvature="0"
           id="path3392"
           d="m 419.25,242.67 c 29.40043,67.51931 42.31399,66.26312 85.49,72.66 38.58,6.92 45.26086,4.72675 57.40086,0.78675 C 614.34219,309.33662 609.77,296.53 617.31,284.94 c 1.54,-18.88 1.77,-39.55 -0.48,-62.22 L 495.72,208.94 z"
           style="fill:#f9f9f9;stroke:#5f5f5f;stroke-width:1.48700321;stroke-miterlimit:4;stroke-opacity:1;stroke-dasharray:none"
           sodipodi:nodetypes="ccccccc" />
        <path
           style="fill:#999999"
           inkscape:connector-curvature="0"
           id="path3556"
           d="m 495.72,208.94 -84.13953,37.86506 c 10.79,11.93 17.62176,25.03832 28.69176,37.98832 9.11,-18.27 33.03777,-45.44338 79.78777,-38.32338 28.82,4.39 69.27,-4.66 96.91,-6.66 l 1.12,0.31 c -0.27,-5.67 -0.66,-11.46 -1.25,-17.4 z"
           sodipodi:nodetypes="cccccccc" />
      </g>
      <path
         style="fill:#999999;fill-rule:evenodd;stroke:#000000;stroke-width:1.12015295px;stroke-linecap:round;stroke-linejoin:round"
         inkscape:connector-curvature="0"
         id="path3380"
         d="m 92.536,136.18 c 4.158,-2 8.244,-4.14 12.014,-9.81 -6.931,0.36 -22.073,1.31 -12.014,9.81 z" />
      <path
         inkscape:connector-curvature="0"
         id="path3413"
         d="m 193,68.079 c -13.13,0.139 -29.77,2.432 -50.55,8.969 l -34.39,14.8 C 88.423,106.35 70.805,120.22 55.256,128.22 c -10.555,5.43 -18.994,7.51 -19.019,12.41 -6.028,6.82 -3.164,10.07 -2.924,10.33 3.902,4.18 28.761,15.52 52.371,28.27 31.346,2.18 59.386,8.99 84.396,22.33 l 50.61,26.99 c 19.48,-0.39 41.79,-3.76 58.36,-16.44 21.62,-15.16 42.58,-62.93 10.47,-86.92 15.13,-4.71 23.69,-14.89 26.15,-26.376 -12.76,-19.383 -22.34,-28.196 -29.88,-30.176 -12.96,-2.69 -22.59,6.787 -28.83,8.01 -6.49,1.273 -12.45,3.435 -22.01,-0.401 -2.89,0.28 -15.07,-8.452 -41.95,-8.168 z m 56.22,32.421 c 4.27,3.65 8.78,4.26 13.31,4.5 2.71,6.14 4.77,11.45 4.72,16.72 -0.07,6.43 -4.74,6.78 -7.17,7.19 0.05,6.77 -0.71,2.96 -7.2,8.17 0.61,9.93 -0.72,17.78 -7.29,19.45 -4.8,1.22 -14.69,1.57 -21.89,0.63 -8.57,-0.92 -16.95,-2.41 -27.02,-1.01 -10.19,1.42 -20.56,2.08 -32.54,-5.61 -8.63,-5.54 -21.38,-3.83 -30.58,-4.26 -5.34,-2.22 -10.69,-1.77 -14.24,-1.99 -3.72,-1.73 -7.43,-4.32 -14.85,-5.52 -4.3,-2.02 -8.716,-3.98 -13.757,-5.63 -0.19,-0.44 -0.661,-0.92 1.462,-1.11 5.446,-0.26 8.855,-3.94 8.815,-3.91 12.97,-2.61 23.02,-8.49 33.73,-13.61 9.9,0.47 20.21,0.7 47.34,-9.01 6.19,1.49 11.61,-0.63 17.02,-2.8 4.6,1.94 11.02,0.83 18.01,-1.2 4.84,1.03 9.64,1.61 14.21,0 11.6,1.75 17.92,-1.04 17.92,-1 z"
         style="fill:#cb0423;fill-opacity:0.99215686;fill-rule:evenodd" />
      <path
         style="fill:#cb0423;fill-rule:evenodd"
         inkscape:connector-curvature="0"
         id="path3420"
         d="m 288.55,132.29 c -3.46,-0.02 -5.35,3.81 -10.37,8.82 -12.55,12.51 -22.75,14.17 -28.82,13.3 -1,1 -2.24,1.73 -3.77,2.12 -4.8,1.22 -14.69,1.57 -21.89,0.63 -8.57,-0.92 -16.95,-2.41 -27.02,-1.01 -10.19,1.42 -20.56,2.08 -32.54,-5.61 -8.63,-5.54 -21.38,-3.83 -30.58,-4.26 -5.34,-2.22 -10.69,-1.77 -14.24,-1.99 -3.72,-1.73 -7.43,-4.32 -14.85,-5.52 -2.62,-1.23 -5.286,-2.44 -8.113,-3.57 -12.295,4.44 -17.732,16.97 -8.755,21.53 26.958,13.69 53.918,27.16 80.878,35.62 70.1,29.89 82.42,18.46 98.9,10.41 13.15,-6.42 25.28,-16.23 36.57,-28.84 2.57,-9.7 2.97,-19.86 -0.06,-29.11 -5.12,-6.91 -10.23,-12.49 -15.34,-12.52 z" />
      <path
         style="fill:#af0f13;fill-rule:evenodd"
         inkscape:connector-curvature="0"
         id="path3453"
         d="m 252.36,147.11 c 6.6,-1.21 14.54,3.61 21.62,-9.21 6.68,-12.09 18.75,-10.38 18.72,-10.41 l -3.41,-2.5 c -18.26,-8.26 -27.84,9.13 -36.93,22.12 z" />
      <path
         style="fill:#520f13;fill-rule:evenodd"
         inkscape:connector-curvature="0"
         id="path3252"
         d="m 256.56,128.2 -4.67,4.81 c -0.33,0.23 1.35,11.45 0.42,14.44 -0.73,2.38 -4.67,8.07 -4.67,8.07 6.08,-2.15 11.71,-6.8 16.28,-11.04 -1.04,-11.37 5.27,-17.46 13.59,-22.09 -5.6,-5.84 -8.51,-12.09 -9.2,-18.68 -3.97,-0.76 -7.53,-1.11 -9.63,0 l -2.12,24.49 z" />
      <path
         inkscape:connector-curvature="0"
         id="path3254"
         d="m 251.89,123.67 c 0.51,0 0.86,1.98 2.55,3.25 5.07,3.83 10.61,0.85 11.6,-3.11 1,-3.96 -0.7,-20.38 -2.69,-20.81 -1.98,-0.42 -5.23,1.42 -5.23,1.42 -1.06,7.27 0.52,16.43 -6.23,19.25 z"
         style="fill:#520f13;fill-opacity:0.99215686;fill-rule:evenodd" />
      <path
         style="fill:#cb0423;fill-rule:evenodd"
         inkscape:connector-curvature="0"
         id="path3550"
         d="m 43.718,151.33 c 0,0 47.645,-0.8 51.648,8.41 4.004,9.2 2.378,15.74 -3.603,16.41 -7.997,0.9 -54.536,-22.5 -48.045,-24.82 z" />
      <path
         style="fill:#f2f2f2;fill-rule:evenodd"
         inkscape:connector-curvature="0"
         id="path3216"
         d="m 169.03,145.09 c -4.15,-2.63 21.69,-1.74 22.46,-0.25 0,0 0.48,3.62 -1.78,3.94 -1.48,0.21 -3.57,-1.91 -3.57,-1.91 -3.96,-2.12 -14.47,-0.11 -17.11,-1.78 z" />
      <path
         style="fill:#f2f2f2;fill-rule:evenodd"
         inkscape:connector-curvature="0"
         id="path3234"
         d="m 203.75,154.4 c -0.97,2.59 -1.54,-12.73 -0.93,-13.27 0,0 1.52,-0.46 1.74,0.86 0.15,0.86 -0.68,2.2 -0.68,2.2 -0.76,2.45 0.49,8.57 -0.13,10.21 z" />
      <path
         inkscape:connector-curvature="0"
         id="path3236"
         d="m 235.19,139.1 c 0,0 1.84,15.28 3.68,14.01 1.84,-1.27 2.97,-9.06 1.98,-11.18 -0.99,-2.13 -4.39,-7.08 -5.66,-2.83 z"
         style="fill:#ececec;fill-rule:evenodd" />
      <path
         style="fill:#ffffff"
         inkscape:connector-curvature="0"
         id="path3242"
         d="m 244.68,139.03 c 0.1,2.07 -0.35,3.75 -1.02,3.75 -0.67,0 -1.3,-1.68 -1.4,-3.75 -0.11,-2.07 0.34,-3.75 1.01,-3.75 0.67,0 1.3,1.68 1.41,3.75 z" />
      <path
         inkscape:connector-curvature="0"
         id="path3263"
         d="m 80.5,131.94 c -5.568,-1.01 -19.625,1.36 -33.805,5.84 l 0.028,0.08 c 18.896,-5.96 33.671,-5.16 45.846,-4.03 0.463,-2.06 -6.5,-0.89 -12.069,-1.89 z"
         style="fill:#520f13;fill-opacity:0.99215686;fill-rule:evenodd" />
      <path
         style="fill-rule:evenodd"
         inkscape:connector-curvature="0"
         id="path3269"
         d="m 274.8,139.01 c -7.93,3.4 -14.87,8.28 -26.51,17.28 l -0.74,-0.64 c 11.64,-9 18.7,-13.92 27.29,-16.46 l -0.04,-0.18 z" />
      <path
         style="fill-rule:evenodd"
         inkscape:connector-curvature="0"
         id="path3275"
         d="m 284.04,91.311 c -3.92,2.557 -7.19,5.526 -11.31,7.905 -4.12,2.374 -9.08,4.174 -16.42,4.374 l 0.18,0.74 c 7.39,-0.2 12.27,-2.26 16.43,-4.661 l 11.12,-8.358 z" />
      <path
         style="fill:#a50917;fill-rule:evenodd"
         inkscape:connector-curvature="0"
         id="path3281"
         d="m 256.64,161.46 -0.25,0.16 c 13.71,13.45 10.3,20.79 10.99,29.17 l 0.29,-0.05 c -1.71,-8.16 -1.69,-15 -11.03,-29.28 z" />
      <path
         style="fill:#a50917;fill-rule:evenodd"
         inkscape:connector-curvature="0"
         id="path3287"
         d="m 233.92,162.52 -0.15,0.08 c 4.76,16.94 1.89,22.92 0.92,31.12 l 0.15,0.04 c 0.43,-8.3 1.52,-14.82 -0.92,-31.24 z" />
      <path
         style="fill:#a50917;fill-rule:evenodd"
         inkscape:connector-curvature="0"
         id="path3289"
         d="m 245.46,163.46 -0.11,0.11 c 6.67,15.67 5.31,22.1 5.86,30.33 h 0.13 c -1.01,-8.22 -1.2,-14.82 -5.88,-30.44 z" />
      <path
         style="fill:#a50917;fill-rule:evenodd"
         inkscape:connector-curvature="0"
         id="path3291"
         d="m 272.53,156.3 -0.16,0.15 c 11.1,8.24 9.54,14.03 10.98,20.09 l 0.19,-0.08 c -2.11,-5.78 -2.87,-10.79 -11.01,-20.16 z" />
      <path
         style="fill:#a50917;fill-rule:evenodd"
         inkscape:connector-curvature="0"
         id="path3293"
         d="m 291.74,136.28 -0.15,0.15 c 11.1,8.24 9.54,14.03 10.98,20.09 l 0.19,-0.07 c -2.12,-5.79 -2.88,-10.8 -11.02,-20.17 z" />
      <path
         style="fill:#a50917;fill-rule:evenodd"
         inkscape:connector-curvature="0"
         id="path3295"
         d="m 118.43,144.29 0.16,0.15 c -11.11,8.24 -9.55,14.03 -10.98,20.09 l -0.2,-0.08 c 2.12,-5.78 2.88,-10.8 11.02,-20.16 z" />
      <path
         style="fill:#a50917;fill-rule:evenodd"
         inkscape:connector-curvature="0"
         id="path3297"
         d="m 140.03,145.89 0.18,0.19 c -12.9,10.44 -11.08,17.77 -12.75,25.45 l -0.23,-0.09 c 2.46,-7.33 3.34,-13.68 12.8,-25.55 z" />
      <path
         style="fill:#860f13;fill-rule:evenodd"
         inkscape:connector-curvature="0"
         id="path3299"
         d="m 254.84,100.91 -0.25,-0.17 c 14.94,-7.949 10.54,-24.66 10.99,-29.169 l 0.29,0.055 c -1.56,8.125 0.06,14.562 -11.03,29.284 z" />
      <path
         style="fill:#860f13;fill-rule:evenodd"
         inkscape:connector-curvature="0"
         id="path3301"
         d="m 185.38,104.71 -0.25,-0.17 c 13.71,-13.443 10.29,-20.786 10.99,-29.166 l 0.29,0.056 c -1.72,8.161 -1.7,14.999 -11.03,29.28 z" />
      <path
         style="fill:#860f13;fill-rule:evenodd"
         inkscape:connector-curvature="0"
         id="path3303"
         d="m 195.39,102.91 -0.25,-0.17 c 13.71,-13.444 10.29,-20.788 10.99,-29.168 l 0.28,0.056 c -1.71,8.162 -1.69,14.999 -11.02,29.282 z" />
      <path
         style="fill:#860f13;fill-rule:evenodd"
         inkscape:connector-curvature="0"
         id="path3305"
         d="m 130.49,114.92 0.25,-0.17 C 117.03,101.31 120.45,93.964 119.75,85.584 l -0.29,0.056 c 1.72,8.161 1.7,15 11.03,29.28 z" />
      <path
         style="fill:#ffffff"
         inkscape:connector-curvature="0"
         id="path3524"
         d="m 217.68,119.65 c 0,3.52 1.36,5.38 -1.59,5.38 -2.94,0 -8.2,-3.53 -8.2,-7.06 0,-3.52 0.37,-8.06 3.31,-8.06 2.94,0 6.48,6.22 6.48,9.74 z" />
      <path
         style="fill:#ffffff"
         inkscape:connector-curvature="0"
         id="path3527"
         d="m 173.35,121.91 c 0.82,3.42 1.7,5.12 0.74,5.35 -0.96,0.23 -3.5,-2.79 -4.32,-6.22 -0.83,-3.42 -1.77,-7.86 -0.81,-8.1 0.96,-0.23 3.57,5.54 4.39,8.97 z" />
      <path
         style="fill:#ffffff"
         inkscape:connector-curvature="0"
         id="path3529"
         d="m 248.79,118.93 c -1.24,0.89 -1.55,1.84 -2.3,0.8 -0.74,-1.04 -0.82,-3.8 0.43,-4.69 1.24,-0.89 2.94,-1.9 3.69,-0.86 0.74,1.04 -0.57,3.86 -1.82,4.75 z" />
      <path
         style="fill-rule:evenodd"
         inkscape:connector-curvature="0"
         id="path3537"
         d="m 276.78,122.56 v 0.1 c 6.57,0.18 10.04,1.07 13.03,2.55 -0.93,-2.44 -8.48,-3.12 -13.03,-2.65 z" />
    </g>
  </g>
</svg>
