<?xml version="1.0" encoding="UTF-8" standalone="no"?>
<!-- Created with Inkscape (http://www.inkscape.org/) -->

<svg
   xmlns:dc="http://purl.org/dc/elements/1.1/"
   xmlns:cc="http://creativecommons.org/ns#"
   xmlns:rdf="http://www.w3.org/1999/02/22-rdf-syntax-ns#"
   xmlns:svg="http://www.w3.org/2000/svg"
   xmlns="http://www.w3.org/2000/svg"
   xmlns:xlink="http://www.w3.org/1999/xlink"
   xmlns:sodipodi="http://sodipodi.sourceforge.net/DTD/sodipodi-0.dtd"
   xmlns:inkscape="http://www.inkscape.org/namespaces/inkscape"
   version="1.0"
   width="96"
   height="96"
   id="svg2408"
   inkscape:version="0.48.4 r9939"
   sodipodi:docname="web-browser.svg">
  <sodipodi:namedview
     pagecolor="#ffffff"
     bordercolor="#666666"
     borderopacity="1"
     objecttolerance="10"
     gridtolerance="10"
     guidetolerance="10"
     inkscape:pageopacity="0"
     inkscape:pageshadow="2"
     inkscape:window-width="1366"
     inkscape:window-height="709"
     id="namedview180"
     showgrid="false"
     inkscape:zoom="3.347841"
     inkscape:cx="14.987356"
     inkscape:cy="45.612343"
     inkscape:window-x="0"
     inkscape:window-y="-3"
     inkscape:window-maximized="1"
     inkscape:current-layer="svg2408" />
  <defs
     id="defs2410">
    <linearGradient
       id="linearGradient4132">
      <stop
         id="stop4134"
         style="stop-color:#7bb8f0;stop-opacity:1"
         offset="0" />
      <stop
         id="stop4136"
         style="stop-color:#b5d5f2;stop-opacity:0.1221374"
         offset="1" />
    </linearGradient>
    <linearGradient
       id="linearGradient4156">
      <stop
         id="stop4158"
         style="stop-color:#000000;stop-opacity:1"
         offset="0" />
      <stop
         id="stop4160"
         style="stop-color:#000000;stop-opacity:0"
         offset="1" />
    </linearGradient>
    <linearGradient
       x1="45.447727"
       y1="92.539597"
       x2="45.447727"
       y2="7.0165396"
       id="ButtonShadow"
       gradientUnits="userSpaceOnUse"
       gradientTransform="scale(1.0058652,0.994169)">
      <stop
         id="stop3750"
         style="stop-color:#000000;stop-opacity:1"
         offset="0" />
      <stop
         id="stop3752"
         style="stop-color:#000000;stop-opacity:0.58823532"
         offset="1" />
    </linearGradient>
    <filter
       color-interpolation-filters="sRGB"
       id="filter3174">
      <feGaussianBlur
         id="feGaussianBlur3176"
         stdDeviation="1.71" />
    </filter>
    <linearGradient
       id="linearGradient3737-6">
      <stop
         id="stop3739-73"
         style="stop-color:#ffffff;stop-opacity:1"
         offset="0" />
      <stop
         id="stop3741-6"
         style="stop-color:#ffffff;stop-opacity:0"
         offset="1" />
    </linearGradient>
    <clipPath
       id="clipPath3613">
      <rect
         width="84"
         height="84"
         rx="6"
         ry="6"
         x="6"
         y="6"
         id="rect3615"
         style="fill:#ffffff;fill-opacity:1;fill-rule:nonzero;stroke:none" />
    </clipPath>
    <linearGradient
       x1="48"
       y1="20.220806"
       x2="48"
       y2="138.66119"
       id="linearGradient2885"
       xlink:href="#linearGradient3737-6"
       gradientUnits="userSpaceOnUse" />
    <radialGradient
       cx="48"
       cy="41.752277"
       r="42"
       fx="48"
       fy="41.752277"
       id="radialGradient2977"
       xlink:href="#linearGradient3737-5"
       gradientUnits="userSpaceOnUse"
       gradientTransform="matrix(1.7146179,6.6254866e-8,-4.2857144e-8,1.1091053,-134.30166,-5.082394)" />
    <radialGradient
       cx="48"
       cy="90.171875"
       r="42"
       fx="48"
       fy="90.171875"
       id="radialGradient2855-1"
       xlink:href="#linearGradient3737-1-4"
       gradientUnits="userSpaceOnUse"
       gradientTransform="matrix(1.1573129,0,0,0.99590774,-7.551021,0.19713)" />
    <linearGradient
       id="linearGradient3737-1-4">
      <stop
         id="stop3739-7-1"
         style="stop-color:#ffffff;stop-opacity:1"
         offset="0" />
      <stop
         id="stop3741-2-0"
         style="stop-color:#ffffff;stop-opacity:0"
         offset="1" />
    </linearGradient>
    <linearGradient
       x1="36.357143"
       y1="6"
       x2="36.357143"
       y2="63.893143"
       id="linearGradient3188-9"
       xlink:href="#linearGradient3737-5"
       gradientUnits="userSpaceOnUse" />
    <linearGradient
       id="linearGradient3737-5">
      <stop
         id="stop3739-6"
         style="stop-color:#ffffff;stop-opacity:1"
         offset="0" />
      <stop
         id="stop3741-7"
         style="stop-color:#ffffff;stop-opacity:0"
         offset="1" />
    </linearGradient>
    <linearGradient
       id="linearGradient5226-7">
      <stop
         id="stop5228-2"
         style="stop-color:#227395;stop-opacity:1"
         offset="0" />
      <stop
         id="stop5230-4"
         style="stop-color:#44a2c9;stop-opacity:1"
         offset="1" />
    </linearGradient>
    <linearGradient
       id="linearGradient3424-7">
      <stop
         id="stop3426-4"
         style="stop-color:#ffffff;stop-opacity:1"
         offset="0" />
      <stop
         id="stop3432-0"
         style="stop-color:#ffffff;stop-opacity:1"
         offset="0.67213112" />
      <stop
         id="stop3428-2"
         style="stop-color:#ffffff;stop-opacity:0"
         offset="1" />
    </linearGradient>
    <filter
       color-interpolation-filters="sRGB"
       id="filter3434">
      <feGaussianBlur
         id="feGaussianBlur3436"
         stdDeviation="2.4779144" />
    </filter>
    <linearGradient
       id="linearGradient3700-1">
      <stop
         id="stop3702-4"
         style="stop-color:#2b91bc;stop-opacity:1"
         offset="0" />
      <stop
         id="stop3704-2"
         style="stop-color:#77bbd8;stop-opacity:1"
         offset="1" />
    </linearGradient>
    <filter
       x="-0.14399999"
       y="-0.14399999"
       width="1.288"
       height="1.288"
       color-interpolation-filters="sRGB"
       id="filter4123">
      <feGaussianBlur
         id="feGaussianBlur4125"
         stdDeviation="3.96" />
    </filter>
    <linearGradient
       x1="45.447727"
       y1="92.539597"
       x2="45.447727"
       y2="7.0165396"
       id="ButtonShadow-0"
       gradientUnits="userSpaceOnUse"
       gradientTransform="matrix(1.0058652,0,0,0.994169,100,0)">
      <stop
         id="stop3750-8"
         style="stop-color:#000000;stop-opacity:1"
         offset="0" />
      <stop
         id="stop3752-5"
         style="stop-color:#000000;stop-opacity:0.58823532"
         offset="1" />
    </linearGradient>
    <linearGradient
       x1="32.251034"
       y1="6.1317081"
       x2="32.251034"
       y2="90.238609"
       id="linearGradient3780"
       xlink:href="#ButtonShadow-0"
       gradientUnits="userSpaceOnUse"
       gradientTransform="matrix(1.0238095,0,0,1.0119048,-1.1428571,-98.071429)" />
    <linearGradient
       x1="32.251034"
       y1="6.1317081"
       x2="32.251034"
       y2="90.238609"
       id="linearGradient3772"
       xlink:href="#ButtonShadow-0"
       gradientUnits="userSpaceOnUse"
       gradientTransform="matrix(1.0238095,0,0,1.0119048,-1.1428571,-98.071429)" />
    <linearGradient
       x1="32.251034"
       y1="6.1317081"
       x2="32.251034"
       y2="90.238609"
       id="linearGradient3725"
       xlink:href="#ButtonShadow-0"
       gradientUnits="userSpaceOnUse"
       gradientTransform="matrix(1.0238095,0,0,1.0119048,-1.1428571,-98.071429)" />
    <linearGradient
       x1="32.251034"
       y1="6.1317081"
       x2="32.251034"
       y2="90.238609"
       id="linearGradient3721"
       xlink:href="#ButtonShadow-0"
       gradientUnits="userSpaceOnUse"
       gradientTransform="translate(0,-97)" />
    <linearGradient
       x1="32.251034"
       y1="6.1317081"
       x2="32.251034"
       y2="90.238609"
       id="linearGradient3071"
       xlink:href="#ButtonShadow-0"
       gradientUnits="userSpaceOnUse"
       gradientTransform="matrix(1.0238095,0,0,1.0119048,-1.1428571,-98.071429)" />
    <linearGradient
       x1="59"
       y1="40"
       x2="69"
       y2="40"
       id="linearGradient5974"
       xlink:href="#linearGradient5932-3"
       gradientUnits="userSpaceOnUse" />
    <linearGradient
       id="linearGradient5932-3">
      <stop
         id="stop5934-3"
         style="stop-color:#ff7c53;stop-opacity:1"
         offset="0" />
      <stop
         id="stop5940-1"
         style="stop-color:#f21919;stop-opacity:1"
         offset="0.5" />
      <stop
         id="stop5942-5"
         style="stop-color:#db1414;stop-opacity:1"
         offset="0.5" />
      <stop
         id="stop5936-2"
         style="stop-color:#9b1818;stop-opacity:1"
         offset="1" />
    </linearGradient>
    <linearGradient
       x1="59"
       y1="88"
       x2="69"
       y2="88"
       id="linearGradient5976"
       xlink:href="#linearGradient5944-6"
       gradientUnits="userSpaceOnUse" />
    <linearGradient
       id="linearGradient5944-6">
      <stop
         id="stop5946-9"
         style="stop-color:#f0f0f0;stop-opacity:1"
         offset="0" />
      <stop
         id="stop5952-4"
         style="stop-color:#e6e6e6;stop-opacity:1"
         offset="0.5" />
      <stop
         id="stop5954-4"
         style="stop-color:#d2d2d2;stop-opacity:1"
         offset="0.5" />
      <stop
         id="stop5948-6"
         style="stop-color:#bebebe;stop-opacity:1"
         offset="1" />
    </linearGradient>
    <radialGradient
       cx="63.335083"
       cy="63.279507"
       r="1.7404202"
       fx="63.335083"
       fy="63.279507"
       id="radialGradient5978"
       xlink:href="#linearGradient5960-0"
       gradientUnits="userSpaceOnUse"
       gradientTransform="matrix(0.644005,-1.4508695e-6,1.4508659e-6,0.6440034,22.699101,22.755712)" />
    <linearGradient
       id="linearGradient5960-0">
      <stop
         id="stop5962-7"
         style="stop-color:#c1c1c1;stop-opacity:1"
         offset="0" />
      <stop
         id="stop5964-4"
         style="stop-color:#3f3f3f;stop-opacity:1"
         offset="1" />
    </linearGradient>
    <linearGradient
       x1="49.427967"
       y1="83.552567"
       x2="49.427967"
       y2="-18.66704"
       id="linearGradient4162"
       xlink:href="#linearGradient4156"
       gradientUnits="userSpaceOnUse" />
    <radialGradient
       cx="63.98003"
       cy="61.948856"
       r="58.01997"
       fx="63.98003"
       fy="61.948856"
       id="radialGradient4197"
       xlink:href="#linearGradient5226-7"
       gradientUnits="userSpaceOnUse"
       gradientTransform="matrix(1.090012,0,0,0.8408658,-21.739001,104.49175)" />
    <radialGradient
       cx="48"
       cy="46.582424"
       r="42"
       fx="48"
       fy="46.582424"
       id="radialGradient4200"
       xlink:href="#linearGradient3424-7"
       gradientUnits="userSpaceOnUse"
       gradientTransform="matrix(1,0,0,0.9665987,3.0413897e-8,111.55591)" />
    <linearGradient
       x1="48"
       y1="90"
       x2="48"
       y2="5.9877172"
       id="linearGradient4203"
       xlink:href="#linearGradient3700-1"
       gradientUnits="userSpaceOnUse"
       gradientTransform="translate(0,110)" />
    <radialGradient
       cx="63.98003"
       cy="61.948856"
       r="58.01997"
       fx="63.98003"
       fy="61.948856"
       id="radialGradient5232-9"
       xlink:href="#linearGradient4132"
       gradientUnits="userSpaceOnUse"
       gradientTransform="matrix(1.090012,0,0,0.84044811,-21.739002,-5.4878171)" />
    <radialGradient
       cx="64"
       cy="64"
       r="37"
       fx="64"
       fy="64"
       id="radialGradient6260-3"
       xlink:href="#linearGradient6222-1"
       gradientUnits="userSpaceOnUse"
       gradientTransform="matrix(0.72972969,0,0,0.72972973,1.2972977,1.2972975)" />
    <linearGradient
       id="linearGradient6222-1">
      <stop
         id="stop6224-0"
         style="stop-color:#ffffff;stop-opacity:1"
         offset="0" />
      <stop
         id="stop6226-00"
         style="stop-color:#ffffff;stop-opacity:0.627451"
         offset="1" />
    </linearGradient>
    <linearGradient
       x1="59"
       y1="40"
       x2="69"
       y2="40"
       id="linearGradient5974-7"
       xlink:href="#linearGradient5932-3-2"
       gradientUnits="userSpaceOnUse" />
    <linearGradient
       id="linearGradient5932-3-2">
      <stop
         id="stop5934-3-2"
         style="stop-color:#ff7c53;stop-opacity:1"
         offset="0" />
      <stop
         id="stop5940-1-4"
         style="stop-color:#f21919;stop-opacity:1"
         offset="0.5" />
      <stop
         id="stop5942-5-4"
         style="stop-color:#db1414;stop-opacity:1"
         offset="0.5" />
      <stop
         id="stop5936-2-5"
         style="stop-color:#9b1818;stop-opacity:1"
         offset="1" />
    </linearGradient>
    <linearGradient
       x1="59"
       y1="88"
       x2="69"
       y2="88"
       id="linearGradient5976-3"
       xlink:href="#linearGradient5944-6-9"
       gradientUnits="userSpaceOnUse" />
    <linearGradient
       id="linearGradient5944-6-9">
      <stop
         id="stop5946-9-5"
         style="stop-color:#f0f0f0;stop-opacity:1"
         offset="0" />
      <stop
         id="stop5952-4-9"
         style="stop-color:#e6e6e6;stop-opacity:1"
         offset="0.5" />
      <stop
         id="stop5954-4-7"
         style="stop-color:#d2d2d2;stop-opacity:1"
         offset="0.5" />
      <stop
         id="stop5948-6-2"
         style="stop-color:#bebebe;stop-opacity:1"
         offset="1" />
    </linearGradient>
    <radialGradient
       cx="63.335083"
       cy="63.279507"
       r="1.7404202"
       fx="63.335083"
       fy="63.279507"
       id="radialGradient5978-1"
       xlink:href="#linearGradient5960-0-4"
       gradientUnits="userSpaceOnUse"
       gradientTransform="matrix(0.644005,-1.4508695e-6,1.4508659e-6,0.6440034,22.699101,22.755712)" />
    <linearGradient
       id="linearGradient5960-0-4">
      <stop
         id="stop5962-7-7"
         style="stop-color:#c1c1c1;stop-opacity:1"
         offset="0" />
      <stop
         id="stop5964-4-1"
         style="stop-color:#3f3f3f;stop-opacity:1"
         offset="1" />
    </linearGradient>
    <linearGradient
       id="linearGradient5932-3-2-4">
      <stop
         id="stop5934-3-2-9"
         style="stop-color:#ff7c53;stop-opacity:1"
         offset="0" />
      <stop
         id="stop5940-1-4-5"
         style="stop-color:#f21919;stop-opacity:1"
         offset="0.5" />
      <stop
         id="stop5942-5-4-7"
         style="stop-color:#db1414;stop-opacity:1"
         offset="0.5" />
      <stop
         id="stop5936-2-5-0"
         style="stop-color:#9b1818;stop-opacity:1"
         offset="1" />
    </linearGradient>
    <linearGradient
       id="linearGradient5944-6-9-3">
      <stop
         id="stop5946-9-5-0"
         style="stop-color:#f0f0f0;stop-opacity:1"
         offset="0" />
      <stop
         id="stop5952-4-9-7"
         style="stop-color:#e6e6e6;stop-opacity:1"
         offset="0.5" />
      <stop
         id="stop5954-4-7-2"
         style="stop-color:#d2d2d2;stop-opacity:1"
         offset="0.5" />
      <stop
         id="stop5948-6-2-1"
         style="stop-color:#bebebe;stop-opacity:1"
         offset="1" />
    </linearGradient>
    <linearGradient
       id="linearGradient5960-0-4-4">
      <stop
         id="stop5962-7-7-5"
         style="stop-color:#c1c1c1;stop-opacity:1"
         offset="0" />
      <stop
         id="stop5964-4-1-8"
         style="stop-color:#3f3f3f;stop-opacity:1"
         offset="1" />
    </linearGradient>
    <linearGradient
       x1="59"
       y1="40"
       x2="69"
       y2="40"
       id="linearGradient4578"
       xlink:href="#linearGradient5932-3-2-4"
       gradientUnits="userSpaceOnUse" />
    <linearGradient
       x1="59"
       y1="88"
       x2="69"
       y2="88"
       id="linearGradient4580"
       xlink:href="#linearGradient5944-6-9-3"
       gradientUnits="userSpaceOnUse" />
    <radialGradient
       cx="63.335083"
       cy="63.279507"
       r="1.7404202"
       fx="63.335083"
       fy="63.279507"
       id="radialGradient4582"
       xlink:href="#linearGradient5960-0-4-4"
       gradientUnits="userSpaceOnUse"
       gradientTransform="matrix(0.644005,-1.4508695e-6,1.4508659e-6,0.6440034,22.699101,22.755712)" />
    <linearGradient
       id="linearGradient3700-5-1">
      <stop
         id="stop3702-0-2"
         style="stop-color:#156ab9;stop-opacity:1"
         offset="0" />
      <stop
         id="stop3704-4-9"
         style="stop-color:#5ba1e4;stop-opacity:1"
         offset="1" />
    </linearGradient>
    <linearGradient
       x1="48"
       y1="90"
       x2="48"
       y2="5.9877172"
       id="linearGradient3345"
       xlink:href="#linearGradient3700-5-1"
       gradientUnits="userSpaceOnUse" />
    <radialGradient
       inkscape:collect="always"
       xlink:href="#linearGradient4132"
       id="radialGradient3152"
       gradientUnits="userSpaceOnUse"
       gradientTransform="matrix(1.090012,0,0,0.84044811,-21.739002,-5.4878171)"
       cx="63.98003"
       cy="61.948856"
       fx="63.98003"
       fy="61.948856"
       r="58.01997" />
    <radialGradient
       inkscape:collect="always"
       xlink:href="#linearGradient5226-7"
       id="radialGradient3155"
       gradientUnits="userSpaceOnUse"
       gradientTransform="matrix(1.090012,0,0,0.8408658,-21.739001,104.49175)"
       cx="63.98003"
       cy="61.948856"
       fx="63.98003"
       fy="61.948856"
       r="58.01997" />
    <radialGradient
       inkscape:collect="always"
       xlink:href="#linearGradient3737-5"
       id="radialGradient3159"
       gradientUnits="userSpaceOnUse"
       gradientTransform="matrix(1.7146179,6.6254866e-8,-4.2857144e-8,1.1091053,-134.30166,-5.082394)"
       cx="48"
       cy="41.752277"
       fx="48"
       fy="41.752277"
       r="42" />
    <radialGradient
       inkscape:collect="always"
       xlink:href="#linearGradient4132"
       id="radialGradient3153"
       gradientUnits="userSpaceOnUse"
       gradientTransform="matrix(1.090012,0,0,0.67340439,-21.739002,12.925249)"
       cx="63.98003"
       cy="61.948856"
       fx="63.98003"
       fy="61.948856"
       r="58.01997" />
    <radialGradient
       inkscape:collect="always"
       xlink:href="#linearGradient4132"
       id="radialGradient3931"
       gradientUnits="userSpaceOnUse"
       gradientTransform="matrix(1.090012,0,0,0.67031098,-21.739002,-3.1622668)"
       cx="63.98003"
       cy="61.948856"
       fx="63.98003"
       fy="61.948856"
       r="58.01997" />
  </defs>
  <metadata
     id="metadata2413">
    <rdf:RDF>
      <cc:Work
         rdf:about="">
        <dc:format>image/svg+xml</dc:format>
        <dc:type
           rdf:resource="http://purl.org/dc/dcmitype/StillImage" />
        <dc:title></dc:title>
      </cc:Work>
    </rdf:RDF>
  </metadata>
  <rect
     width="84"
     height="84"
     rx="6"
     ry="0"
     x="6"
     y="6"
     id="rect3148"
     style="fill:#3080ca;fill-opacity:1;fill-rule:nonzero;stroke:none;display:inline" />
  <g
     id="layer2"
     style="display:none">
    <rect
       width="86"
       height="85"
       rx="6"
       ry="6"
       x="5"
       y="7"
       id="rect3745"
       style="opacity:0.9;fill:url(#ButtonShadow);fill-opacity:1;fill-rule:nonzero;stroke:none;filter:url(#filter3174)" />
  </g>
  <rect
     style="fill:#335e87;fill-opacity:1;fill-rule:nonzero;stroke:none;display:inline"
     id="rect2419-8"
     y="6"
     x="6"
     ry="0"
     rx="6"
     height="84"
     width="84" />
  <g
     id="layer4"
     style="display:none">
    <rect
       width="66"
       height="66"
       rx="12"
       ry="12"
       x="15"
       y="15"
       clip-path="url(#clipPath3613)"
       id="rect3171"
       style="opacity:0.15;fill:url(#linearGradient2885);fill-opacity:1;fill-rule:nonzero;stroke:#ffffff;stroke-width:0.5;stroke-linecap:round;stroke-linejoin:miter;stroke-miterlimit:4;stroke-opacity:1;stroke-dasharray:none;stroke-dashoffset:0;filter:url(#filter4123)" />
  </g>
  <g
     id="layer3"
     style="display:none">
    <path
       d="M 48,12.044841 43.154387,35.24322 c -0.595098,0.228698 -1.174871,0.480654 -1.726252,0.787413 l -10.539216,-5.269607 5.269609,10.539211 c -0.31514,0.562399 -0.583989,1.148397 -0.8177,1.756536 l -23.198374,4.845614 23.198374,4.845614 c 0.230621,0.600099 0.507744,1.170646 0.8177,1.726251 l -5.269609,10.53921 10.539216,-5.269605 c 0.555609,0.309967 1.126157,0.587078 1.726252,0.817698 L 48,83.759933 52.845613,60.561555 c 0.600095,-0.23062 1.170656,-0.507731 1.726252,-0.817698 l 10.539216,5.269605 -5.269609,-10.53921 c 0.309956,-0.555605 0.587079,-1.126152 0.8177,-1.726251 L 83.857546,47.902387 60.659172,43.056773 c -0.233711,-0.608139 -0.502547,-1.194137 -0.8177,-1.756536 L 65.111081,30.761026 54.571865,36.030633 C 54.020484,35.723874 53.440711,35.471918 52.845613,35.24322 L 48,12.044841 z m 0,27.044586 c 4.865524,-2e-6 8.812965,3.947441 8.812965,8.81296 0,4.865523 -3.947441,8.812962 -8.812965,8.812962 -4.865524,-2e-6 -8.812965,-3.947442 -8.812965,-8.812962 0,-4.865517 3.947441,-8.81296 8.812965,-8.81296 z"
       inkscape:connector-curvature="0"
       id="path6231"
       style="opacity:0.2;fill:url(#linearGradient4162);fill-opacity:1;fill-rule:nonzero;stroke:none;display:inline" />
    <path
       d="M 48,12.03125 43.15625,35.25 c -0.595098,0.228698 -1.167369,0.474491 -1.71875,0.78125 L 30.875,30.75 36.15625,41.3125 c -0.31514,0.562399 -0.578789,1.141861 -0.8125,1.75 l -23.1875,4.84375 23.1875,4.84375 c 0.230621,0.600099 0.502544,1.163145 0.8125,1.71875 L 30.875,65 41.4375,59.75 c 0.555609,0.309967 1.118655,0.58188 1.71875,0.8125 L 48,83.75 52.84375,60.5625 C 53.443845,60.33188 54.006904,60.059967 54.5625,59.75 L 65.125,65 59.84375,54.46875 c 0.309956,-0.555605 0.581879,-1.118651 0.8125,-1.71875 l 23.1875,-4.84375 -23.1875,-4.84375 c -0.233711,-0.608139 -0.497347,-1.187601 -0.8125,-1.75 L 65.125,30.75 54.5625,36.03125 C 54.011119,35.724491 53.438848,35.478698 52.84375,35.25 L 48,12.03125 z m 0,2.03125 4.4375,21.28125 a 0.41850037,0.41850037 0 0 0 0.25,0.28125 c 0.585235,0.224908 1.129377,0.488126 1.65625,0.78125 a 0.41850037,0.41850037 0 0 0 0.40625,0 l 9.4375,-4.71875 -4.71875,9.4375 a 0.41850037,0.41850037 0 0 0 0,0.40625 c 0.303882,0.542285 0.58466,1.094638 0.8125,1.6875 a 0.41850037,0.41850037 0 0 0 0.28125,0.25 l 21.25,4.4375 -21.25,4.4375 a 0.41850037,0.41850037 0 0 0 -0.28125,0.25 c -0.222551,0.579099 -0.510414,1.114752 -0.8125,1.65625 a 0.41850037,0.41850037 0 0 0 0,0.40625 L 64.1875,64.0625 54.75,59.375 a 0.41850037,0.41850037 0 0 0 -0.40625,0 c -0.541478,0.302091 -1.077149,0.589948 -1.65625,0.8125 a 0.41850037,0.41850037 0 0 0 -0.25,0.28125 l -4.4375,21.25 -4.4375,-21.25 a 0.41850037,0.41850037 0 0 0 -0.25,-0.28125 C 42.733401,59.964949 42.197746,59.677094 41.65625,59.375 a 0.41850037,0.41850037 0 0 0 -0.40625,0 l -9.4375,4.6875 4.71875,-9.40625 a 0.41850037,0.41850037 0 0 0 0,-0.40625 c -0.302086,-0.541498 -0.589949,-1.077151 -0.8125,-1.65625 a 0.41850037,0.41850037 0 0 0 -0.28125,-0.25 l -21.25,-4.4375 21.25,-4.4375 a 0.41850037,0.41850037 0 0 0 0.28125,-0.25 c 0.227838,-0.592857 0.508626,-1.145207 0.8125,-1.6875 a 0.41850037,0.41850037 0 0 0 0,-0.40625 L 31.8125,31.6875 41.25,36.40625 a 0.41850037,0.41850037 0 0 0 0.40625,0 c 0.526873,-0.293124 1.071015,-0.556342 1.65625,-0.78125 a 0.41850037,0.41850037 0 0 0 0.25,-0.28125 L 48,14.0625 z m 0,24.625 c -5.09183,0 -9.21875,4.126927 -9.21875,9.21875 0,5.091826 4.12692,9.218748 9.21875,9.21875 5.09183,0 9.21875,-4.126921 9.21875,-9.21875 0,-5.091825 -4.12692,-9.218752 -9.21875,-9.21875 z m 0,0.40625 c 4.865524,-2e-6 8.8125,3.946981 8.8125,8.8125 0,4.865523 -3.946976,8.8125 -8.8125,8.8125 -4.865524,-2e-6 -8.8125,-3.94698 -8.8125,-8.8125 0,-4.865517 3.946976,-8.8125 8.8125,-8.8125 z"
       inkscape:connector-curvature="0"
       id="path4186"
       style="opacity:0.05;fill:#000000;fill-opacity:1;fill-rule:nonzero;stroke:none;display:inline" />
    <path
       d="M 48,12.03125 43.15625,35.25 c -0.595098,0.228698 -1.167369,0.474491 -1.71875,0.78125 L 30.875,30.75 36.15625,41.3125 c -0.31514,0.562399 -0.578789,1.141861 -0.8125,1.75 l -23.1875,4.84375 23.1875,4.84375 c 0.230621,0.600099 0.502544,1.163145 0.8125,1.71875 L 30.875,65 41.4375,59.75 c 0.555609,0.309967 1.118655,0.58188 1.71875,0.8125 L 48,83.75 52.84375,60.5625 C 53.443845,60.33188 54.006904,60.059967 54.5625,59.75 L 65.125,65 59.84375,54.46875 c 0.309956,-0.555605 0.581879,-1.118651 0.8125,-1.71875 l 23.1875,-4.84375 -23.1875,-4.84375 c -0.233711,-0.608139 -0.497347,-1.187601 -0.8125,-1.75 L 65.125,30.75 54.5625,36.03125 C 54.011119,35.724491 53.438848,35.478698 52.84375,35.25 L 48,12.03125 z m 0,0.9375 4.65625,22.3125 a 0.19857869,0.19857869 0 0 0 0,0.03125 0.19857869,0.19857869 0 0 0 0.03125,0.0625 0.19857869,0.19857869 0 0 0 0.03125,0.03125 0.19857869,0.19857869 0 0 0 0.03125,0.03125 0.19857869,0.19857869 0 0 0 0.03125,0 c 0.590418,0.2269 1.147748,0.480961 1.6875,0.78125 a 0.19857869,0.19857869 0 0 0 0.03125,0 0.19857869,0.19857869 0 0 0 0.03125,0 0.19857869,0.19857869 0 0 0 0.03125,0 0.19857869,0.19857869 0 0 0 0.03125,0 0.19857869,0.19857869 0 0 0 0.03125,0 0.19857869,0.19857869 0 0 0 0.03125,0 l 10,-5 -5,10 a 0.19857869,0.19857869 0 0 0 0,0.03125 0.19857869,0.19857869 0 0 0 0,0.03125 0.19857869,0.19857869 0 0 0 0,0.03125 0.19857869,0.19857869 0 0 0 0,0.03125 0.19857869,0.19857869 0 0 0 0,0.03125 0.19857869,0.19857869 0 0 0 0,0.03125 c 0.309805,0.552855 0.581575,1.11786 0.8125,1.71875 a 0.19857869,0.19857869 0 0 0 0.03125,0.0625 0.19857869,0.19857869 0 0 0 0.03125,0.03125 0.19857869,0.19857869 0 0 0 0.03125,0.03125 0.19857869,0.19857869 0 0 0 0.03125,0 0.19857869,0.19857869 0 0 0 0.03125,0 L 82.90625,47.90625 60.625,52.5625 a 0.19857869,0.19857869 0 0 0 -0.03125,0 0.19857869,0.19857869 0 0 0 -0.0625,0.03125 A 0.19857869,0.19857869 0 0 0 60.5,52.625 a 0.19857869,0.19857869 0 0 0 -0.03125,0.03125 0.19857869,0.19857869 0 0 0 0,0.03125 c -0.226792,0.590134 -0.506278,1.138589 -0.8125,1.6875 a 0.19857869,0.19857869 0 0 0 0,0.03125 0.19857869,0.19857869 0 0 0 0,0.03125 0.19857869,0.19857869 0 0 0 0,0.03125 0.19857869,0.19857869 0 0 0 0,0.03125 0.19857869,0.19857869 0 0 0 0,0.03125 0.19857869,0.19857869 0 0 0 0,0.03125 l 5,9.96875 -10,-4.96875 a 0.19857869,0.19857869 0 0 0 -0.03125,0 0.19857869,0.19857869 0 0 0 -0.03125,0 0.19857869,0.19857869 0 0 0 -0.03125,0 0.19857869,0.19857869 0 0 0 -0.03125,0 0.19857869,0.19857869 0 0 0 -0.03125,0 0.19857869,0.19857869 0 0 0 -0.03125,0 c -0.548897,0.30623 -1.097367,0.585708 -1.6875,0.8125 a 0.19857869,0.19857869 0 0 0 -0.0625,0.03125 0.19857869,0.19857869 0 0 0 -0.03125,0.03125 0.19857869,0.19857869 0 0 0 -0.03125,0.03125 0.19857869,0.19857869 0 0 0 0,0.03125 0.19857869,0.19857869 0 0 0 0,0.03125 L 48,82.8125 43.34375,60.53125 a 0.19857869,0.19857869 0 0 0 0,-0.03125 A 0.19857869,0.19857869 0 0 0 43.3125,60.4375 0.19857869,0.19857869 0 0 0 43.28125,60.40625 0.19857869,0.19857869 0 0 0 43.25,60.375 a 0.19857869,0.19857869 0 0 0 -0.03125,0 c -0.590132,-0.226791 -1.138588,-0.506269 -1.6875,-0.8125 a 0.19857869,0.19857869 0 0 0 -0.03125,0 0.19857869,0.19857869 0 0 0 -0.03125,0 0.19857869,0.19857869 0 0 0 -0.03125,0 0.19857869,0.19857869 0 0 0 -0.03125,0 0.19857869,0.19857869 0 0 0 -0.03125,0 0.19857869,0.19857869 0 0 0 -0.03125,0 l -10,4.96875 5,-9.96875 a 0.19857869,0.19857869 0 0 0 0,-0.03125 0.19857869,0.19857869 0 0 0 0,-0.03125 0.19857869,0.19857869 0 0 0 0,-0.03125 0.19857869,0.19857869 0 0 0 0,-0.03125 0.19857869,0.19857869 0 0 0 0,-0.03125 0.19857869,0.19857869 0 0 0 0,-0.03125 c -0.306222,-0.548911 -0.585708,-1.097366 -0.8125,-1.6875 A 0.19857869,0.19857869 0 0 0 35.5,52.625 0.19857869,0.19857869 0 0 0 35.46875,52.59375 0.19857869,0.19857869 0 0 0 35.4375,52.5625 a 0.19857869,0.19857869 0 0 0 -0.03125,0 0.19857869,0.19857869 0 0 0 -0.03125,0 L 13.09375,47.90625 35.375,43.25 a 0.19857869,0.19857869 0 0 0 0.03125,0 0.19857869,0.19857869 0 0 0 0.0625,-0.03125 0.19857869,0.19857869 0 0 0 0.03125,-0.03125 0.19857869,0.19857869 0 0 0 0.03125,-0.03125 0.19857869,0.19857869 0 0 0 0,-0.03125 c 0.230924,-0.600888 0.502706,-1.165891 0.8125,-1.71875 a 0.19857869,0.19857869 0 0 0 0,-0.03125 0.19857869,0.19857869 0 0 0 0,-0.03125 0.19857869,0.19857869 0 0 0 0,-0.03125 0.19857869,0.19857869 0 0 0 0,-0.03125 0.19857869,0.19857869 0 0 0 0,-0.03125 0.19857869,0.19857869 0 0 0 0,-0.03125 l -5,-10 10,5 a 0.19857869,0.19857869 0 0 0 0.03125,0 0.19857869,0.19857869 0 0 0 0.03125,0 0.19857869,0.19857869 0 0 0 0.03125,0 0.19857869,0.19857869 0 0 0 0.03125,0 0.19857869,0.19857869 0 0 0 0.03125,0 0.19857869,0.19857869 0 0 0 0.03125,0 c 0.539752,-0.300289 1.097082,-0.55435 1.6875,-0.78125 a 0.19857869,0.19857869 0 0 0 0.0625,-0.03125 0.19857869,0.19857869 0 0 0 0.03125,-0.03125 0.19857869,0.19857869 0 0 0 0.03125,-0.03125 0.19857869,0.19857869 0 0 0 0,-0.03125 0.19857869,0.19857869 0 0 0 0,-0.03125 L 48,12.96875 z m 0,25.9375 c -4.972907,0 -9,4.027101 -9,9 0,4.972902 4.027094,8.999998 9,9 4.972906,0 9,-4.027095 9,-9 0,-4.972901 -4.027093,-9.000002 -9,-9 z m 0,0.1875 c 4.865524,-2e-6 8.8125,3.946981 8.8125,8.8125 0,4.865523 -3.946976,8.8125 -8.8125,8.8125 -4.865524,-2e-6 -8.8125,-3.94698 -8.8125,-8.8125 0,-4.865517 3.946976,-8.8125 8.8125,-8.8125 z"
       inkscape:connector-curvature="0"
       id="path4182"
       style="opacity:0.1;fill:#000000;fill-opacity:1;fill-rule:nonzero;stroke:none;display:inline" />
    <path
       d="m 153.01599,10.766739 c -0.51471,0 -1.04739,0.344944 -1.63524,1.034537 -0.27321,0.318749 -0.46156,0.637139 -0.65076,1.168027 -0.1892,0.530887 -0.37766,1.282402 -0.65075,2.486227 -0.11127,0.52293 -0.22801,1.051084 -0.35041,1.585179 -0.005,0.02589 -0.0651,0.215932 -0.10012,0.350408 -0.43816,-0.908198 -0.65409,-1.617146 -1.73535,-5.656585 -0.005,-0.0062 -0.0105,-0.01179 -0.0167,-0.01669 -0.004,-0.01205 -0.009,-0.02336 -0.0167,-0.03337 -0.01,-0.0076 -0.0213,-0.01322 -0.0334,-0.01669 -0.006,-4.54e-4 -0.0111,-4.54e-4 -0.0166,0 -0.011,-0.0019 -0.0224,-0.0019 -0.0334,0 -0.006,-4.54e-4 -0.0111,-4.54e-4 -0.0167,0 -0.006,0.0049 -0.0118,0.0105 -0.0166,0.01669 -0.006,0.0049 -0.0118,0.0105 -0.0167,0.01669 l -0.33372,0.317035 c -0.23103,-0.01896 -0.39584,-0.03337 -0.58402,-0.03337 -0.6807,0 -1.11839,0.126406 -1.53512,0.450525 -0.73237,0.572162 -1.23477,1.385409 -1.23477,2.052389 0,0.294731 0.062,0.613241 0.26698,1.034538 0.008,0.01357 0.0198,0.025 0.0334,0.03337 0.01,0.0076 0.0213,0.01321 0.0334,0.01669 0.006,4.54e-4 0.0111,4.54e-4 0.0167,0 0.011,0.0019 0.0224,0.0019 0.0334,0 0.006,4.54e-4 0.0111,4.54e-4 0.0167,0 0.006,-0.0049 0.0118,-0.0105 0.0167,-0.01669 l 0.78425,-0.517269 c 0.0136,-0.0084 0.025,-0.0198 0.0334,-0.03337 0.006,-0.0049 0.0118,-0.0105 0.0167,-0.01669 4.6e-4,-0.0056 4.6e-4,-0.01113 0,-0.01669 0.002,-0.01105 0.002,-0.02232 0,-0.03337 4.6e-4,-0.0056 4.6e-4,-0.01113 0,-0.01669 4.6e-4,-0.0056 4.6e-4,-0.01113 0,-0.01669 -0.27695,-0.587144 -0.36709,-0.827881 -0.36709,-1.084597 0,-0.295588 0.16844,-0.566384 0.45052,-0.717501 0.24902,-0.134887 0.48857,-0.166861 0.98448,-0.166861 0.1993,0 0.42923,0.0045 0.73419,0.01669 -0.50777,2.153237 -0.92214,3.536212 -1.26814,4.154837 -0.11155,0.196539 -0.22511,0.312787 -0.3671,0.38378 -0.14198,0.07099 -0.32928,0.100116 -0.61738,0.100116 -0.20625,0 -0.37279,-0.0167 -0.68413,-0.05006 -0.011,-0.0019 -0.0224,-0.0019 -0.0334,0 -0.006,-4.54e-4 -0.0111,-4.54e-4 -0.0167,0 -0.006,0.0049 -0.0118,0.0105 -0.0167,0.01669 -0.012,0.0035 -0.0233,0.0091 -0.0334,0.01669 l -0.53396,0.767561 c -0.008,0.01001 -0.0132,0.02132 -0.0167,0.03337 -4.4e-4,0.0056 -4.4e-4,0.01113 0,0.01669 -0.002,0.01105 -0.002,0.02232 0,0.03337 -4.4e-4,0.0056 -4.4e-4,0.01113 0,0.01669 0.005,0.0062 0.0105,0.01179 0.0167,0.01669 0.008,0.01357 0.0198,0.025 0.0334,0.03337 0.005,0.0062 0.0105,0.01179 0.0167,0.01669 0.011,0.0019 0.0223,0.0019 0.0334,0 0.3009,0.02229 0.45661,0.03337 0.61739,0.03337 0.48681,0 0.80964,-0.06055 1.11797,-0.250291 0.58361,-0.345406 1.15619,-1.168262 1.51843,-2.119134 0.15976,-0.429335 0.26739,-0.846487 0.61739,-2.252622 l 0.31703,1.318201 c 0.3238,1.384494 0.60125,2.220346 0.98448,2.986811 0.69073,1.404115 1.70448,2.102447 3.05356,2.102447 0.57933,10e-7 1.00519,-0.103925 1.51844,-0.400466 0.006,4.55e-4 0.0111,4.55e-4 0.0166,0 0.006,-0.0049 0.0118,-0.0105 0.0167,-0.01669 0.01,-0.01494 0.0156,-0.0322 0.0167,-0.05006 4.5e-4,-0.0056 4.5e-4,-0.01113 0,-0.01669 0.002,-0.01105 0.002,-0.02232 0,-0.03337 l -0.26698,-1.001165 c -0.005,-0.0062 -0.0105,-0.01179 -0.0167,-0.01669 -0.004,-0.01205 -0.009,-0.02336 -0.0166,-0.03337 -0.01,-0.0076 -0.0213,-0.01321 -0.0334,-0.01669 -0.006,-4.54e-4 -0.0111,-4.54e-4 -0.0167,0 -0.011,-0.0019 -0.0223,-0.0019 -0.0334,0 -0.006,-4.54e-4 -0.0112,-4.54e-4 -0.0167,0 -0.006,0.0049 -0.0118,0.0105 -0.0167,0.01669 -0.0136,0.0084 -0.025,0.0198 -0.0334,0.03337 -0.006,0.0049 -0.0118,0.0105 -0.0166,0.01669 -0.15516,0.365721 -0.23163,0.511128 -0.3671,0.667444 -0.18374,0.224573 -0.423,0.350407 -0.66744,0.350407 -0.64202,0 -1.26419,-0.495394 -1.81879,-1.53512 0.18467,-0.932695 0.29241,-1.381636 0.56733,-2.536286 0.47849,-1.936246 0.7327,-2.711555 1.0846,-3.437335 0.11224,-0.224488 0.2262,-0.376116 0.36709,-0.467211 0.14089,-0.09109 0.30666,-0.133488 0.55064,-0.133488 0.0829,0 0.13414,-0.0047 0.28367,0.01669 0.006,4.55e-4 0.0111,4.55e-4 0.0166,0 0.011,0.0019 0.0224,0.0019 0.0334,0 0.0196,-0.0058 0.0371,-0.01748 0.05,-0.03337 4.5e-4,-0.0056 4.5e-4,-0.01113 0,-0.01669 l 0.40047,-0.734187 c 0.006,-0.0049 0.0118,-0.0105 0.0167,-0.01669 4.5e-4,-0.0056 4.5e-4,-0.01113 0,-0.01669 0.002,-0.01105 0.002,-0.02232 0,-0.03337 4.5e-4,-0.0056 4.5e-4,-0.01113 0,-0.01669 -0.005,-0.0062 -0.0105,-0.01179 -0.0167,-0.01669 -0.008,-0.01357 -0.0198,-0.025 -0.0334,-0.03337 -0.005,-0.0062 -0.0105,-0.01179 -0.0166,-0.01669 -0.006,-4.54e-4 -0.0111,-4.54e-4 -0.0167,0 -0.12709,-0.01059 -0.24428,-0.03337 -0.35041,-0.03337 z"
       inkscape:connector-curvature="0"
       id="path6290"
       style="font-size:20.85853386px;font-style:italic;font-variant:normal;font-weight:bold;font-stretch:normal;text-align:start;line-height:100%;writing-mode:lr-tb;text-anchor:start;fill:#000000;fill-opacity:1;stroke:none;display:inline;font-family:URW Chancery L;-inkscape-font-specification:URW Chancery L Bold Italic" />
    <path
       d="m 110.23543,46.635954 c 0,1.057306 0.50675,2.3685 1.25171,3.239734 0.88544,1.011927 2.291,1.564644 3.8656,1.564644 0.80347,3e-6 1.4439,-0.17911 1.87757,-0.552228 0.43367,-0.373115 0.64427,-0.933228 0.64427,-1.638274 0,-1.153934 -0.5503,-2.408613 -1.4542,-3.35018 -0.88473,-0.910007 -2.18276,-1.398976 -3.68152,-1.398976 -0.79132,2e-6 -1.40885,0.187397 -1.84076,0.552228 -0.4319,0.364832 -0.66267,0.901537 -0.66267,1.583052 z m 0.69949,0.699488 c 0,-0.517247 0.20461,-0.902142 0.57063,-1.178085 0.36602,-0.275943 0.90566,-0.441783 1.60146,-0.441783 0.91206,4e-6 1.95489,0.263971 2.63229,0.644266 0.90605,0.512636 1.41738,1.307492 1.41738,2.172094 0,0.53583 -0.2062,0.94367 -0.58904,1.233308 -0.38284,0.289641 -0.95465,0.46019 -1.6935,0.46019 -1.1145,1e-6 -2.11052,-0.32219 -2.81636,-0.846749 -0.70585,-0.524557 -1.12286,-1.247767 -1.12286,-2.043241 z"
       inkscape:connector-curvature="0"
       id="path6288"
       style="font-size:20.85853386px;font-style:italic;font-variant:normal;font-weight:bold;font-stretch:normal;text-align:start;line-height:100%;writing-mode:lr-tb;text-anchor:start;fill:#000000;fill-opacity:1;stroke:none;display:inline;font-family:URW Chancery L;-inkscape-font-specification:URW Chancery L Bold Italic" />
    <path
       d="m 185.76301,48.666765 -0.25679,-0.825413 0,-0.03668 c -0.0176,-1.168039 -0.26703,-1.934042 -0.82541,-2.641322 -0.50179,-0.627235 -1.03545,-0.935468 -1.70586,-0.935468 -0.32979,0 -0.59183,0.04597 -1.02717,0.22011 -0.007,0.0054 -0.013,0.01154 -0.0184,0.01834 -0.0149,0.0092 -0.0275,0.02177 -0.0367,0.03668 -0.007,0.0054 -0.013,0.01154 -0.0184,0.01835 -5e-4,0.0061 -5e-4,0.01224 0,0.01834 -0.002,0.01214 -0.002,0.02454 0,0.03668 -5e-4,0.0061 -5e-4,0.01224 0,0.01835 0.006,0.0068 0.0115,0.01296 0.0184,0.01834 l 0.58696,0.898782 c 0.009,0.01492 0.0218,0.02748 0.0367,0.03668 0.006,0.0068 0.0115,0.01296 0.0184,0.01835 0.006,4.99e-4 0.0122,4.99e-4 0.0184,0 0.0122,0.002 0.0246,0.002 0.0367,0 0.006,4.99e-4 0.0122,4.99e-4 0.0184,0 0.38534,-0.108378 0.69787,-0.165083 0.99049,-0.165083 0.45068,0 0.73004,0.146291 0.93547,0.495247 0.19099,0.324418 0.29612,0.862464 0.33017,1.5958 l -2.58629,-0.641989 -0.0184,0 c -0.17301,-0.169926 -0.25483,-0.269799 -0.47691,-0.458562 -0.006,-5e-4 -0.0122,-5e-4 -0.0184,0 -0.006,-0.0068 -0.0115,-0.01296 -0.0184,-0.01834 -0.006,-5e-4 -0.0122,-5e-4 -0.0184,0 -0.0122,-0.002 -0.0246,-0.002 -0.0367,0 -0.006,-5e-4 -0.0122,-5e-4 -0.0184,0 -0.007,0.0054 -0.013,0.01154 -0.0184,0.01834 -0.0149,0.0092 -0.0275,0.02176 -0.0367,0.03668 -0.007,0.0054 -0.013,0.01154 -0.0184,0.01835 -0.002,0.01214 -0.002,0.02454 0,0.03668 l 0,0.183426 c -0.12235,-0.02938 -0.25254,-0.05972 -0.34851,-0.09171 -0.006,-4.99e-4 -0.0122,-4.99e-4 -0.0184,0 -0.94131,-0.232271 -1.45418,-0.390546 -1.74254,-0.58696 -0.28836,-0.196415 -0.37422,-0.420923 -0.49525,-0.917126 -0.001,-0.01963 -0.008,-0.0386 -0.0184,-0.05503 l -0.40354,-0.476906 c -0.011,-0.0083 -0.0234,-0.01453 -0.0367,-0.01834 -0.006,-0.0068 -0.0115,-0.01295 -0.0184,-0.01834 -0.0122,-0.002 -0.0246,-0.002 -0.0367,0 -0.006,-5e-4 -0.0122,-5e-4 -0.0184,0 -0.0196,0.0012 -0.0386,0.0075 -0.055,0.01834 -0.007,0.0054 -0.0129,0.01154 -0.0184,0.01834 -0.0108,0.01642 -0.0171,0.0354 -0.0184,0.05503 -5e-4,0.0061 -5e-4,0.01224 0,0.01835 -0.0122,0.343571 -0.0184,0.605976 -0.0184,0.697016 l -0.0184,1.100551 c 0,0.366047 -0.006,0.692673 -0.0184,0.972152 -0.049,1.481129 -0.055,1.49036 -0.055,2.017677 0,0.323327 0.0172,0.540831 0.11006,0.752043 0.0929,0.211212 0.24252,0.401287 0.49524,0.678673 0.2538,0.284749 0.45736,0.492936 0.64199,0.623645 0.18463,0.130711 0.36355,0.183426 0.53193,0.183426 0.0611,0 0.1746,0.0045 0.31183,-0.03668 0.007,-0.0054 0.013,-0.01154 0.0184,-0.01834 0.0149,-0.0092 0.0275,-0.02176 0.0367,-0.03668 0.007,-0.0054 0.0129,-0.01154 0.0184,-0.01834 0.002,-0.01214 0.002,-0.02454 0,-0.03668 5e-4,-0.0061 5e-4,-0.01224 0,-0.01834 5e-4,-0.0061 5e-4,-0.01224 0,-0.01834 l -0.34851,-0.935468 c -0.006,-0.02161 -0.0192,-0.04078 -0.0367,-0.05503 -0.011,-0.0083 -0.0234,-0.01453 -0.0367,-0.01834 -0.006,-5e-4 -0.0122,-5e-4 -0.0184,0 -0.0122,-0.002 -0.0246,-0.002 -0.0367,0 -0.25859,0.03695 -0.34248,0.05503 -0.44022,0.05503 -0.10971,0 -0.19217,-0.01492 -0.23845,-0.03668 -0.0463,-0.02176 -0.0617,-0.05315 -0.0917,-0.128397 -0.0599,-0.150482 -0.0917,-0.478324 -0.0917,-1.063867 l 0,-2.916459 c 0.86732,0.935253 1.09658,1.079327 2.56795,1.467401 0.0297,0.484059 0.0512,0.651272 0.0734,0.917126 0.0122,0.268889 0.0184,0.428016 0.0184,0.495248 -5e-4,0.0061 -5e-4,0.01224 0,0.01834 -7.1e-4,-0.0033 -0.001,0.05241 0,0.110055 0.001,0.05764 0.0119,0.142272 0.0184,0.22011 -5e-4,0.0061 -5e-4,0.01224 0,0.01834 0.006,0.0068 0.0115,0.01296 0.0184,0.01835 -5e-4,0.0061 -5e-4,0.01224 0,0.01834 0.1605,0.222221 0.19651,0.257896 0.36685,0.476905 0.006,0.0068 0.0115,0.01296 0.0184,0.01834 0.011,0.0083 0.0234,0.01453 0.0367,0.01834 0.006,5e-4 0.0122,5e-4 0.0184,0 0.0122,0.002 0.0246,0.002 0.0367,0 0.006,5e-4 0.0122,5e-4 0.0184,0 0.007,-0.0054 0.013,-0.01154 0.0184,-0.01834 0.0149,-0.0092 0.0275,-0.02176 0.0367,-0.03668 0.007,-0.0054 0.013,-0.01154 0.0184,-0.01835 0.002,-0.01214 0.002,-0.02454 0,-0.03668 l 0,-2.054362 2.5496,0.641988 0,0.293481 c 0.0244,0.513324 0.0367,0.911148 0.0367,0.972153 0,0.231614 -0.012,0.323776 -0.11007,0.421878 -0.0981,0.0981 -0.3133,0.202375 -0.71535,0.36685 -0.007,0.0054 -0.0129,0.01154 -0.0184,0.01834 -0.0149,0.0092 -0.0275,0.02177 -0.0367,0.03668 -0.007,0.0054 -0.0129,0.01154 -0.0184,0.01835 -5e-4,0.0061 -5e-4,0.01224 0,0.01834 -0.002,0.01214 -0.002,0.02454 0,0.03668 -5e-4,0.0061 -5e-4,0.01224 0,0.01835 0.004,0.01325 0.01,0.02568 0.0184,0.03668 0.006,4.99e-4 0.0122,4.99e-4 0.0184,0 l 0.82541,0.807071 c 0.006,0.0068 0.0115,0.01295 0.0184,0.01834 0.006,0.0068 0.0115,0.01296 0.0184,0.01835 0.0121,0.002 0.0246,0.002 0.0367,0 0.006,5e-4 0.0122,5e-4 0.0184,0 0.14624,-0.01994 0.27031,-0.05695 0.36685,-0.128398 0.0965,-0.07144 0.15984,-0.174681 0.20177,-0.293479 5e-4,-0.0061 5e-4,-0.01224 0,-0.01835 5e-4,-0.0061 5e-4,-0.01224 0,-0.01834 l -0.055,-2.476239 0.11006,0.03668 c 0.0122,0.002 0.0246,0.002 0.0367,0 0.006,5e-4 0.0122,5e-4 0.0184,0 0.0196,-0.0012 0.0386,-0.0075 0.055,-0.01835 0.0174,-0.01425 0.0303,-0.03342 0.0367,-0.05503 0.002,-0.01214 0.002,-0.02454 0,-0.03668 0.002,-0.01214 0.002,-0.02454 0,-0.03668 z"
       inkscape:connector-curvature="0"
       id="path6286"
       style="font-size:20.85853386px;font-style:italic;font-variant:normal;font-weight:bold;font-stretch:normal;text-align:start;line-height:100%;writing-mode:lr-tb;text-anchor:start;fill:#000000;fill-opacity:1;stroke:none;display:inline;font-family:URW Chancery L;-inkscape-font-specification:URW Chancery L Bold Italic" />
    <path
       d="m 146.59386,85.233259 c 0.60791,0 1.24378,-0.330163 1.72586,-0.796548 0.48208,-0.466392 0.81315,-1.071021 0.81315,-1.659491 0,-0.265355 -0.0665,-0.499636 -0.21574,-0.730174 -0.14925,-0.23053 -0.37107,-0.460718 -0.69698,-0.71358 -0.37336,-0.296491 -0.59841,-0.515276 -0.73017,-0.71358 -0.13177,-0.198297 -0.18255,-0.372077 -0.18255,-0.614004 0,-0.798911 0.78269,-1.526728 1.69268,-1.526728 0.44798,0 0.90233,0.191285 1.17823,0.497842 0.22059,0.2416 0.31089,0.448645 0.39828,0.92931 -4.5e-4,0.0057 -4.5e-4,0.0111 0,0.01659 0.005,0.0064 0.0105,0.01175 0.0166,0.01659 0.008,0.01353 0.0197,0.02484 0.0332,0.03317 0.005,0.0064 0.0105,0.01175 0.0166,0.01659 0.006,4.55e-4 0.011,4.55e-4 0.0166,0 0.011,0.0021 0.0222,0.0021 0.0332,0 0.006,4.55e-4 0.0111,4.55e-4 0.0166,0 0.012,-0.0036 0.0232,-0.009 0.0332,-0.01659 l 0.16595,-0.116162 c 0.008,-0.01 0.0132,-0.02121 0.0166,-0.03317 0.006,-0.005 0.0117,-0.01046 0.0166,-0.01659 l 0.49784,-1.161642 c 4.6e-4,-0.0057 4.6e-4,-0.01111 0,-0.01659 0.002,-0.01096 0.002,-0.02221 0,-0.03317 4.6e-4,-0.0057 4.6e-4,-0.01111 0,-0.01659 -0.005,-0.0064 -0.0105,-0.01174 -0.0166,-0.01659 4.5e-4,-0.0057 4.5e-4,-0.01111 0,-0.01659 -0.4046,-0.543316 -0.96642,-0.796547 -1.70928,-0.796547 -0.87534,0 -1.74211,0.356494 -2.38965,0.896116 -0.64755,0.539629 -1.07867,1.264243 -1.07867,2.007984 0,0.240219 0.058,0.437299 0.21573,0.647199 0.1578,0.209893 0.40143,0.440665 0.81315,0.763361 0.40266,0.314409 0.64021,0.511994 0.76337,0.680393 0.12315,0.168398 0.14935,0.30267 0.14935,0.531036 0,0.668968 -0.50655,1.244617 -1.09527,1.244617 -0.21774,0 -0.32277,-0.03595 -0.41487,-0.149357 -0.0921,-0.113435 -0.17238,-0.33165 -0.23232,-0.680392 4.4e-4,-0.0057 4.4e-4,-0.01111 0,-0.01659 -0.005,-0.0064 -0.0105,-0.01175 -0.0166,-0.01659 -0.008,-0.01353 -0.0197,-0.02484 -0.0332,-0.03317 -0.005,-0.0064 -0.0105,-0.01175 -0.0166,-0.01659 -0.006,-4.48e-4 -0.0111,-4.48e-4 -0.0166,0 -0.011,-0.0021 -0.0222,-0.0021 -0.0332,0 -0.006,-4.48e-4 -0.0111,-4.48e-4 -0.0166,0 -0.006,0.005 -0.0117,0.01046 -0.0166,0.01659 -0.006,-4.56e-4 -0.011,-4.56e-4 -0.0166,0 l -0.73017,0.514436 c -0.0158,0.01288 -0.0273,0.03025 -0.0332,0.04976 -0.002,0.01096 -0.002,0.02221 0,0.03317 -4.6e-4,0.0057 -4.6e-4,0.01111 0,0.01659 0.0349,0.32061 0.14653,0.573977 0.3319,0.746775 0.18535,0.172791 0.43569,0.248917 0.74676,0.248917 z"
       inkscape:connector-curvature="0"
       id="path6284"
       style="font-size:20.85853386px;font-style:italic;font-variant:normal;font-weight:bold;font-stretch:normal;text-align:start;line-height:100%;writing-mode:lr-tb;text-anchor:start;fill:#000000;fill-opacity:1;stroke:none;display:inline;font-family:URW Chancery L;-inkscape-font-specification:URW Chancery L Bold Italic" />
    <path
       d="m 30.875,31.75 5.03125,10.0625 c 0.08495,-0.16942 0.157332,-0.334624 0.25,-0.5 L 31.53125,32.09375 30.875,31.75 z m 34.25,0 -0.65625,0.34375 -4.625,9.21875 c 0.09267,0.165376 0.165053,0.33058 0.25,0.5 L 65.125,31.75 z M 48,39.09375 c -4.865524,0 -8.8125,3.946983 -8.8125,8.8125 0,0.167938 0.02197,0.334374 0.03125,0.5 0.25961,-4.632905 4.083665,-8.3125 8.78125,-8.3125 4.697585,-2e-6 8.52164,3.679593 8.78125,8.3125 0.0093,-0.165626 0.03125,-0.332061 0.03125,-0.5 0,-4.865519 -3.946976,-8.812502 -8.8125,-8.8125 z m -33.4375,9.3125 -2.40625,0.5 23.1875,4.84375 c 0.162806,0.423637 0.358154,0.819428 0.5625,1.21875 l 0.25,-0.5 C 35.846294,53.913145 35.574371,53.350099 35.34375,52.75 L 14.5625,48.40625 z m 66.875,0 L 60.65625,52.75 c -0.230621,0.600099 -0.502544,1.163145 -0.8125,1.71875 l 0.25,0.5 c 0.204346,-0.399322 0.399694,-0.795113 0.5625,-1.21875 l 23.1875,-4.84375 -2.40625,-0.5 z M 41.4375,59.75 31.53125,64.65625 30.875,66 41.4375,60.75 c 0.555609,0.309967 1.118655,0.58188 1.71875,0.8125 L 48,84.75 52.84375,61.5625 C 53.443845,61.33188 54.006904,61.059967 54.5625,60.75 L 65.125,66 64.46875,64.65625 54.5625,59.75 c -0.555596,0.309967 -1.118655,0.58188 -1.71875,0.8125 L 48,83.75 43.15625,60.5625 C 42.556155,60.33188 41.993109,60.059967 41.4375,59.75 z"
       inkscape:connector-curvature="0"
       id="path4164"
       style="opacity:0.2;fill:#ffffff;fill-opacity:1;fill-rule:nonzero;stroke:none;display:inline" />
    <path
       d="M 48,12.03125 43.15625,35.25 c -0.595098,0.228698 -1.167369,0.474491 -1.71875,0.78125 L 30.875,30.75 l 0.65625,1.34375 9.90625,4.9375 C 41.988881,36.724491 42.561152,36.478698 43.15625,36.25 L 48,13.03125 52.84375,36.25 c 0.595098,0.228698 1.167369,0.474491 1.71875,0.78125 L 64.46875,32.09375 65.125,30.75 54.5625,36.03125 C 54.011119,35.724491 53.438848,35.478698 52.84375,35.25 L 48,12.03125 z M 35.90625,41.8125 c -0.203934,0.406732 -0.397513,0.820687 -0.5625,1.25 l -23.1875,4.84375 2.40625,0.5 20.78125,-4.34375 c 0.233711,-0.608139 0.49736,-1.187601 0.8125,-1.75 l -0.25,-0.5 z m 24.1875,0 -0.25,0.5 c 0.315153,0.562399 0.578789,1.141861 0.8125,1.75 l 20.78125,4.34375 2.40625,-0.5 -23.1875,-4.84375 c -0.164987,-0.429313 -0.358565,-0.843268 -0.5625,-1.25 z m -20.875,6.59375 c -0.0093,0.165626 -0.03125,0.332062 -0.03125,0.5 0,4.86552 3.946976,8.812498 8.8125,8.8125 4.865524,0 8.8125,-3.946977 8.8125,-8.8125 0,-0.167938 -0.02197,-0.334374 -0.03125,-0.5 -0.25961,4.63291 -4.083665,8.3125 -8.78125,8.3125 -4.697585,-2e-6 -8.52164,-3.679592 -8.78125,-8.3125 z m -3.3125,6.5625 L 30.875,65 l 0.65625,-0.34375 4.625,-9.1875 c -0.09114,-0.163378 -0.164882,-0.333667 -0.25,-0.5 z m 24.1875,0 c -0.08512,0.166333 -0.158856,0.336622 -0.25,0.5 l 4.625,9.1875 L 65.125,65 60.09375,54.96875 z"
       inkscape:connector-curvature="0"
       id="path4173"
       style="opacity:0.2;fill:#000000;fill-opacity:1;fill-rule:nonzero;stroke:none;display:inline" />
    <g
       id="g4209">
      <path
         d="M 68.34375,11.65625 A 0.80733087,0.80733087 0 0 0 68.25,11.6875 c -0.843306,0.361316 -1.378601,1.048268 -1.78125,1.65625 -0.402649,0.607982 -0.718653,1.167755 -1.0625,1.53125 a 0.80733087,0.80733087 0 0 0 -0.0625,0.09375 c -7.418887,10.271752 -14.948352,20.50627 -22.3125,30.8125 a 0.80733087,0.80733087 0 0 0 -0.09375,0.125 C 37.382228,58.382645 31.774731,70.900479 26.25,83.375 a 0.80733087,0.80733087 0 0 0 -0.03125,0.0625 c -0.333625,1.075595 0.358404,2.081964 1.1875,2.46875 0.414548,0.193393 0.861067,0.286834 1.34375,0.1875 0.469172,-0.09655 0.949634,-0.389049 1.25,-0.84375 0.0035,-0.0053 -0.0035,-0.02589 0,-0.03125 l 0.03125,0 C 38.039395,74.124806 46.141208,63.064533 54.09375,51.9375 a 0.80733087,0.80733087 0 0 0 0.09375,-0.125 C 59.75565,39.312292 65.357444,26.792103 70.90625,14.28125 a 0.80733087,0.80733087 0 0 0 0.0625,-0.1875 c 0.2153,-1.449647 -1.106756,-2.68708 -2.53125,-2.4375 a 0.80733087,0.80733087 0 0 0 -0.09375,0 z"
         id="path4154"
         style="opacity:0.05;fill:#000000;fill-opacity:1;fill-rule:evenodd;stroke:none" />
      <path
         d="m 68.5625,12.4375 c -1.232542,0.528085 -1.676923,2.053895 -2.572494,3.000641 C 58.56835,25.713727 51.047294,35.949864 43.6875,46.25 38.13153,58.727963 32.5236,71.215533 27,83.6875 c -0.41935,1.35197 1.593841,2.290799 2.34375,1.09375 8.018809,-11.109091 16.136592,-22.179008 24.09375,-33.3125 5.568715,-12.501477 11.170858,-24.991208 16.71875,-37.5 0.138103,-0.92987 -0.676692,-1.691924 -1.59375,-1.53125 z"
         inkscape:connector-curvature="0"
         id="path4148"
         style="opacity:0.07999998;fill:#000000;fill-opacity:1;fill-rule:evenodd;stroke:none" />
      <path
         d="m 68.78125,13.125 a 0.61862622,0.61862622 0 0 0 -0.4375,0.25 l -23.9375,33 a 0.61862622,0.61862622 0 0 0 -0.0625,0.125 l -16.625,37.25 a 0.61862622,0.61862622 0 0 0 1.0625,0.625 l 23.9375,-33.03125 a 0.61862622,0.61862622 0 0 0 0.0625,-0.125 L 69.40625,14 a 0.61862622,0.61862622 0 0 0 -0.625,-0.875 z"
         id="path4144"
         style="opacity:0.12000002;fill:#000000;fill-opacity:1;fill-rule:evenodd;stroke:none" />
      <path
         d="m 68.84375,13.75 -23.9375,33 L 28.28125,84 52.21875,50.96875 68.84375,13.75 z"
         inkscape:connector-curvature="0"
         id="path4113"
         style="opacity:0.3;fill:#000000;fill-opacity:1;fill-rule:evenodd;stroke:none" />
      <g
         transform="matrix(0.73161185,0.4223963,-0.4223963,0.73161185,28.776714,-25.98914)"
         id="g5968"
         style="display:inline">
        <g
           id="g5928">
          <path
             d="m 69,64 -10,0 5,-48 5,48 z"
             inkscape:connector-curvature="0"
             id="path5923"
             style="fill:url(#linearGradient5974);fill-opacity:1;fill-rule:evenodd;stroke:none" />
          <path
             d="m 69,63.999997 -10,0 L 64,112 69,63.999997 z"
             inkscape:connector-curvature="0"
             id="path5926"
             style="fill:url(#linearGradient5976);fill-opacity:1;fill-rule:evenodd;stroke:none" />
        </g>
        <path
           d="m 65.503089,63.920891 a 1.7404202,1.7404202 0 1 1 -3.480841,0 1.7404202,1.7404202 0 1 1 3.480841,0 z"
           transform="matrix(1.1491478,0,0,1.1491478,-9.2727304,-9.454551)"
           id="path5958"
           style="fill:url(#radialGradient5978);fill-opacity:1;fill-rule:evenodd;stroke:none" />
      </g>
    </g>
  </g>
  <g
     id="layer6"
     style="display:none">
    <path
       d="M 47.999999,21 44.35135,38.467907 c -0.448096,0.172203 -0.884654,0.361922 -1.299832,0.592904 l -7.935815,-3.967905 3.967908,7.93581 C 38.846307,43.45219 38.643879,43.893435 38.4679,44.351351 L 21,48 38.4679,51.648649 c 0.173653,0.451861 0.38232,0.881472 0.615711,1.299831 l -3.967908,7.935811 7.935815,-3.967905 c 0.418352,0.233398 0.847973,0.442059 1.299832,0.615709 L 47.999999,75 51.648647,57.532095 c 0.451859,-0.17365 0.88148,-0.382311 1.299832,-0.615709 l 7.935815,3.967905 -3.967908,-7.935811 c 0.233391,-0.418359 0.442058,-0.84797 0.615711,-1.299831 L 75,48 57.532097,44.351351 C 57.356118,43.893435 57.15369,43.45219 56.916386,43.028716 l 3.967908,-7.93581 -7.935815,3.967905 C 52.533301,38.829829 52.096743,38.64011 51.648647,38.467907 L 47.999999,21 z m 0,20.36402 c 3.66364,0 6.635982,2.972344 6.635982,6.63598 0,3.66364 -2.972342,6.63598 -6.635982,6.63598 -3.663641,-1e-6 -6.635983,-2.972343 -6.635983,-6.63598 0,-3.663634 2.972342,-6.63598 6.635983,-6.63598 z"
       inkscape:connector-curvature="0"
       id="path6231-8"
       style="fill:url(#radialGradient6260-3);fill-opacity:1;fill-rule:nonzero;stroke:none;display:inline" />
    <path
       d="m 52.53862,10.835584 c -0.51471,0 -1.04739,0.344774 -1.63524,1.034025 -0.27321,0.318589 -0.46156,0.636822 -0.65076,1.167445 -0.1892,0.530625 -0.37766,1.281765 -0.65075,2.484993 -0.11127,0.52267 -0.22801,1.050562 -0.35041,1.584392 -0.005,0.02588 -0.0651,0.215824 -0.10012,0.350233 -0.43816,-0.907747 -0.65409,-1.616343 -1.73535,-5.653775 -0.005,-0.0062 -0.0105,-0.01178 -0.0167,-0.01668 -0.004,-0.01204 -0.009,-0.02335 -0.0167,-0.03335 -0.01,-0.0076 -0.0213,-0.01321 -0.0334,-0.01668 -0.006,-4.54e-4 -0.0111,-4.54e-4 -0.0166,0 -0.011,-0.0019 -0.0224,-0.0019 -0.0334,0 -0.006,-4.54e-4 -0.0111,-4.54e-4 -0.0167,0 -0.006,0.0049 -0.0118,0.0105 -0.0166,0.01668 -0.006,0.0049 -0.0118,0.01049 -0.0167,0.01668 l -0.33372,0.316879 c -0.23103,-0.01895 -0.39584,-0.03335 -0.58402,-0.03335 -0.6807,0 -1.11839,0.126343 -1.53512,0.450301 -0.73237,0.571878 -1.23477,1.384721 -1.23477,2.05137 0,0.294585 0.062,0.612935 0.26698,1.034023 0.008,0.01356 0.0198,0.02499 0.0334,0.03335 0.01,0.0076 0.0213,0.0132 0.0334,0.01668 0.006,4.55e-4 0.0111,4.55e-4 0.0167,0 0.011,0.0019 0.0224,0.0019 0.0334,0 0.006,4.55e-4 0.0111,4.55e-4 0.0167,0 0.006,-0.0049 0.0118,-0.01049 0.0167,-0.01668 l 0.78425,-0.517012 c 0.0136,-0.0084 0.025,-0.01979 0.0334,-0.03335 0.006,-0.0049 0.0118,-0.0105 0.0167,-0.01668 4.6e-4,-0.0056 4.6e-4,-0.01112 0,-0.01668 0.002,-0.01104 0.002,-0.02231 0,-0.03335 4.6e-4,-0.0056 4.6e-4,-0.01112 0,-0.01668 4.6e-4,-0.0056 4.6e-4,-0.01112 0,-0.01668 -0.27695,-0.586852 -0.36709,-0.82747 -0.36709,-1.084057 0,-0.295442 0.16844,-0.566103 0.45052,-0.717146 0.24902,-0.134819 0.48857,-0.166778 0.98448,-0.166778 0.1993,0 0.42923,0.0045 0.73419,0.01668 -0.50777,2.152167 -0.92214,3.534455 -1.26814,4.152773 -0.11155,0.196441 -0.22511,0.312631 -0.3671,0.383589 -0.14198,0.07095 -0.32928,0.100067 -0.61738,0.100067 -0.20625,0 -0.37279,-0.01669 -0.68413,-0.05004 -0.011,-0.0019 -0.0224,-0.0019 -0.0334,0 -0.006,-4.54e-4 -0.0111,-4.54e-4 -0.0167,0 -0.006,0.0049 -0.0118,0.0105 -0.0167,0.01668 -0.012,0.0035 -0.0234,0.0091 -0.0334,0.01668 l -0.53396,0.76718 c -0.008,0.01 -0.0132,0.02131 -0.0167,0.03335 -4.4e-4,0.0056 -4.4e-4,0.01112 0,0.01668 -0.002,0.01104 -0.002,0.02232 0,0.03335 -4.4e-4,0.0056 -4.4e-4,0.01112 0,0.01668 0.005,0.0062 0.0105,0.01178 0.0167,0.01668 0.008,0.01356 0.0198,0.02499 0.0334,0.03335 0.005,0.0062 0.0105,0.01178 0.0167,0.01668 0.011,0.0019 0.0223,0.0019 0.0334,0 0.3009,0.02228 0.45661,0.03335 0.61739,0.03335 0.48681,0 0.80964,-0.06052 1.11797,-0.250166 0.58361,-0.345234 1.15619,-1.167682 1.51843,-2.118082 0.15976,-0.429122 0.26739,-0.846067 0.61739,-2.251503 l 0.31703,1.317546 c 0.3238,1.383807 0.60125,2.219244 0.98448,2.985327 0.69073,1.403418 1.70448,2.101404 3.05356,2.101404 0.57933,0 1.00519,-0.103875 1.51844,-0.400268 0.006,4.54e-4 0.0111,4.54e-4 0.0166,0 0.006,-0.0049 0.0118,-0.0105 0.0167,-0.01668 0.01,-0.01493 0.0156,-0.03218 0.0167,-0.05003 4.5e-4,-0.0056 4.5e-4,-0.01112 0,-0.01668 0.002,-0.01104 0.002,-0.02231 0,-0.03335 l -0.26698,-1.000668 c -0.005,-0.0062 -0.0105,-0.01178 -0.0167,-0.01668 -0.004,-0.01204 -0.009,-0.02335 -0.0166,-0.03335 -0.01,-0.0076 -0.0213,-0.0132 -0.0334,-0.01668 -0.006,-4.55e-4 -0.0111,-4.55e-4 -0.0167,0 -0.011,-0.0019 -0.0223,-0.0019 -0.0334,0 -0.006,-4.55e-4 -0.0112,-4.55e-4 -0.0167,0 -0.006,0.0049 -0.0118,0.0105 -0.0167,0.01668 -0.0136,0.0084 -0.025,0.01979 -0.0334,0.03335 -0.006,0.0049 -0.0118,0.01049 -0.0166,0.01668 -0.15516,0.365539 -0.23163,0.510875 -0.3671,0.667112 -0.18374,0.224462 -0.423,0.350234 -0.66744,0.350234 -0.64202,0 -1.26419,-0.495149 -1.81879,-1.534357 0.18467,-0.932233 0.29241,-1.380951 0.56733,-2.535026 0.47849,-1.935285 0.7327,-2.710209 1.0846,-3.435627 0.11224,-0.224377 0.2262,-0.375931 0.36709,-0.466979 0.14089,-0.09106 0.30666,-0.133423 0.55064,-0.133423 0.0829,0 0.13414,-0.0047 0.28367,0.01668 0.006,4.54e-4 0.0111,4.54e-4 0.0166,0 0.011,0.0019 0.0224,0.0019 0.0334,0 0.0196,-0.0058 0.0371,-0.01747 0.05,-0.03335 4.5e-4,-0.0056 4.5e-4,-0.01112 0,-0.01668 l 0.40047,-0.733824 c 0.006,-0.0049 0.0118,-0.01049 0.0167,-0.01668 4.5e-4,-0.0056 4.5e-4,-0.01113 0,-0.01668 0.002,-0.01104 0.002,-0.02231 0,-0.03335 4.5e-4,-0.0056 4.5e-4,-0.01112 0,-0.01668 -0.005,-0.0062 -0.0105,-0.01178 -0.0167,-0.01668 -0.008,-0.01356 -0.0198,-0.02499 -0.0334,-0.03335 -0.005,-0.0062 -0.0105,-0.01179 -0.0166,-0.01668 -0.006,-4.54e-4 -0.0111,-4.54e-4 -0.0167,0 -0.12709,-0.01058 -0.24428,-0.03335 -0.35041,-0.03335 z"
       inkscape:connector-curvature="0"
       id="path6290-9"
       style="font-size:20.85853386px;font-style:italic;font-variant:normal;font-weight:bold;font-stretch:normal;text-align:start;line-height:100%;writing-mode:lr-tb;text-anchor:start;fill:#ffffff;fill-opacity:1;stroke:none;display:inline;font-family:URW Chancery L;-inkscape-font-specification:URW Chancery L Bold Italic" />
    <path
       d="m 9.75806,46.68698 c 0,1.056781 0.506747,2.367323 1.251715,3.238125 0.885435,1.011425 2.290995,1.563866 3.865592,1.563866 0.803477,4e-6 1.443904,-0.179021 1.877573,-0.551952 0.433667,-0.372931 0.644265,-0.932766 0.644265,-1.63746 0,-1.153361 -0.550292,-2.407418 -1.454199,-3.348516 -0.884728,-0.909555 -2.182754,-1.398281 -3.681516,-1.398281 -0.791315,10e-7 -1.408849,0.187304 -1.840758,0.551953 -0.431907,0.36465 -0.662672,0.901089 -0.662672,1.582265 z m 0.699488,0.699141 c 0,-0.51699 0.204612,-0.901693 0.570634,-1.1775 0.366023,-0.275806 0.905653,-0.441563 1.60146,-0.441563 0.912056,3e-6 1.954885,0.263839 2.632283,0.643945 0.906054,0.512383 1.417387,1.306843 1.417387,2.171016 0,0.535564 -0.206208,0.9432 -0.589045,1.232694 -0.382837,0.289498 -0.954647,0.459962 -1.693497,0.459962 -1.114496,2e-6 -2.110513,-0.32203 -2.81636,-0.846328 -0.705847,-0.524297 -1.122862,-1.247148 -1.122862,-2.042226 z"
       inkscape:connector-curvature="0"
       id="path6288-1"
       style="font-size:20.85853386px;font-style:italic;font-variant:normal;font-weight:bold;font-stretch:normal;text-align:start;line-height:100%;writing-mode:lr-tb;text-anchor:start;fill:#ffffff;fill-opacity:1;stroke:none;display:inline;font-family:URW Chancery L;-inkscape-font-specification:URW Chancery L Bold Italic" />
    <path
       d="m 85.28564,48.716783 -0.25679,-0.825003 0,-0.03666 c -0.0176,-1.167457 -0.26703,-1.933081 -0.82541,-2.640008 -0.50179,-0.626924 -1.03545,-0.935004 -1.70586,-0.935004 -0.32979,0 -0.59183,0.04595 -1.02717,0.22 -0.007,0.0054 -0.013,0.01153 -0.0184,0.01833 -0.0149,0.0092 -0.0275,0.02176 -0.0367,0.03666 -0.007,0.0054 -0.013,0.01153 -0.0184,0.01833 -5e-4,0.0061 -5e-4,0.01223 0,0.01833 -0.002,0.01213 -0.002,0.02453 0,0.03666 -5e-4,0.0061 -5e-4,0.01223 0,0.01833 0.006,0.0068 0.0115,0.01295 0.0184,0.01834 l 0.58696,0.898337 c 0.009,0.01491 0.0218,0.02747 0.0367,0.03666 0.006,0.0068 0.0115,0.01295 0.0184,0.01833 0.006,5e-4 0.0122,5e-4 0.0184,0 0.0122,0.002 0.0246,0.002 0.0367,0 0.006,5e-4 0.0122,5e-4 0.0184,0 0.38534,-0.108324 0.69787,-0.165001 0.99049,-0.165001 0.45068,0 0.73004,0.14622 0.93547,0.495002 0.19099,0.324257 0.29612,0.862035 0.33017,1.595006 l -2.58629,-0.641669 -0.0184,0 c -0.17301,-0.169842 -0.25483,-0.269665 -0.47691,-0.458335 -0.006,-5e-4 -0.0122,-5e-4 -0.0184,0 -0.006,-0.0068 -0.0115,-0.01295 -0.0184,-0.01833 -0.006,-4.98e-4 -0.0122,-4.98e-4 -0.0184,0 -0.0122,-0.002 -0.0246,-0.002 -0.0367,0 -0.006,-4.98e-4 -0.0122,-4.98e-4 -0.0184,0 -0.007,0.0054 -0.013,0.01154 -0.0184,0.01833 -0.0149,0.0092 -0.0275,0.02175 -0.0367,0.03666 -0.007,0.0054 -0.013,0.01153 -0.0184,0.01833 -0.002,0.01213 -0.002,0.02453 0,0.03666 l 0,0.183333 c -0.12235,-0.02937 -0.25254,-0.05969 -0.34851,-0.09166 -0.006,-4.99e-4 -0.0122,-4.99e-4 -0.0184,0 -0.94131,-0.232156 -1.45418,-0.390352 -1.74254,-0.586668 -0.28836,-0.196318 -0.37422,-0.420714 -0.49525,-0.91667 -0.001,-0.01962 -0.008,-0.03859 -0.0184,-0.055 l -0.40354,-0.476669 c -0.011,-0.0083 -0.0234,-0.01452 -0.0367,-0.01833 -0.006,-0.0068 -0.0115,-0.01295 -0.0184,-0.01834 -0.0122,-0.002 -0.0246,-0.002 -0.0367,0 -0.006,-5e-4 -0.0122,-5e-4 -0.0184,0 -0.0196,0.0012 -0.0386,0.0075 -0.055,0.01834 -0.007,0.0054 -0.0129,0.01153 -0.0184,0.01833 -0.0108,0.01641 -0.0171,0.03538 -0.0184,0.055 -5e-4,0.0061 -5e-4,0.01223 0,0.01833 -0.0122,0.343399 -0.0184,0.605675 -0.0184,0.696669 l -0.0184,1.100004 c 0,0.365866 -0.006,0.692329 -0.0184,0.97167 -0.049,1.480392 -0.055,1.48962 -0.055,2.016675 0,0.323166 0.0172,0.540561 0.11006,0.751669 0.0929,0.211107 0.24252,0.401088 0.49524,0.678336 0.2538,0.284607 0.45736,0.49269 0.64199,0.623335 0.18463,0.130645 0.36355,0.183334 0.53193,0.183334 0.0611,10e-7 0.1746,0.0045 0.31183,-0.03666 0.007,-0.0054 0.013,-0.01153 0.0184,-0.01834 0.0149,-0.0092 0.0275,-0.02175 0.0367,-0.03666 0.007,-0.0054 0.0129,-0.01154 0.0184,-0.01833 0.002,-0.01213 0.002,-0.02453 0,-0.03666 5e-4,-0.0061 5e-4,-0.01223 0,-0.01834 5e-4,-0.0061 5e-4,-0.01223 0,-0.01833 L 79.5988,50.568433 c -0.006,-0.0216 -0.0192,-0.04076 -0.0367,-0.055 -0.011,-0.0083 -0.0234,-0.01452 -0.0367,-0.01833 -0.006,-4.99e-4 -0.0122,-4.99e-4 -0.0184,0 -0.0122,-0.002 -0.0246,-0.002 -0.0367,0 -0.25859,0.03693 -0.34248,0.055 -0.44022,0.055 -0.10971,0 -0.19217,-0.01491 -0.23845,-0.03666 -0.0463,-0.02175 -0.0617,-0.05312 -0.0917,-0.128334 -0.0599,-0.150406 -0.0917,-0.478085 -0.0917,-1.063337 l 0,-2.915011 c 0.86732,0.934789 1.09658,1.078791 2.56795,1.466672 0.0297,0.483818 0.0512,0.650948 0.0734,0.91667 0.0122,0.268755 0.0184,0.427803 0.0184,0.495002 -5e-4,0.0061 -5e-4,0.01223 0,0.01834 -7.1e-4,-0.0033 -10e-4,0.05238 0,0.11 0.001,0.05761 0.0119,0.142202 0.0184,0.220001 -5e-4,0.0061 -5e-4,0.01223 0,0.01834 0.006,0.0068 0.0115,0.01295 0.0184,0.01833 -5e-4,0.0061 -5e-4,0.01223 0,0.01834 0.1605,0.222111 0.19651,0.257769 0.36685,0.476668 0.006,0.0068 0.0115,0.01295 0.0184,0.01834 0.011,0.0083 0.0234,0.01452 0.0367,0.01833 0.006,4.99e-4 0.0122,4.99e-4 0.0184,0 0.0122,0.002 0.0246,0.002 0.0367,0 0.006,4.99e-4 0.0122,4.99e-4 0.0184,0 0.007,-0.0054 0.013,-0.01153 0.0184,-0.01833 0.0149,-0.0092 0.0275,-0.02175 0.0367,-0.03666 0.007,-0.0054 0.013,-0.01153 0.0184,-0.01834 0.002,-0.01213 0.002,-0.02453 0,-0.03666 l 0,-2.053341 2.5496,0.641669 0,0.293335 c 0.0244,0.513069 0.0367,0.910695 0.0367,0.97167 0,0.2315 -0.012,0.323616 -0.11007,0.421668 -0.0981,0.09805 -0.3133,0.202275 -0.71535,0.366668 -0.007,0.0054 -0.0129,0.01153 -0.0184,0.01833 -0.0149,0.0092 -0.0275,0.02176 -0.0367,0.03666 -0.007,0.0054 -0.0129,0.01153 -0.0184,0.01833 -5e-4,0.0061 -5e-4,0.01223 0,0.01834 -0.002,0.01213 -0.002,0.02453 0,0.03666 -5e-4,0.0061 -5e-4,0.01223 0,0.01833 0.004,0.01324 0.01,0.02567 0.0184,0.03666 0.006,4.98e-4 0.0122,4.98e-4 0.0184,0 l 0.82541,0.80667 c 0.006,0.0068 0.0115,0.01295 0.0184,0.01834 0.006,0.0068 0.0115,0.01295 0.0184,0.01833 0.0121,0.002 0.0246,0.002 0.0367,0 0.006,4.99e-4 0.0122,4.99e-4 0.0184,0 0.14624,-0.01993 0.27031,-0.05692 0.36685,-0.128334 0.0965,-0.07141 0.15984,-0.174595 0.20177,-0.293334 5e-4,-0.0061 5e-4,-0.01223 0,-0.01833 5e-4,-0.0061 5e-4,-0.01223 0,-0.01833 l -0.055,-2.475009 0.11006,0.03666 c 0.0122,0.002 0.0246,0.002 0.0367,0 0.006,4.99e-4 0.0122,4.99e-4 0.0184,0 0.0196,-0.0012 0.0386,-0.0075 0.055,-0.01834 0.0174,-0.01424 0.0303,-0.0334 0.0367,-0.055 0.002,-0.01214 0.002,-0.02453 0,-0.03666 0.002,-0.01213 0.002,-0.02453 0,-0.03666 z"
       inkscape:connector-curvature="0"
       id="path6286-3"
       style="font-size:20.85853386px;font-style:italic;font-variant:normal;font-weight:bold;font-stretch:normal;text-align:start;line-height:100%;writing-mode:lr-tb;text-anchor:start;fill:#ffffff;fill-opacity:1;stroke:none;display:inline;font-family:URW Chancery L;-inkscape-font-specification:URW Chancery L Bold Italic" />
    <path
       d="m 46.11649,85.265109 c 0.60791,0 1.24378,-0.329999 1.72586,-0.796152 0.48208,-0.46616 0.81315,-1.070489 0.81315,-1.658666 0,-0.265224 -0.0665,-0.499388 -0.21574,-0.729812 -0.14925,-0.230415 -0.37107,-0.460489 -0.69698,-0.713225 -0.37336,-0.296344 -0.59841,-0.51502 -0.73017,-0.713226 -0.13177,-0.198198 -0.18255,-0.371892 -0.18255,-0.613699 0,-0.798514 0.78269,-1.525969 1.69268,-1.525969 0.44798,0 0.90233,0.19119 1.17823,0.497594 0.22059,0.24148 0.31089,0.448423 0.39828,0.928849 -4.5e-4,0.0057 -4.5e-4,0.01109 0,0.01658 0.005,0.0064 0.0105,0.01174 0.0166,0.01658 0.008,0.01352 0.0197,0.02483 0.0332,0.03315 0.005,0.0064 0.0105,0.01174 0.0166,0.01658 0.006,4.54e-4 0.011,4.54e-4 0.0166,0 0.011,0.0021 0.0222,0.0021 0.0332,0 0.006,4.54e-4 0.0111,4.54e-4 0.0166,0 0.012,-0.0036 0.0232,-0.009 0.0332,-0.01658 l 0.16595,-0.116104 c 0.008,-0.01 0.0132,-0.0212 0.0166,-0.03315 0.006,-0.005 0.0117,-0.01045 0.0166,-0.01658 l 0.49784,-1.161065 c 4.6e-4,-0.0057 4.6e-4,-0.0111 0,-0.01658 0.002,-0.01095 0.002,-0.0222 0,-0.03315 4.6e-4,-0.0057 4.6e-4,-0.0111 0,-0.01658 -0.005,-0.0064 -0.0105,-0.01173 -0.0166,-0.01658 4.5e-4,-0.0057 4.5e-4,-0.01111 0,-0.01658 -0.4046,-0.543046 -0.96642,-0.796152 -1.70928,-0.796152 -0.87534,0 -1.74211,0.356317 -2.38965,0.895671 -0.64755,0.539361 -1.07867,1.263615 -1.07867,2.006987 0,0.240099 0.058,0.437082 0.21573,0.646877 0.1578,0.209789 0.40143,0.440446 0.81315,0.762982 0.40266,0.314253 0.64021,0.51174 0.76337,0.680055 0.12315,0.168314 0.14935,0.30252 0.14935,0.530772 0,0.668636 -0.50655,1.243999 -1.09527,1.243999 -0.21774,0 -0.32277,-0.03593 -0.41487,-0.149283 -0.0921,-0.113379 -0.17238,-0.331485 -0.23232,-0.680054 4.4e-4,-0.0057 4.4e-4,-0.0111 0,-0.01658 -0.005,-0.0064 -0.0105,-0.01174 -0.0166,-0.01658 -0.008,-0.01352 -0.0197,-0.02483 -0.0332,-0.03315 -0.005,-0.0064 -0.0105,-0.01174 -0.0166,-0.01658 -0.006,-4.47e-4 -0.0111,-4.47e-4 -0.0166,0 -0.011,-0.0021 -0.0222,-0.0021 -0.0332,0 -0.006,-4.47e-4 -0.0111,-4.47e-4 -0.0166,0 -0.006,0.005 -0.0117,0.01045 -0.0166,0.01658 -0.006,-4.56e-4 -0.011,-4.56e-4 -0.0166,0 l -0.73017,0.51418 c -0.0158,0.01287 -0.0273,0.03024 -0.0332,0.04974 -0.002,0.01095 -0.002,0.0222 0,0.03315 -4.6e-4,0.0057 -4.6e-4,0.01111 0,0.01658 0.0349,0.320451 0.14653,0.573692 0.3319,0.746404 0.18535,0.172705 0.43569,0.248793 0.74676,0.248793 z"
       inkscape:connector-curvature="0"
       id="path6284-3"
       style="font-size:20.85853386px;font-style:italic;font-variant:normal;font-weight:bold;font-stretch:normal;text-align:start;line-height:100%;writing-mode:lr-tb;text-anchor:start;fill:#ffffff;fill-opacity:1;stroke:none;display:inline;font-family:URW Chancery L;-inkscape-font-specification:URW Chancery L Bold Italic" />
    <g
       transform="matrix(0.91204467,0,0,0.91204467,3.7044598,4.3714188)"
       id="g4209-3"
       style="display:inline">
      <path
         d="M 68.34375,11.65625 A 0.80733087,0.80733087 0 0 0 68.25,11.6875 c -0.843306,0.361316 -1.378601,1.048268 -1.78125,1.65625 -0.402649,0.607982 -0.718653,1.167755 -1.0625,1.53125 a 0.80733087,0.80733087 0 0 0 -0.0625,0.09375 c -7.418887,10.271752 -14.948352,20.50627 -22.3125,30.8125 a 0.80733087,0.80733087 0 0 0 -0.09375,0.125 C 37.382228,58.382645 31.774731,70.900479 26.25,83.375 a 0.80733087,0.80733087 0 0 0 -0.03125,0.0625 c -0.333625,1.075595 0.358404,2.081964 1.1875,2.46875 0.414548,0.193393 0.861067,0.286834 1.34375,0.1875 0.469172,-0.09655 0.949634,-0.389049 1.25,-0.84375 0.0035,-0.0053 -0.0035,-0.02589 0,-0.03125 l 0.03125,0 C 38.039395,74.124806 46.141208,63.064533 54.09375,51.9375 a 0.80733087,0.80733087 0 0 0 0.09375,-0.125 C 59.75565,39.312292 65.357444,26.792103 70.90625,14.28125 a 0.80733087,0.80733087 0 0 0 0.0625,-0.1875 c 0.2153,-1.449647 -1.106756,-2.68708 -2.53125,-2.4375 a 0.80733087,0.80733087 0 0 0 -0.09375,0 z"
         id="path4154-1"
         style="opacity:0.05;fill:#000000;fill-opacity:1;fill-rule:evenodd;stroke:none" />
      <path
         d="m 68.5625,12.4375 c -1.232542,0.528085 -1.676923,2.053895 -2.572494,3.000641 C 58.56835,25.713727 51.047294,35.949864 43.6875,46.25 38.13153,58.727963 32.5236,71.215533 27,83.6875 c -0.41935,1.35197 1.593841,2.290799 2.34375,1.09375 8.018809,-11.109091 16.136592,-22.179008 24.09375,-33.3125 5.568715,-12.501477 11.170858,-24.991208 16.71875,-37.5 0.138103,-0.92987 -0.676692,-1.691924 -1.59375,-1.53125 z"
         inkscape:connector-curvature="0"
         id="path4148-3"
         style="opacity:0.07999998;fill:#000000;fill-opacity:1;fill-rule:evenodd;stroke:none" />
      <path
         d="m 68.78125,13.125 a 0.61862622,0.61862622 0 0 0 -0.4375,0.25 l -23.9375,33 a 0.61862622,0.61862622 0 0 0 -0.0625,0.125 l -16.625,37.25 a 0.61862622,0.61862622 0 0 0 1.0625,0.625 l 23.9375,-33.03125 a 0.61862622,0.61862622 0 0 0 0.0625,-0.125 L 69.40625,14 a 0.61862622,0.61862622 0 0 0 -0.625,-0.875 z"
         id="path4144-8"
         style="opacity:0.12000002;fill:#000000;fill-opacity:1;fill-rule:evenodd;stroke:none" />
      <path
         d="m 68.84375,13.75 -23.9375,33 L 28.28125,84 52.21875,50.96875 68.84375,13.75 z"
         inkscape:connector-curvature="0"
         id="path4113-2"
         style="opacity:0.3;fill:#000000;fill-opacity:1;fill-rule:evenodd;stroke:none" />
      <g
         transform="matrix(0.73161185,0.4223963,-0.4223963,0.73161185,28.776714,-25.98914)"
         id="g5968-5"
         style="display:inline">
        <g
           id="g5928-7">
          <path
             d="m 69,64 -10,0 5,-48 5,48 z"
             inkscape:connector-curvature="0"
             id="path5923-0"
             style="fill:url(#linearGradient5974-7);fill-opacity:1;fill-rule:evenodd;stroke:none" />
          <path
             d="m 69,63.999997 -10,0 L 64,112 69,63.999997 z"
             inkscape:connector-curvature="0"
             id="path5926-8"
             style="fill:url(#linearGradient5976-3);fill-opacity:1;fill-rule:evenodd;stroke:none" />
        </g>
        <path
           d="m 65.503089,63.920891 a 1.7404202,1.7404202 0 1 1 -3.480841,0 1.7404202,1.7404202 0 1 1 3.480841,0 z"
           transform="matrix(1.1491478,0,0,1.1491478,-9.2727304,-9.454551)"
           id="path5958-8"
           style="fill:url(#radialGradient5978-1);fill-opacity:1;fill-rule:evenodd;stroke:none" />
      </g>
    </g>
  </g>
  <g
     id="layer7">
    <g
       transform="matrix(0.70710678,0.70710678,-0.70710678,0.70710678,48.020021,-19.873366)"
       id="g4572">
      <g
         transform="matrix(0.98983765,0,0,0.77048859,-15.350324,-1.2826605)"
         id="g5928-7-4" />
    </g>
  </g>
  <path
     d="m 36.27388,6.0768667 c 1.65012,1.7670752 0.11259,4.7179073 2.60148,4.6886153 1.2119,1.366358 -2.41545,0.407589 0.2036,1.460683 1.5061,0.945902 -1.5934,1.486351 0.27178,2.335203 -2.14968,0.884589 0.34844,4.62675 1.94512,5.563311 2.62795,1.764259 1.1622,-3.735306 4.0945,-4.021389 1.59336,-1.450605 4.39184,-2.381786 6.37927,-3.841058 -1.9423,-0.125745 -3.07647,-1.089835 -1.23702,-1.687049 3.38545,2.766487 0.8489,-1.3101665 -1.02514,-1.9556443 1.81336,-0.4600022 3.57698,-0.1231478 3.32537,-1.316419 1.91632,-1.1180403 -1.84226,-1.4790194 -3.18394,-1.226253 -4.45834,0 -8.91667,0 -13.37502,0 z M 8.472035,7.2309877 C 6.022275,7.7875661 5.851393,12.456325 8.313685,9.8638258 8.918028,8.799313 11.710762,7.5164274 8.472035,7.2309877 z m 11.446494,0.162298 C 18.506269,9.1592838 20.12344,10.575181 21.29844,8.4211751 22.13015,7.521696 20.680509,7.4262416 19.918529,7.3932857 z m 3.528951,0.3967291 c -2.728751,1.0085865 -0.6726,3.3605132 -0.60506,3.8835932 2.87457,0.793045 4.47323,-0.518507 5.56069,1.723068 2.73516,1.257081 -0.0538,3.441422 -1.08054,4.010291 1.84934,-1.284389 5.40416,3.491976 4.47226,0.968498 -1.11179,-0.647361 2.98515,1.039955 0.85962,-1.063955 -1.95607,-2.513196 0.15527,-1.125134 0.97995,-0.538573 2.80488,-2.005751 -3.1736,-2.248183 -1.68123,-4.312341 C 30.64542,11.615932 28.93028,9.0570944 26.6145,9.5572622 25.06426,11.156032 26.40035,6.0736705 24.12589,8.6169515 24.008,10.038633 24.08299,11.842655 23.42018,9.379703 c -0.44407,-0.4311686 0.764,-1.4335478 0.0273,-1.5896882 z m -5.56489,0.018037 C 16.050988,8.2950033 16.149361,10.268514 18.401546,10.480087 19.17298,9.7788725 18.70804,7.9408377 17.88259,7.8080516 z M 10.734187,8.439211 c -2.379078,0.4495055 -1.407992,1.97926 -0.679572,2.410094 -2.944918,0.588249 4.49569,0.75183 0.79268,1.124401 -3.08079,0.981181 2.966663,2.137159 3.958767,0.973788 3.804388,0.741953 0.136908,-2.428607 -0.197041,-4.1472901 -1.612752,-1.3802812 -0.06365,3.1819221 -1.521868,0.1470036 -0.508787,0.9012341 -2.126528,0.1328061 -2.352966,-0.5079966 z M 86.33531,8.6375754 c -3.19244,0.996351 1.98418,4.7562486 0.69765,1.3356514 C 86.90479,9.5601932 87.32115,8.4688859 86.33531,8.6375754 z M 19.66969,10.152359 c -2.294083,1.719257 2.91599,3.141001 -0.658894,4.421812 -0.53602,-1.596676 -1.458276,0.798848 -3.503467,-0.490589 -3.515899,1.167425 -5.313868,-0.608102 -8.257534,-1.825171 -1.768029,-0.175508 -1.103781,1.339666 -1.220884,2.758353 0,3.920715 0,7.84143 0,11.762144 1.733489,1.454418 0.676329,0.641701 0,0.240547 0.951467,2.584132 -0.419572,6.361581 3.330851,7.864719 0.637563,0.943077 3.312882,4.960836 3.43622,3.758683 -1.341214,-1.120074 -2.717353,-4.477999 -0.447896,-1.485142 2.032756,2.844927 4.774753,4.690141 8.780474,5.367137 2.19006,0.594071 3.99117,2.636206 5.91712,2.186891 1.08905,2.289438 -3.22741,4.487962 0.14491,6.623345 1.76052,2.161756 4.71618,3.5796 3.11596,6.614555 -1.11907,2.964077 -0.63993,6.193786 -1.60779,8.955456 -0.30039,1.681009 2.93804,5.947674 2.65747,2.531093 0.94557,-2.374282 0.92064,-4.986775 3.14759,-6.668175 3.04711,0.01924 0.58237,-2.61291 3.607,-2.269064 1.84565,-1.929206 2.38023,-4.230666 5.49491,-4.996721 0.37205,-2.341761 5.17882,-5.928212 0.21314,-6.839951 -1.34961,-0.530475 -4.8245,-0.721223 -4.55894,-0.982969 0.53803,-2.323646 -4.49347,-2.985155 -6.63424,-3.935832 -2.81075,-1.591025 -7.03423,2.643085 -8.02451,-1.005248 -0.59088,-1.14788 -2.75133,-1.166495 -1.75843,-2.93773 -1.78939,1.419218 -5.28934,0.987882 -4.373028,-1.752904 1.391566,-2.308275 6.735638,-2.41749 7.646258,0.358949 -1.26435,-3.062082 2.44394,-5.445794 4.50253,-7.624282 0.41916,-1.041261 2.90974,-1.935863 2.05268,-0.551977 1.46015,-0.042 3.67328,-2.143295 1.07941,-1.17344 -0.0367,-1.916308 -2.27298,-1.371344 -2.998,-1.099241 1.34377,-1.700816 8.24498,-0.770963 5.35509,-3.551051 -2.2393,-0.723574 -2.05302,-4.945987 -4.318,-2.593663 0.1906,-1.449367 -4.61001,-4.286487 -4.50525,-1.856062 0.58599,2.174776 0.10714,4.680067 -1.13992,6.105597 -0.26025,-3.186771 -7.075686,-2.482447 -6.199431,-5.878309 1.269451,-1.618482 2.752851,-3.856626 2.894181,-3.655283 2.27505,-0.692691 4.10459,-2.707589 1.46783,-4.032171 -0.14092,1.15446 -1.98303,3.536346 -1.72366,0.655532 -1.705794,1.612813 -1.3162,-2.566408 -2.91375,-2.999838 z m 54.45,1.118054 c -3.99594,0.779501 -5.58007,3.823084 -7.55681,6.34399 -2.91386,1.047666 -2.80294,5.546944 0.45241,4.109936 0.87128,1.213508 -0.60951,3.126229 1.92831,1.539502 2.047,-2.160246 0.35794,-5.654115 3.84142,-7.016283 0.25374,1.059157 -3.21334,5.014082 0.83699,4.364019 3.66156,0.110176 -2.66185,0.290941 -0.88099,2.156121 -1.85027,-0.875458 -0.88884,2.390971 -3.30399,1.630836 -2.09232,0.907602 -3.46433,-0.421405 -2.98503,-1.877296 -1.64596,0.765737 0.5177,2.925963 -2.33958,3.05579 -0.64005,1.812486 -5.90338,1.539299 -2.9102,3.3849 1.3289,2.746528 -4.95154,0.172177 -3.16854,3.468101 1.52545,3.25917 4.7224,-1.07994 6.01943,-1.918262 2.50248,-1.547997 6.21066,2.639492 3.95877,2.795136 2.52508,-0.27017 2.00619,-2.185236 -0.0169,-2.926642 -1.09268,-2.259917 3.45903,1.108322 3.2066,2.241382 1.60595,2.398156 0.94462,-2.455345 2.57885,-0.306561 -0.1908,2.266647 6.57418,0.53295 3.34439,3.421773 -2.77688,0.446025 -5.51013,-0.570886 -7.90083,0.08046 -2.22511,-0.0157 -2.11347,-1.911579 -2.92358,-2.386355 -2.83037,0.183381 -6.32794,0.162644 -8.22277,1.986066 -2.04902,2.241909 -5.00383,5.375935 -2.77053,8.238574 2.23487,4.242096 7.77718,0.22004 10.96298,2.72533 0.94693,1.044593 -0.8206,2.286305 1.2967,3.417792 0.79672,2.410267 -0.90448,4.698772 1.05227,7.002836 1.01184,2.166856 1.63978,5.410085 5.40576,3.430055 3.98577,-1.912761 2.92416,-5.43883 6.21294,-7.39185 -2.60227,-4.016182 3.18363,-5.777157 4.62722,-9.03757 -3.15395,0.368217 -5.96377,-2.139408 -6.72579,-4.663384 -1.32494,-1.225951 -0.98368,-3.033621 0.49633,-0.730579 2.03426,1.571939 2.07821,6.236292 5.84127,3.836783 1.72035,-0.573829 6.4186,-2.762762 2.67511,-3.7589 -2.41304,1.393765 -5.07525,-4.164613 -1.53182,-0.940634 2.57602,0.871545 4.37996,1.390822 4.37996,-1.498795 0,-7.785238 0,-15.675964 0,-23.513947 -0.8024,0.6539 -2.8638,1.861579 -3.90428,1.059093 -1.79037,0.198818 -4.15389,2.97685 -3.59125,0.291395 -1.55624,-0.08218 -0.27858,2.407872 -2.41664,2.47751 -0.21529,1.280161 -2.15987,0.23706 -1.42943,1.452733 -1.50065,-0.848883 -2.77067,-3.529093 0.18614,-1.846819 4.39103,-1.050544 -2.8956,-3.420174 -3.45804,-3.992939 0.94545,-0.180649 -1.02861,-0.966365 -1.26681,-0.703292 z m -36.23968,0.70329 c -1.4615,0.971111 2.77854,1.15399 0,0 z m -19.522371,0.52296 c -1.634647,1.36356 2.603281,1.253505 0,0 z m 9.478421,1.352485 c -1.23786,1.617118 1.82903,0.597034 0,0 z m 27.10058,1.911514 c -1.44923,1.330534 -3.36205,-0.350167 -3.39323,0.793458 0.26265,0.34555 1.31467,2.811842 3.61945,0.991822 1.23698,-0.41589 0.74995,-1.464301 -0.22622,-1.78528 z M 24.08089,16.55412 c -2.74881,1.91438 4.6683,2.090764 0.58232,0.21956 l -0.58232,-0.219561 z m 36.2623,5.30174 c -1.97909,1.029176 0.94943,3.214823 -0.0431,4.241507 -1.2401,1.72305 4.60832,-0.121373 1.48461,-1.496091 -0.22257,-1.181096 -1.83002,-2.622169 -1.44154,-2.745416 z m -1.33468,2.073809 c -2.75739,0.621679 -0.62595,3.831377 0.35067,0.808326 0.0549,-0.175263 0.12936,-0.814186 -0.35067,-0.808326 z m -22.0786,2.326276 c -2.56522,1.394909 -0.39843,2.787252 1.48156,2.159623 -0.38596,-0.841621 -1.46417,-1.371892 -1.48156,-2.159623 z m 48.4553,2.344307 c 1.27995,0.515129 -2.34554,1.395109 -0.0498,2.301708 1.33598,1.252885 0.83231,3.942358 -1.3392,2.03887 0.40344,-2.125242 -2.94356,-3.712391 1.38903,-4.340578 z m -6.58287,0.01804 c -0.17366,1.365384 3.69395,3.48772 -0.47504,2.795137 -2.20475,0.206247 -5.50697,-0.05372 -2.72943,-2.244571 0.87765,-0.420174 3.18206,1.449649 1.98292,-0.298101 0.42513,-0.02163 0.82107,-0.149608 1.22155,-0.252465 z m -12.73591,2.957433 c -1.60811,0.826194 1.11199,1.459711 0,0 z m -40.37941,7.700143 c -0.27111,0.72128 5.08598,1.452244 1.38929,0.296665 l -0.55107,-0.154692 -0.83822,-0.141977 z m 4.16235,1.027889 c -1.62491,1.315495 3.34782,0.393016 0,0 z m 54.3369,12.064166 c -3.53072,0.07264 -3.06133,7.335214 -0.60013,3.037876 0.2334,-0.932525 1.1689,-2.163333 0.60013,-3.037876 z"
     inkscape:connector-curvature="0"
     id="path3144"
     style="opacity:0.8;fill:url(#radialGradient3931);fill-opacity:1;stroke:none;display:inline" />
  <rect
     width="79.818199"
     height="73.8442"
     rx="5.7013001"
     ry="0"
     x="7.4934998"
     y="16.1558"
     id="rect3925"
     style="fill:#ffffff;fill-opacity:1;fill-rule:nonzero;stroke:none;display:inline" />
  <rect
     width="84"
     height="68.168907"
     rx="6"
     ry="0"
     x="6"
     y="21.831099"
     id="rect3923"
     style="fill:#3080ca;fill-opacity:1;fill-rule:nonzero;stroke:none;display:inline" />
  <path
     style="opacity:0.8;fill:url(#radialGradient3153);fill-opacity:1;stroke:none;display:inline"
     id="path3927"
     inkscape:connector-curvature="0"
     d="m 36.27388,22.20702 c 1.65012,1.77523 0.11259,4.73968 2.60148,4.710253 1.2119,1.372663 -2.41545,0.409469 0.2036,1.467424 1.5061,0.950267 -1.5934,1.49321 0.27178,2.345979 -2.14968,0.888672 0.34844,4.648102 1.94512,5.588985 2.62795,1.772401 1.1622,-3.752544 4.0945,-4.039947 1.59336,-1.457299 4.39184,-2.392778 6.37927,-3.858784 -1.9423,-0.126325 -3.07647,-1.094864 -1.23702,-1.694834 3.38545,2.779253 0.8489,-1.316213 -1.02514,-1.96467 1.81336,-0.462125 3.57698,-0.123716 3.32537,-1.322494 1.91632,-1.1232 -1.84226,-1.485845 -3.18394,-1.231912 -4.45834,0 -8.91667,0 -13.37502,0 z M 8.472035,23.366467 c -2.44976,0.559147 -2.620642,5.249452 -0.15835,2.644988 0.604343,-1.069425 3.397077,-2.358231 0.15835,-2.644988 z m 11.446494,0.163047 c -1.41226,1.774148 0.204911,3.196579 1.379911,1.032633 0.83171,-0.90363 -0.617931,-0.999525 -1.379911,-1.032633 z m 3.528951,0.39856 c -2.728751,1.013241 -0.6726,3.376021 -0.60506,3.901516 2.87457,0.796704 4.47323,-0.520901 5.56069,1.731019 2.73516,1.262883 -0.0538,3.457304 -1.08054,4.028798 1.84934,-1.290316 5.40416,3.508092 4.47226,0.972968 -1.11179,-0.650349 2.98515,1.044754 0.85962,-1.068865 -1.95607,-2.524794 0.15527,-1.130326 0.97995,-0.541059 2.80488,-2.015007 -3.1736,-2.258558 -1.68123,-4.332241 -1.30775,-0.848563 -3.02289,-3.419209 -5.33867,-2.916733 -1.55024,1.606148 -0.21415,-3.499668 -2.48861,-0.94465 -0.11789,1.428243 -0.0429,3.24059 -0.70571,0.766271 -0.44407,-0.433158 0.764,-1.440163 0.0273,-1.597024 z m -5.56489,0.01812 c -1.831602,0.489199 -1.733229,2.471817 0.518956,2.684366 0.771434,-0.70445 0.306494,-2.550967 -0.518956,-2.684366 z m -7.148403,0.634072 c -2.379078,0.45158 -1.407992,1.988394 -0.679572,2.421217 -2.944918,0.590963 4.49569,0.755299 0.79268,1.129589 -3.08079,0.98571 2.966663,2.147022 3.958767,0.978282 3.804388,0.745377 0.136908,-2.439814 -0.197041,-4.166429 -1.612752,-1.386651 -0.06365,3.196606 -1.521868,0.147682 -0.508787,0.905393 -2.126528,0.133419 -2.352966,-0.510341 z m 75.601123,0.19928 c -3.19244,1.000949 1.98418,4.778198 0.69765,1.341815 -0.12817,-0.414939 0.28819,-1.511283 -0.69765,-1.341815 z m -66.66562,1.521774 c -2.294083,1.727191 2.91599,3.155496 -0.658894,4.442219 -0.53602,-1.604045 -1.458276,0.802533 -3.503467,-0.492854 -3.515899,1.172813 -5.313868,-0.610908 -8.257534,-1.833594 -1.768029,-0.176318 -1.103781,1.345849 -1.220884,2.771083 0,3.938808 0,7.877617 0,11.816425 1.733489,1.461129 0.676329,0.644662 0,0.241657 0.951467,2.596057 -0.419572,6.390939 3.330851,7.901014 0.637563,0.947428 3.312882,4.983729 3.43622,3.776028 -1.341214,-1.125242 -2.717353,-4.498664 -0.447896,-1.491996 2.032756,2.858057 4.774753,4.711786 8.780474,5.391907 2.19006,0.596811 3.99117,2.648371 5.91712,2.196982 1.08905,2.300004 -3.22741,4.508673 0.14491,6.653911 1.76052,2.171733 4.71618,3.59612 3.11596,6.645081 -1.11907,2.977755 -0.63993,6.22237 -1.60779,8.996784 -0.30039,1.688767 2.93804,5.975122 2.65747,2.542774 0.94557,-2.385239 0.92064,-5.009788 3.14759,-6.698948 3.04711,0.01933 0.58237,-2.624968 3.607,-2.279536 1.84565,-1.938108 2.38023,-4.25019 5.49491,-5.019779 0.37205,-2.352569 5.17882,-5.95557 0.21314,-6.871518 -1.34961,-0.532923 -4.8245,-0.724551 -4.55894,-0.987505 0.53803,-2.334369 -4.49347,-2.998931 -6.63424,-3.953995 -2.81075,-1.598368 -7.03423,2.655282 -8.02451,-1.009887 -0.59088,-1.153178 -2.75133,-1.171879 -1.75843,-2.951287 -1.78939,1.425767 -5.28934,0.99244 -4.373028,-1.760994 1.391566,-2.318927 6.735638,-2.428646 7.646258,0.360606 -1.26435,-3.076213 2.44394,-5.470926 4.50253,-7.659468 0.41916,-1.046066 2.90974,-1.944796 2.05268,-0.554523 1.46015,-0.04219 3.67328,-2.153186 1.07941,-1.178856 -0.0367,-1.925152 -2.27298,-1.377673 -2.998,-1.104314 1.34377,-1.708665 8.24498,-0.77452 5.35509,-3.567439 -2.2393,-0.726913 -2.05302,-4.968812 -4.318,-2.605632 0.1906,-1.456056 -4.61001,-4.306268 -4.50525,-1.864627 0.58599,2.184812 0.10714,4.701664 -1.13992,6.133773 -0.26025,-3.201478 -7.075686,-2.493903 -6.199431,-5.905437 1.269451,-1.625951 2.752851,-3.874423 2.894181,-3.672151 2.27505,-0.695888 4.10459,-2.720084 1.46783,-4.050779 -0.14092,1.159788 -1.98303,3.552666 -1.72366,0.658557 -1.705794,1.620256 -1.3162,-2.578251 -2.91375,-3.013682 z m 54.45,1.123214 c -3.99594,0.783098 -5.58007,3.840727 -7.55681,6.373266 -2.91386,1.052501 -2.80294,5.572543 0.45241,4.128903 0.87128,1.219109 -0.60951,3.140657 1.92831,1.546607 2.047,-2.170215 0.35794,-5.680208 3.84142,-7.048662 0.25374,1.064045 -3.21334,5.037221 0.83699,4.384158 3.66156,0.110684 -2.66185,0.292284 -0.88099,2.166072 -1.85027,-0.879498 -0.88884,2.402005 -3.30399,1.638362 -2.09232,0.91179 -3.46433,-0.42335 -2.98503,-1.88596 -1.64596,0.769271 0.5177,2.939466 -2.33958,3.069892 -0.64005,1.820851 -5.90338,1.546403 -2.9102,3.400521 1.3289,2.759203 -4.95154,0.172971 -3.16854,3.484106 1.52545,3.274211 4.7224,-1.084924 6.01943,-1.927115 2.50248,-1.555141 6.21066,2.651673 3.95877,2.808035 2.52508,-0.271416 2.00619,-2.19532 -0.0169,-2.940148 -1.09268,-2.270345 3.45903,1.113437 3.2066,2.251726 1.60595,2.409224 0.94462,-2.466676 2.57885,-0.307976 -0.1908,2.277108 6.57418,0.53541 3.34439,3.437564 -2.77688,0.448084 -5.51013,-0.57352 -7.90083,0.08083 -2.22511,-0.01578 -2.11347,-1.920401 -2.92358,-2.397368 -2.83037,0.184227 -6.32794,0.163395 -8.22277,1.995232 -2.04902,2.252255 -5.00383,5.400744 -2.77053,8.276594 2.23487,4.261673 7.77718,0.221055 10.96298,2.737907 0.94693,1.049414 -0.8206,2.296855 1.2967,3.433565 0.79672,2.421389 -0.90448,4.720455 1.05227,7.035153 1.01184,2.176855 1.63978,5.435051 5.40576,3.445884 3.98577,-1.921589 2.92416,-5.46393 6.21294,-7.425963 -2.60227,-4.034716 3.18363,-5.803818 4.62722,-9.079277 -3.15395,0.369917 -5.96377,-2.149281 -6.72579,-4.684905 -1.32494,-1.231609 -0.98368,-3.047621 0.49633,-0.73395 2.03426,1.579193 2.07821,6.265071 5.84127,3.854489 1.72035,-0.576477 6.4186,-2.775512 2.67511,-3.776247 -2.41304,1.400197 -5.07525,-4.183832 -1.53182,-0.944975 2.57602,0.875567 4.37996,1.39724 4.37996,-1.505712 0,-7.821166 0,-15.748307 0,-23.622461 -0.8024,0.656918 -2.8638,1.870171 -3.90428,1.063981 -1.79037,0.199735 -4.15389,2.990588 -3.59125,0.292739 -1.55624,-0.08256 -0.27858,2.418985 -2.41664,2.488944 -0.21529,1.286068 -2.15987,0.238154 -1.42943,1.459438 -1.50065,-0.852802 -2.77067,-3.54538 0.18614,-1.855343 4.39103,-1.055392 -2.8956,-3.435957 -3.45804,-4.011365 0.94545,-0.181483 -1.02861,-0.970825 -1.26681,-0.706538 z M 37.88001,28.13107 c -1.4615,0.975592 2.77854,1.159315 0,0 z m -19.522371,0.525373 c -1.634647,1.369852 2.603281,1.25929 0,0 z m 9.478421,1.358727 c -1.23786,1.62458 1.82903,0.599788 0,0 z m 27.10058,1.920334 c -1.44923,1.336675 -3.36205,-0.351782 -3.39323,0.79712 0.26265,0.347146 1.31467,2.824819 3.61945,0.9964 1.23698,-0.41781 0.74995,-1.471059 -0.22622,-1.79352 z m -30.85575,0.79712 c -2.74881,1.923215 4.6683,2.100413 0.58232,0.220574 l -0.58232,-0.220575 z m 36.2623,5.326207 c -1.97909,1.033926 0.94943,3.229659 -0.0431,4.261081 -1.2401,1.731002 4.60832,-0.121932 1.48461,-1.502995 -0.22257,-1.186547 -1.83002,-2.63427 -1.44154,-2.758086 z m -1.33468,2.08338 c -2.75739,0.624547 -0.62595,3.849058 0.35067,0.812056 0.0549,-0.176072 0.12936,-0.817944 -0.35067,-0.812056 z m -22.0786,2.337011 c -2.56522,1.401346 -0.39843,2.800115 1.48156,2.16959 -0.38596,-0.845505 -1.46417,-1.378223 -1.48156,-2.16959 z m 48.4553,2.355126 c 1.27995,0.517506 -2.34554,1.401547 -0.0498,2.31233 1.33598,1.258667 0.83231,3.960551 -1.3392,2.048279 0.40344,-2.135049 -2.94356,-3.729523 1.38903,-4.360609 z m -6.58287,0.01812 c -0.17366,1.371685 3.69395,3.503816 -0.47504,2.808036 -2.20475,0.207199 -5.50697,-0.05397 -2.72943,-2.254929 0.87765,-0.422113 3.18206,1.456339 1.98292,-0.299477 0.42513,-0.02173 0.82107,-0.150298 1.22155,-0.25363 z m -12.73591,2.971081 c -1.60811,0.830007 1.11199,1.466447 0,0 z m -40.37941,7.735683 c -0.27111,0.724608 5.08598,1.458946 1.38929,0.298033 L 26.52524,55.70186 25.68702,55.559228 z m 4.16235,1.032632 c -1.62491,1.321566 3.34782,0.39483 0,0 z m 54.3369,12.119841 c -3.53072,0.07298 -3.06133,7.369065 -0.60013,3.051895 0.2334,-0.936828 1.1689,-2.173316 0.60013,-3.051895 z" />
</svg>
