<?xml version="1.0" encoding="UTF-8" standalone="no"?>
<!-- Created with Inkscape (http://www.inkscape.org/) -->

<svg
   xmlns:dc="http://purl.org/dc/elements/1.1/"
   xmlns:cc="http://creativecommons.org/ns#"
   xmlns:rdf="http://www.w3.org/1999/02/22-rdf-syntax-ns#"
   xmlns:svg="http://www.w3.org/2000/svg"
   xmlns="http://www.w3.org/2000/svg"
   xmlns:sodipodi="http://sodipodi.sourceforge.net/DTD/sodipodi-0.dtd"
   xmlns:inkscape="http://www.inkscape.org/namespaces/inkscape"
   width="48"
   height="48.000019"
   id="svg3109"
   version="1.1"
   inkscape:version="0.48.4 r9939"
   sodipodi:docname="arrow.svg">
  <defs
     id="defs3111">
    <linearGradient
       id="linearGradient3257">
      <stop
         offset="0"
         style="stop-color:#a50000;stop-opacity:1"
         id="stop3259" />
      <stop
         offset="1"
         style="stop-color:#e73800;stop-opacity:1"
         id="stop3261" />
    </linearGradient>
  </defs>
  <sodipodi:namedview
     id="base"
     pagecolor="#ffffff"
     bordercolor="#666666"
     borderopacity="1.0"
     inkscape:pageopacity="0.0"
     inkscape:pageshadow="2"
     inkscape:zoom="11.362319"
     inkscape:cx="8.4934424"
     inkscape:cy="29.16975"
     inkscape:document-units="px"
     inkscape:current-layer="layer1"
     showgrid="false"
     fit-margin-top="0"
     fit-margin-left="0"
     fit-margin-right="0"
     fit-margin-bottom="0"
     inkscape:window-width="1366"
     inkscape:window-height="709"
     inkscape:window-x="0"
     inkscape:window-y="-3"
     inkscape:window-maximized="1">
    <sodipodi:guide
       position="9.0000233,39.000002"
       orientation="30,0"
       id="guide3279" />
    <sodipodi:guide
       position="9.0000233,9.000002"
       orientation="0,30"
       id="guide3281" />
    <sodipodi:guide
       position="39.000023,9.000002"
       orientation="-30,0"
       id="guide3283" />
    <sodipodi:guide
       position="39.000023,39.000002"
       orientation="0,-30"
       id="guide3285" />
  </sodipodi:namedview>
  <metadata
     id="metadata3114">
    <rdf:RDF>
      <cc:Work
         rdf:about="">
        <dc:format>image/svg+xml</dc:format>
        <dc:type
           rdf:resource="http://purl.org/dc/dcmitype/StillImage" />
        <dc:title></dc:title>
      </cc:Work>
    </rdf:RDF>
  </metadata>
  <g
     inkscape:label="Capa 1"
     inkscape:groupmode="layer"
     id="layer1"
     transform="translate(-533.14286,-554.07646)">
    <rect
       style="fill:#1a1a1a;fill-opacity:1;stroke:none"
       id="rect3770"
       width="4.3176465"
       height="22.252472"
       x="-13.814307"
       y="798.31116"
       transform="matrix(0.71021132,-0.70398855,0.70398855,0.71021132,0,0)" />
    <path
       sodipodi:type="star"
       style="fill:#1a1a1a;fill-opacity:1;fill-rule:evenodd;stroke:none"
       id="path3793"
       sodipodi:sides="3"
       sodipodi:cx="9.0000229"
       sodipodi:cy="23.093132"
       sodipodi:r1="11.9039"
       sodipodi:r2="5.951951"
       sodipodi:arg1="-2.3418754"
       sodipodi:arg2="-1.2946779"
       inkscape:flatsided="false"
       inkscape:rounded="0"
       inkscape:randomized="0"
       d="m 0.70408165,14.556142 9.91858135,2.810494 9.918581,2.810495 -7.39325,7.184496 -7.3932507,7.184496 -2.5253317,-9.99499 z"
       transform="matrix(1.084919,0,0,1.084919,541.82443,547.82378)"
       inkscape:transform-center-x="-1.6226395"
       inkscape:transform-center-y="1.4580007" />
  </g>
</svg>
