<?xml version="1.0" encoding="UTF-8" standalone="no"?>
<!-- Created using Karbon, part of Calligra: http://www.calligra.org/karbon -->

<svg
   xmlns:dc="http://purl.org/dc/elements/1.1/"
   xmlns:cc="http://creativecommons.org/ns#"
   xmlns:rdf="http://www.w3.org/1999/02/22-rdf-syntax-ns#"
   xmlns:svg="http://www.w3.org/2000/svg"
   xmlns="http://www.w3.org/2000/svg"
   xmlns:sodipodi="http://sodipodi.sourceforge.net/DTD/sodipodi-0.dtd"
   xmlns:inkscape="http://www.inkscape.org/namespaces/inkscape"
   width="38.4pt"
   height="38.4pt"
   id="svg2"
   version="1.1"
   inkscape:version="0.48.4 r9939"
   sodipodi:docname="distribute-vertical-margin.svg">
  <metadata
     id="metadata14">
    <rdf:RDF>
      <cc:Work
         rdf:about="">
        <dc:format>image/svg+xml</dc:format>
        <dc:type
           rdf:resource="http://purl.org/dc/dcmitype/StillImage" />
        <dc:title></dc:title>
      </cc:Work>
    </rdf:RDF>
  </metadata>
  <sodipodi:namedview
     pagecolor="#ffffff"
     bordercolor="#666666"
     borderopacity="1"
     objecttolerance="10"
     gridtolerance="10"
     guidetolerance="10"
     inkscape:pageopacity="0"
     inkscape:pageshadow="2"
     inkscape:window-width="1680"
     inkscape:window-height="991"
     id="namedview12"
     showgrid="false"
     inkscape:zoom="9.8333329"
     inkscape:cx="9.2555143"
     inkscape:cy="28.430268"
     inkscape:window-x="0"
     inkscape:window-y="-3"
     inkscape:window-maximized="1"
     inkscape:current-layer="svg2">
    <sodipodi:guide
       position="9.5367432e-07,48.000001"
       orientation="47.999999,0"
       id="guide4072" />
    <sodipodi:guide
       position="9.5367432e-07,1.9073486e-06"
       orientation="0,47.999999"
       id="guide4074" />
    <sodipodi:guide
       position="48,1.9073486e-06"
       orientation="-47.999999,0"
       id="guide4076" />
    <sodipodi:guide
       position="48,48.000001"
       orientation="0,-47.999999"
       id="guide4078" />
    <sodipodi:guide
       position="9.000001,39.000001"
       orientation="29.999999,0"
       id="guide4080" />
    <sodipodi:guide
       position="9.000001,9.0000019"
       orientation="0,29.999999"
       id="guide4082" />
    <sodipodi:guide
       position="39,9.0000019"
       orientation="-29.999999,0"
       id="guide4084" />
    <sodipodi:guide
       position="39,39.000001"
       orientation="0,-29.999999"
       id="guide4086" />
    <sodipodi:guide
       position="13.000001,35.000001"
       orientation="21.999999,0"
       id="guide4095" />
    <sodipodi:guide
       position="35,13.000002"
       orientation="-21.999999,0"
       id="guide4099" />
  </sodipodi:namedview>
  <defs
     id="defs4" />
  <rect
     style="fill:#1a1a1a;fill-rule:evenodd"
     y="-39"
     x="-26"
     height="30"
     width="4"
     transform="scale(-1,-1)"
     id="rect3288" />
  <rect
     style="fill:#1a1a1a;fill-rule:evenodd"
     y="9.0169439"
     x="12.6949"
     height="4"
     width="9.0000162"
     id="rect3320"
     transform="matrix(-1.8521e-8,1,1,1.8521e-8,0,0)" />
  <rect
     style="fill:#1a1a1a;fill-rule:evenodd"
     y="8.999999"
     x="29.967793"
     height="9"
     width="9"
     id="rect33201"
     transform="matrix(-1.8521e-8,1,1,1.8521e-8,0,0)" />
  <rect
     transform="matrix(1.8521e-8,1,-1,1.8521e-8,0,0)"
     id="rect3080"
     width="9.0000162"
     height="4"
     x="12.796597"
     y="-39.135597"
     style="fill:#d40000;fill-rule:evenodd" />
  <rect
     transform="matrix(1.8521e-8,1,-1,1.8521e-8,0,0)"
     id="rect3082"
     width="9"
     height="9"
     x="30.069489"
     y="-39.152542"
     style="fill:#d40000;fill-rule:evenodd" />
</svg>
