<?xml version="1.0" encoding="UTF-8" standalone="no"?>
<!-- Created with Inkscape (http://www.inkscape.org/) -->

<svg
   xmlns:dc="http://purl.org/dc/elements/1.1/"
   xmlns:cc="http://creativecommons.org/ns#"
   xmlns:rdf="http://www.w3.org/1999/02/22-rdf-syntax-ns#"
   xmlns:svg="http://www.w3.org/2000/svg"
   xmlns="http://www.w3.org/2000/svg"
   version="1.1"
   width="48"
   height="48"
   id="svg3381">
  <defs
     id="defs3383" />
  <metadata
     id="metadata3386">
    <rdf:RDF>
      <cc:Work
         rdf:about="">
        <dc:format>image/svg+xml</dc:format>
        <dc:type
           rdf:resource="http://purl.org/dc/dcmitype/StillImage" />
        <dc:title></dc:title>
      </cc:Work>
    </rdf:RDF>
  </metadata>
  <g
     transform="translate(-364.57143,-499.79075)"
     id="layer1">
    <text
       x="326.62131"
       y="591.73639"
       transform="scale(1.1435014,0.87450705)"
       id="text2994"
       xml:space="preserve"
       style="font-size:11.63422298px;font-style:normal;font-variant:normal;font-weight:normal;font-stretch:normal;line-height:125%;letter-spacing:0px;word-spacing:0px;fill:#000000;fill-opacity:1;stroke:none;font-family:Droid Sans;-inkscape-font-specification:Droid Sans"><tspan
         x="326.62131"
         y="591.73639"
         id="tspan2996"
         style="fill:#1a1a1a">C=16</tspan></text>
    <text
       x="326.62131"
       y="603.17133"
       transform="scale(1.1435014,0.87450702)"
       id="text2998"
       xml:space="preserve"
       style="font-size:11.63422298px;font-style:normal;font-variant:normal;font-weight:normal;font-stretch:normal;line-height:125%;letter-spacing:0px;word-spacing:0px;fill:#000000;fill-opacity:1;stroke:none;font-family:Droid Sans;-inkscape-font-specification:Droid Sans"><tspan
         x="326.62131"
         y="603.17133"
         id="tspan3000"
         style="fill:#1a1a1a">G=29</tspan></text>
    <text
       x="326.62131"
       y="614.60626"
       transform="scale(1.1435014,0.87450702)"
       id="text3002"
       xml:space="preserve"
       style="font-size:11.63422298px;font-style:normal;font-variant:normal;font-weight:normal;font-stretch:normal;line-height:125%;letter-spacing:0px;word-spacing:0px;fill:#000000;fill-opacity:1;stroke:none;font-family:Droid Sans;-inkscape-font-specification:Droid Sans"><tspan
         x="326.62131"
         y="614.60626"
         id="tspan3004"
         style="fill:#1a1a1a">K</tspan></text>
    <g
       transform="matrix(0.11683079,0.43386438,-0.5326246,0.12197515,633.34138,288.22915)"
       id="g3952"
       style="fill:#1a1a1a">
      <path
         d="m 358.39312,518.09707 4.92784,-3.92133 45.92635,41.22072 -5.06764,3.12061 z"
         id="path3159"
         style="fill:#1a1a1a;fill-rule:evenodd;stroke:none" />
      <path
         d="m 402.53287,554.54098 c -8.08469,-7.03569 5.37425,-2.66437 12.91496,10.4939 -14.32734,-8.32437 -11.20057,-9.00196 -12.91496,-10.4939 z"
         id="path3163"
         style="fill:#1a1a1a;fill-rule:evenodd;stroke:none" />
    </g>
  </g>
</svg>
