<?xml version="1.0" encoding="UTF-8" standalone="no"?>
<!-- Created with Inkscape (http://www.inkscape.org/) -->

<svg
   xmlns:dc="http://purl.org/dc/elements/1.1/"
   xmlns:cc="http://creativecommons.org/ns#"
   xmlns:rdf="http://www.w3.org/1999/02/22-rdf-syntax-ns#"
   xmlns:svg="http://www.w3.org/2000/svg"
   xmlns="http://www.w3.org/2000/svg"
   xmlns:sodipodi="http://sodipodi.sourceforge.net/DTD/sodipodi-0.dtd"
   xmlns:inkscape="http://www.inkscape.org/namespaces/inkscape"
   width="48"
   height="48"
   id="svg3754"
   version="1.1"
   inkscape:version="0.48.4 r9939"
   sodipodi:docname="editclear.svg">
  <defs
     id="defs3756">
    <linearGradient
       id="linearGradient3257">
      <stop
         id="stop3259"
         style="stop-color:#a50000;stop-opacity:1"
         offset="0" />
      <stop
         id="stop3261"
         style="stop-color:#e73800;stop-opacity:1"
         offset="1" />
    </linearGradient>
  </defs>
  <sodipodi:namedview
     id="base"
     pagecolor="#ffffff"
     bordercolor="#666666"
     borderopacity="1.0"
     inkscape:pageopacity="0.0"
     inkscape:pageshadow="2"
     inkscape:zoom="6.8613752"
     inkscape:cx="14.901383"
     inkscape:cy="28.995857"
     inkscape:document-units="px"
     inkscape:current-layer="layer1"
     showgrid="false"
     fit-margin-top="0"
     fit-margin-left="0"
     fit-margin-right="0"
     fit-margin-bottom="0"
     inkscape:window-width="1680"
     inkscape:window-height="991"
     inkscape:window-x="0"
     inkscape:window-y="-3"
     inkscape:window-maximized="1">
    <sodipodi:guide
       position="17.999981,8.9999929"
       orientation="0,30"
       id="guide3270" />
    <sodipodi:guide
       position="47.999981,8.9999929"
       orientation="-30,0"
       id="guide3272" />
    <sodipodi:guide
       position="47.999981,38.999993"
       orientation="0,-30"
       id="guide3274" />
    <sodipodi:guide
       position="-1.8867187e-05,38.999993"
       orientation="30,0"
       id="guide3276" />
    <sodipodi:guide
       position="-1.8867187e-05,8.9999929"
       orientation="0,18"
       id="guide3278" />
    <sodipodi:guide
       position="17.999981,8.9999929"
       orientation="-30,0"
       id="guide3280" />
    <sodipodi:guide
       position="17.999981,38.999993"
       orientation="0,-18"
       id="guide3282" />
    <sodipodi:guide
       position="23.999981,32.999993"
       orientation="18,0"
       id="guide3317" />
    <sodipodi:guide
       position="23.999981,14.999993"
       orientation="0,18"
       id="guide3319" />
    <sodipodi:guide
       position="41.999981,14.999993"
       orientation="-18,0"
       id="guide3321" />
    <sodipodi:guide
       position="41.999981,32.999993"
       orientation="0,-18"
       id="guide3323" />
  </sodipodi:namedview>
  <metadata
     id="metadata3759">
    <rdf:RDF>
      <cc:Work
         rdf:about="">
        <dc:format>image/svg+xml</dc:format>
        <dc:type
           rdf:resource="http://purl.org/dc/dcmitype/StillImage" />
        <dc:title />
      </cc:Work>
    </rdf:RDF>
  </metadata>
  <g
     inkscape:label="Capa 1"
     inkscape:groupmode="layer"
     id="layer1"
     transform="translate(-768.57143,-650.07647)">
    <path
       style="fill:#1a1a1a;fill-opacity:1;fill-rule:evenodd;stroke:none"
       d="M 18 9 L 0 24 L 18 39 L 48 39 L 48 9 L 18 9 z M 26.828125 15 L 33 21.171875 L 39.171875 15 L 42 17.828125 L 35.828125 24 L 42 30.171875 L 39.171875 33 L 33 26.828125 L 26.828125 33 L 24 30.171875 L 30.171875 24 L 24 17.828125 L 26.828125 15 z "
       transform="translate(768.57143,650.07647)"
       id="path3284" />
  </g>
</svg>
