<?xml version="1.0" encoding="UTF-8" standalone="no"?>
<!-- Created using Karbon, part of Calligra: http://www.calligra.org/karbon -->

<svg
   xmlns:dc="http://purl.org/dc/elements/1.1/"
   xmlns:cc="http://creativecommons.org/ns#"
   xmlns:rdf="http://www.w3.org/1999/02/22-rdf-syntax-ns#"
   xmlns:svg="http://www.w3.org/2000/svg"
   xmlns="http://www.w3.org/2000/svg"
   xmlns:sodipodi="http://sodipodi.sourceforge.net/DTD/sodipodi-0.dtd"
   xmlns:inkscape="http://www.inkscape.org/namespaces/inkscape"
   width="38.4pt"
   height="38.4pt"
   id="svg2"
   version="1.1"
   inkscape:version="0.48.4 r9939"
   sodipodi:docname="format-break-node.svg">
  <metadata
     id="metadata14">
    <rdf:RDF>
      <cc:Work
         rdf:about="">
        <dc:format>image/svg+xml</dc:format>
        <dc:type
           rdf:resource="http://purl.org/dc/dcmitype/StillImage" />
        <dc:title></dc:title>
      </cc:Work>
    </rdf:RDF>
  </metadata>
  <sodipodi:namedview
     pagecolor="#ffffff"
     bordercolor="#666666"
     borderopacity="1"
     objecttolerance="10"
     gridtolerance="10"
     guidetolerance="10"
     inkscape:pageopacity="0"
     inkscape:pageshadow="2"
     inkscape:window-width="1680"
     inkscape:window-height="991"
     id="namedview12"
     showgrid="false"
     inkscape:zoom="16.033388"
     inkscape:cx="30.735626"
     inkscape:cy="19.683739"
     inkscape:window-x="0"
     inkscape:window-y="-3"
     inkscape:window-maximized="1"
     inkscape:current-layer="svg2"
     showguides="true"
     inkscape:guide-bbox="true">
    <sodipodi:guide
       position="9.5367432e-07,48.000001"
       orientation="47.999999,0"
       id="guide4072" />
    <sodipodi:guide
       position="9.5367432e-07,1.9073486e-06"
       orientation="0,47.999999"
       id="guide4074" />
    <sodipodi:guide
       position="48,1.9073486e-06"
       orientation="-47.999999,0"
       id="guide4076" />
    <sodipodi:guide
       position="48,48.000001"
       orientation="0,-47.999999"
       id="guide4078" />
    <sodipodi:guide
       position="9.000001,39.000001"
       orientation="29.999999,0"
       id="guide4080" />
    <sodipodi:guide
       position="9.000001,9.0000019"
       orientation="0,29.999999"
       id="guide4082" />
    <sodipodi:guide
       position="39,9.0000019"
       orientation="-29.999999,0"
       id="guide4084" />
    <sodipodi:guide
       position="39,39.000001"
       orientation="0,-29.999999"
       id="guide4086" />
    <sodipodi:guide
       position="13.000001,35.000001"
       orientation="21.999999,0"
       id="guide4095" />
    <sodipodi:guide
       position="35,13.000002"
       orientation="-21.999999,0"
       id="guide4099" />
  </sodipodi:namedview>
  <defs
     id="defs4" />
  <rect
     style="fill:#1a1a1a;fill-rule:evenodd"
     y="27.703245"
     x="33.05349"
     height="10.382428"
     width="1.8839718"
     transform="matrix(0.99999548,-0.00300511,0.00556594,0.99998451,0,0)"
     id="rect3288" />
  <path
     style="fill:#1a1a1a;fill-rule:evenodd"
     d="M 39.03125 23.15625 L 26.375 23.1875 L 26.375 24.8125 L 39.03125 24.78125 L 39.03125 23.15625 z M 20.3125 23.1875 L 8.96875 23.21875 L 8.96875 24.84375 L 20.3125 24.8125 L 20.3125 23.1875 z "
     id="rect2996" />
  <rect
     id="rect2995"
     transform="matrix(0.00290653,0.99999578,-0.99998344,0.00575471,0,0)"
     width="1.8839712"
     height="10.041852"
     x="32.045101"
     y="-38.933636"
     style="fill:#1a1a1a;fill-rule:evenodd" />
  <rect
     y="21.283867"
     x="20.309713"
     height="5.5885787"
     width="6.0656528"
     id="rect3819"
     style="fill:none;stroke:#1a1a1a;stroke-opacity:1" />
</svg>
