<?xml version="1.0" encoding="UTF-8" standalone="no"?>
<!-- Created using Karbon, part of Calligra: http://www.calligra.org/karbon -->

<svg
   xmlns:dc="http://purl.org/dc/elements/1.1/"
   xmlns:cc="http://creativecommons.org/ns#"
   xmlns:rdf="http://www.w3.org/1999/02/22-rdf-syntax-ns#"
   xmlns:svg="http://www.w3.org/2000/svg"
   xmlns="http://www.w3.org/2000/svg"
   xmlns:sodipodi="http://sodipodi.sourceforge.net/DTD/sodipodi-0.dtd"
   xmlns:inkscape="http://www.inkscape.org/namespaces/inkscape"
   width="38.4pt"
   height="38.4pt"
   id="svg2"
   version="1.1"
   inkscape:version="0.48.4 r9939"
   sodipodi:docname="layer-visible-off.svg">
  <metadata
     id="metadata11">
    <rdf:RDF>
      <cc:Work
         rdf:about="">
        <dc:format>image/svg+xml</dc:format>
        <dc:type
           rdf:resource="http://purl.org/dc/dcmitype/StillImage" />
        <dc:title />
      </cc:Work>
    </rdf:RDF>
  </metadata>
  <sodipodi:namedview
     pagecolor="#ffffff"
     bordercolor="#666666"
     borderopacity="1"
     objecttolerance="10"
     gridtolerance="10"
     guidetolerance="10"
     inkscape:pageopacity="0"
     inkscape:pageshadow="2"
     inkscape:window-width="1680"
     inkscape:window-height="991"
     id="namedview9"
     showgrid="false"
     inkscape:showpageshadow="false"
     borderlayer="true"
     inkscape:zoom="11.313708"
     inkscape:cx="27.318835"
     inkscape:cy="31.518158"
     inkscape:window-x="0"
     inkscape:window-y="-3"
     inkscape:window-maximized="1"
     inkscape:current-layer="svg2">
    <sodipodi:guide
       position="9.5367432e-07,48.000001"
       orientation="47.999999,0"
       id="guide4069" />
    <sodipodi:guide
       position="9.5367432e-07,1.9073486e-06"
       orientation="0,47.999999"
       id="guide4071" />
    <sodipodi:guide
       position="48,1.9073486e-06"
       orientation="-47.999999,0"
       id="guide4073" />
    <sodipodi:guide
       position="48,48.000001"
       orientation="0,-47.999999"
       id="guide4075" />
    <sodipodi:guide
       position="9.000001,39.000001"
       orientation="29.999999,0"
       id="guide4077" />
    <sodipodi:guide
       position="9.000001,9.0000019"
       orientation="0,29.999999"
       id="guide4079" />
    <sodipodi:guide
       position="39,9.0000019"
       orientation="-29.999999,0"
       id="guide4081" />
    <sodipodi:guide
       position="39,39.000001"
       orientation="0,-29.999999"
       id="guide4083" />
    <sodipodi:guide
       position="17.5,30.500002"
       orientation="13,0"
       id="guide4115" />
    <sodipodi:guide
       position="17.5,17.500002"
       orientation="0,13"
       id="guide4117" />
    <sodipodi:guide
       position="30.5,17.500002"
       orientation="-13,0"
       id="guide4119" />
    <sodipodi:guide
       position="30.5,30.500002"
       orientation="0,-13"
       id="guide4121" />
    <sodipodi:guide
       position="43,26.000002"
       orientation="0,-4"
       id="guide4134" />
    <sodipodi:guide
       position="39,26.000002"
       orientation="4,0"
       id="guide4136" />
    <sodipodi:guide
       position="39,22.000002"
       orientation="0,4"
       id="guide4138" />
    <sodipodi:guide
       position="43,22.000002"
       orientation="-4,0"
       id="guide4140" />
    <sodipodi:guide
       position="22,13.000002"
       orientation="4,0"
       id="guide4142" />
    <sodipodi:guide
       position="22,9.0000019"
       orientation="0,4"
       id="guide4144" />
    <sodipodi:guide
       position="26,9.0000019"
       orientation="-4,0"
       id="guide4146" />
    <sodipodi:guide
       position="26,13.000002"
       orientation="0,-4"
       id="guide4148" />
    <sodipodi:guide
       position="9,26.000002"
       orientation="0,-4"
       id="guide4150" />
    <sodipodi:guide
       position="5,26.000002"
       orientation="4,0"
       id="guide4152" />
    <sodipodi:guide
       position="5,22.000002"
       orientation="0,4"
       id="guide4154" />
    <sodipodi:guide
       position="9,22.000002"
       orientation="-4,0"
       id="guide4156" />
    <sodipodi:guide
       position="22,39.000002"
       orientation="4,0"
       id="guide4158" />
    <sodipodi:guide
       position="22,35.000002"
       orientation="0,4"
       id="guide4160" />
    <sodipodi:guide
       position="26,35.000002"
       orientation="-4,0"
       id="guide4162" />
    <sodipodi:guide
       position="26,39.000002"
       orientation="0,-4"
       id="guide4164" />
  </sodipodi:namedview>
  <defs
     id="defs4" />
  <path
     style="fill:#1a1a1a;fill-opacity:1;stroke:none"
     d="M 24 9 C 15.69 9 5 15.69 5 24 C 5 32.31 15.69 39 24 39 C 32.31 39 43 32.31 43 24 C 43 15.69 32.31 9 24 9 z M 24 13 C 30.560527 13 39 17.905999 39 24 C 39 30.094002 30.560527 35 24 35 C 17.439472 35 9 30.094002 9 24 C 9 17.905999 17.439472 13 24 13 z "
     id="path4209" />
</svg>
