<?xml version="1.0" encoding="UTF-8" standalone="no"?>
<!-- Created with Inkscape (http://www.inkscape.org/) -->

<svg
   xmlns:dc="http://purl.org/dc/elements/1.1/"
   xmlns:cc="http://creativecommons.org/ns#"
   xmlns:rdf="http://www.w3.org/1999/02/22-rdf-syntax-ns#"
   xmlns:svg="http://www.w3.org/2000/svg"
   xmlns="http://www.w3.org/2000/svg"
   xmlns:sodipodi="http://sodipodi.sourceforge.net/DTD/sodipodi-0.dtd"
   xmlns:inkscape="http://www.inkscape.org/namespaces/inkscape"
   width="48"
   height="48"
   id="svg2"
   version="1.1"
   inkscape:version="0.48.4 r9939"
   sodipodi:docname="media-playlist-repeat.svg">
  <defs
     id="defs4" />
  <sodipodi:namedview
     id="base"
     pagecolor="#ffffff"
     bordercolor="#666666"
     borderopacity="1.0"
     inkscape:pageopacity="0.0"
     inkscape:pageshadow="2"
     inkscape:zoom="8.1159418"
     inkscape:cx="15.944593"
     inkscape:cy="31.39572"
     inkscape:document-units="px"
     inkscape:current-layer="layer1"
     showgrid="false"
     inkscape:window-width="1680"
     inkscape:window-height="991"
     inkscape:window-x="0"
     inkscape:window-y="-3"
     inkscape:window-maximized="1">
    <sodipodi:guide
       position="9,39.000017"
       orientation="30,0"
       id="guide3265" />
    <sodipodi:guide
       position="9,9.0000174"
       orientation="0,30"
       id="guide3267" />
    <sodipodi:guide
       position="39,9.0000174"
       orientation="-30,0"
       id="guide3269" />
    <sodipodi:guide
       position="39,39.000017"
       orientation="0,-30"
       id="guide3271" />
    <sodipodi:guide
       position="9,31.500017"
       orientation="4,0"
       id="guide4097" />
    <sodipodi:guide
       position="9,27.500017"
       orientation="0,4"
       id="guide4099" />
    <sodipodi:guide
       position="13,27.500017"
       orientation="-4,0"
       id="guide4101" />
    <sodipodi:guide
       position="13,31.500017"
       orientation="0,-4"
       id="guide4103" />
    <sodipodi:guide
       position="35.099998,20.500017"
       orientation="4,0"
       id="guide4105" />
    <sodipodi:guide
       position="35.099998,16.500017"
       orientation="0,4"
       id="guide4107" />
    <sodipodi:guide
       position="39.099998,20.500017"
       orientation="0,-4"
       id="guide4111" />
  </sodipodi:namedview>
  <metadata
     id="metadata7">
    <rdf:RDF>
      <cc:Work
         rdf:about="">
        <dc:format>image/svg+xml</dc:format>
        <dc:type
           rdf:resource="http://purl.org/dc/dcmitype/StillImage" />
        <dc:title />
      </cc:Work>
    </rdf:RDF>
  </metadata>
  <g
     inkscape:label="Capa 1"
     inkscape:groupmode="layer"
     id="layer1"
     transform="translate(0,-1004.3622)">
    <path
       style="fill:#1a1a1a;stroke:none"
       d="M 32 9 L 32 12.5 L 9 12.5 L 9 16.5 L 9 27.5 L 13 27.5 L 13 16.5 L 32 16.5 L 32 20 L 39 14.5 L 32 9 z M 35 20.5 L 35 31.5 L 16 31.5 L 16 28 L 9 33.5 L 16 39 L 16 35.5 L 39 35.5 L 39 31.5 L 39 20.5 L 35 20.5 z "
       transform="translate(0,1004.3622)"
       id="rect4081" />
  </g>
</svg>
