<?xml version="1.0" encoding="UTF-8" standalone="no"?>
<!-- Created with Inkscape (http://www.inkscape.org/) -->

<svg
   xmlns:dc="http://purl.org/dc/elements/1.1/"
   xmlns:cc="http://creativecommons.org/ns#"
   xmlns:rdf="http://www.w3.org/1999/02/22-rdf-syntax-ns#"
   xmlns:svg="http://www.w3.org/2000/svg"
   xmlns="http://www.w3.org/2000/svg"
   xmlns:sodipodi="http://sodipodi.sourceforge.net/DTD/sodipodi-0.dtd"
   xmlns:inkscape="http://www.inkscape.org/namespaces/inkscape"
   width="48"
   height="48"
   id="svg4169"
   version="1.1"
   inkscape:version="0.48.4 r9939"
   sodipodi:docname="arrow-right-double.svg">
  <defs
     id="defs4171" />
  <sodipodi:namedview
     id="base"
     pagecolor="#ffffff"
     bordercolor="#666666"
     borderopacity="1.0"
     inkscape:pageopacity="0.0"
     inkscape:pageshadow="2"
     inkscape:zoom="16"
     inkscape:cx="18.413812"
     inkscape:cy="22.40461"
     inkscape:document-units="px"
     inkscape:current-layer="layer1"
     showgrid="false"
     inkscape:window-width="1680"
     inkscape:window-height="991"
     inkscape:window-x="0"
     inkscape:window-y="-3"
     inkscape:window-maximized="1">
    <sodipodi:guide
       position="9,39.000017"
       orientation="30,0"
       id="guide3273" />
    <sodipodi:guide
       position="39,9.0000174"
       orientation="-30,0"
       id="guide3277" />
    <sodipodi:guide
       position="9,38.753618"
       orientation="30.000061,0"
       id="guide3285" />
    <sodipodi:guide
       position="9,8.7535574"
       orientation="0,18"
       id="guide3287" />
    <sodipodi:guide
       position="27,38.753618"
       orientation="0,-18"
       id="guide3291" />
    <sodipodi:guide
       position="26.999999,23.253557"
       orientation="-0.99999997,0"
       id="guide3313" />
  </sodipodi:namedview>
  <metadata
     id="metadata4174">
    <rdf:RDF>
      <cc:Work
         rdf:about="">
        <dc:format>image/svg+xml</dc:format>
        <dc:type
           rdf:resource="http://purl.org/dc/dcmitype/StillImage" />
        <dc:title />
      </cc:Work>
    </rdf:RDF>
  </metadata>
  <g
     inkscape:label="Capa 1"
     inkscape:groupmode="layer"
     id="layer1"
     transform="translate(0,-1004.3622)">
    <path
       style="fill:#1a1a1a;fill-opacity:1;fill-rule:evenodd;stroke:none"
       d="M 9 9.2460938 L 9 39.246094 L 27 24.246094 L 9 9.2460938 z M 35 15.246094 L 35 33.246094 L 39 33.246094 L 39 15.246094 L 35 15.246094 z "
       transform="translate(0,1004.3622)"
       id="path3293" />
  </g>
</svg>
