<?xml version="1.0" encoding="UTF-8" standalone="no"?>
<!-- Created using Karbon, part of Calligra: http://www.calligra.org/karbon -->

<svg
   xmlns:dc="http://purl.org/dc/elements/1.1/"
   xmlns:cc="http://creativecommons.org/ns#"
   xmlns:rdf="http://www.w3.org/1999/02/22-rdf-syntax-ns#"
   xmlns:svg="http://www.w3.org/2000/svg"
   xmlns="http://www.w3.org/2000/svg"
   xmlns:sodipodi="http://sodipodi.sourceforge.net/DTD/sodipodi-0.dtd"
   xmlns:inkscape="http://www.inkscape.org/namespaces/inkscape"
   width="38.4pt"
   height="38.4pt"
   id="svg2"
   version="1.1"
   inkscape:version="0.48.4 r9939"
   sodipodi:docname="view-filter.svg">
  <metadata
     id="metadata10">
    <rdf:RDF>
      <cc:Work
         rdf:about="">
        <dc:format>image/svg+xml</dc:format>
        <dc:type
           rdf:resource="http://purl.org/dc/dcmitype/StillImage" />
      </cc:Work>
    </rdf:RDF>
  </metadata>
  <sodipodi:namedview
     pagecolor="#ffffff"
     bordercolor="#666666"
     borderopacity="1"
     objecttolerance="10"
     gridtolerance="10"
     guidetolerance="10"
     inkscape:pageopacity="0"
     inkscape:pageshadow="2"
     inkscape:window-width="1680"
     inkscape:window-height="991"
     id="namedview8"
     showgrid="false"
     inkscape:zoom="4.6100296"
     inkscape:cx="73.936493"
     inkscape:cy="45.963051"
     inkscape:window-x="0"
     inkscape:window-y="-3"
     inkscape:window-maximized="1"
     inkscape:current-layer="svg2">
    <sodipodi:guide
       position="9.000001,39.000001"
       orientation="29.999999,0"
       id="guide4066" />
    <sodipodi:guide
       position="9.000001,9.0000019"
       orientation="0,29.999999"
       id="guide4068" />
    <sodipodi:guide
       position="39,9.0000019"
       orientation="-29.999999,0"
       id="guide4070" />
    <sodipodi:guide
       position="39,39.000001"
       orientation="0,-29.999999"
       id="guide4072" />
    <sodipodi:guide
       position="9.5367432e-07,48.000001"
       orientation="47.999999,0"
       id="guide4076" />
    <sodipodi:guide
       position="9.5367432e-07,1.9073486e-06"
       orientation="0,47.999999"
       id="guide4078" />
    <sodipodi:guide
       position="48,1.9073486e-06"
       orientation="-47.999999,0"
       id="guide4080" />
    <sodipodi:guide
       position="48,48.000001"
       orientation="0,-47.999999"
       id="guide4082" />
    <sodipodi:guide
       position="9.000001,13.000002"
       orientation="4,0"
       id="guide4086" />
    <sodipodi:guide
       position="9.000001,9.0000019"
       orientation="0,29.999999"
       id="guide4088" />
    <sodipodi:guide
       position="39,9.0000019"
       orientation="-4,0"
       id="guide4090" />
    <sodipodi:guide
       position="39,13.000002"
       orientation="0,-29.999999"
       id="guide4092" />
    <sodipodi:guide
       position="9.000001,23.000002"
       orientation="14,0"
       id="guide4096" />
    <sodipodi:guide
       position="9.000001,9.0000019"
       orientation="0,29.999999"
       id="guide4098" />
    <sodipodi:guide
       position="39,9.0000019"
       orientation="-14,0"
       id="guide4100" />
    <sodipodi:guide
       position="39,23.000002"
       orientation="0,-29.999999"
       id="guide4102" />
    <sodipodi:guide
       position="9.000001,27.000002"
       orientation="18,0"
       id="guide4106" />
    <sodipodi:guide
       position="9.000001,9.0000019"
       orientation="0,29.999999"
       id="guide4108" />
    <sodipodi:guide
       position="39,9.0000019"
       orientation="-18,0"
       id="guide4110" />
    <sodipodi:guide
       position="39,27.000002"
       orientation="0,-29.999999"
       id="guide4112" />
    <sodipodi:guide
       position="18.5,39.000001"
       orientation="29.999999,0"
       id="guide4116" />
    <sodipodi:guide
       position="18.5,9.0000019"
       orientation="0,11"
       id="guide4118" />
    <sodipodi:guide
       position="29.5,9.0000019"
       orientation="-29.999999,0"
       id="guide4120" />
    <sodipodi:guide
       position="29.5,39.000001"
       orientation="0,-11"
       id="guide4122" />
    <sodipodi:guide
       position="22.500004,13.000002"
       orientation="4,0"
       id="guide4128" />
    <sodipodi:guide
       position="22.500004,9.0000019"
       orientation="0,7"
       id="guide4130" />
    <sodipodi:guide
       position="29.500004,9.0000019"
       orientation="-4,0"
       id="guide4132" />
    <sodipodi:guide
       position="29.500004,13.000002"
       orientation="0,-7"
       id="guide4134" />
    <sodipodi:guide
       position="26.5,23.000002"
       orientation="14,0"
       id="guide4138" />
    <sodipodi:guide
       position="26.5,9.0000019"
       orientation="0,3"
       id="guide4140" />
    <sodipodi:guide
       position="29.5,9.0000019"
       orientation="-14,0"
       id="guide4142" />
    <sodipodi:guide
       position="29.5,23.000002"
       orientation="0,-3"
       id="guide4144" />
  </sodipodi:namedview>
  <defs
     id="defs4" />
  <path
     style="fill:#1a1a1a;stroke:none"
     d="m 9,9 9.5,12 8,0 3,0 L 39,9 z m 17.5,12 -3.999996,-2e-6 L 22.5,35 l 4,4 z"
     id="path4124"
     inkscape:connector-curvature="0"
     sodipodi:nodetypes="ccccccccccc" />
</svg>
